G04*
G04 #@! TF.GenerationSoftware,Altium Limited,Altium Designer,20.1.14 (287)*
G04*
G04 Layer_Physical_Order=2*
G04 Layer_Color=10275833*
%FSLAX24Y24*%
%MOIN*%
G70*
G04*
G04 #@! TF.SameCoordinates,AE778498-3035-4F09-A21B-3D1CA2DCCC63*
G04*
G04*
G04 #@! TF.FilePolarity,Positive*
G04*
G01*
G75*
%ADD12C,0.0060*%
%ADD13R,0.0217X0.0236*%
%ADD14R,0.0236X0.0217*%
%ADD17R,0.0236X0.0252*%
%ADD18R,0.0252X0.0236*%
%ADD19C,0.0500*%
%ADD20R,0.0354X0.0335*%
%ADD21R,0.0335X0.0374*%
%ADD22R,0.0374X0.0335*%
%ADD24R,0.0531X0.0394*%
%ADD62C,0.0150*%
%ADD63C,0.0118*%
%ADD64C,0.0120*%
%ADD67R,0.0552X0.0422*%
%ADD68O,0.0552X0.0422*%
G04:AMPARAMS|DCode=69|XSize=55.2mil|YSize=42.2mil|CornerRadius=21.1mil|HoleSize=0mil|Usage=FLASHONLY|Rotation=0.000|XOffset=0mil|YOffset=0mil|HoleType=Round|Shape=RoundedRectangle|*
%AMROUNDEDRECTD69*
21,1,0.0552,0.0000,0,0,0.0*
21,1,0.0130,0.0422,0,0,0.0*
1,1,0.0422,0.0065,0.0000*
1,1,0.0422,-0.0065,0.0000*
1,1,0.0422,-0.0065,0.0000*
1,1,0.0422,0.0065,0.0000*
%
%ADD69ROUNDEDRECTD69*%
%ADD70R,0.0422X0.0552*%
%ADD71O,0.0422X0.0552*%
G04:AMPARAMS|DCode=72|XSize=55.2mil|YSize=42.2mil|CornerRadius=21.1mil|HoleSize=0mil|Usage=FLASHONLY|Rotation=270.000|XOffset=0mil|YOffset=0mil|HoleType=Round|Shape=RoundedRectangle|*
%AMROUNDEDRECTD72*
21,1,0.0552,0.0000,0,0,270.0*
21,1,0.0130,0.0422,0,0,270.0*
1,1,0.0422,0.0000,-0.0065*
1,1,0.0422,0.0000,0.0065*
1,1,0.0422,0.0000,0.0065*
1,1,0.0422,0.0000,-0.0065*
%
%ADD72ROUNDEDRECTD72*%
%ADD73R,0.0591X0.0591*%
%ADD74C,0.0591*%
%ADD75C,0.0658*%
%ADD76R,0.0658X0.0658*%
%ADD77C,0.0712*%
%ADD78R,0.0712X0.0712*%
%ADD79R,0.0396X0.0396*%
%ADD80C,0.0396*%
%ADD81C,0.0650*%
%ADD82R,0.0650X0.0650*%
%ADD83C,0.2441*%
%ADD84C,0.0400*%
%ADD85R,0.0394X0.0531*%
%ADD86R,0.0571X0.0118*%
%ADD87R,0.0118X0.0571*%
%ADD88R,0.0709X0.0394*%
%ADD89R,0.0394X0.0472*%
%ADD90R,0.0551X0.0394*%
%ADD91R,0.0315X0.0315*%
%ADD92R,0.0256X0.0394*%
%ADD93R,0.0236X0.0413*%
%ADD94R,0.0236X0.0571*%
%ADD95R,0.0591X0.0787*%
%ADD96R,0.0669X0.0413*%
%ADD97R,0.0591X0.0472*%
%ADD98C,0.0200*%
%ADD99C,0.0250*%
G36*
X42550Y18950D02*
X39419D01*
X39372Y18958D01*
Y19588D01*
X39150D01*
Y21750D01*
X42550D01*
Y18950D01*
D02*
G37*
G36*
X43400Y33425D02*
Y17240D01*
X43355Y17212D01*
X43350Y17212D01*
X43332Y17215D01*
X43307Y17220D01*
X40745Y17221D01*
X40720Y17250D01*
Y18600D01*
X40711Y18646D01*
X40685Y18685D01*
X40646Y18711D01*
X40600Y18720D01*
X39000D01*
X38954Y18711D01*
X38920Y18689D01*
X38896Y18695D01*
X38870Y18709D01*
Y18912D01*
X38920Y18958D01*
X39252D01*
X39255Y18945D01*
X39255Y18931D01*
X39259Y18922D01*
X39261Y18912D01*
X39269Y18900D01*
X39274Y18888D01*
X39282Y18881D01*
X39287Y18873D01*
X39299Y18865D01*
X39309Y18856D01*
X39318Y18852D01*
X39326Y18847D01*
X39340Y18844D01*
X39352Y18839D01*
X39399Y18831D01*
X39409Y18832D01*
X39419Y18830D01*
X42550D01*
X42596Y18839D01*
X42635Y18865D01*
X42661Y18904D01*
X42670Y18950D01*
Y21750D01*
X42661Y21796D01*
X42635Y21835D01*
X42596Y21861D01*
X42550Y21870D01*
X39150D01*
X39104Y21861D01*
X39065Y21835D01*
X39039Y21796D01*
X39030Y21750D01*
Y19588D01*
X38880D01*
Y19454D01*
X38427D01*
Y19509D01*
X37974D01*
Y19226D01*
X37870D01*
X37870Y22680D01*
X42450D01*
X42496Y22689D01*
X42535Y22715D01*
X42561Y22754D01*
X42570Y22800D01*
Y27050D01*
X42561Y27096D01*
X42535Y27135D01*
X42496Y27161D01*
X42450Y27170D01*
X36750D01*
X36704Y27161D01*
X36665Y27135D01*
X36639Y27096D01*
X36630Y27050D01*
X36630Y17600D01*
X36639Y17554D01*
X36665Y17515D01*
X36704Y17489D01*
X36750Y17480D01*
X38750Y17480D01*
X38796Y17489D01*
X38830Y17511D01*
X38854Y17505D01*
X38880Y17491D01*
Y17250D01*
X38889Y17204D01*
X38896Y17194D01*
X38912Y17158D01*
X38894Y17119D01*
X38889Y17111D01*
X38889Y17111D01*
X38889Y17111D01*
X38885Y17093D01*
X38880Y17065D01*
X38880Y17065D01*
Y16156D01*
X38889Y16109D01*
X38915Y16070D01*
X38954Y16044D01*
X39000Y16035D01*
X39035D01*
Y15666D01*
X39000D01*
X38954Y15657D01*
X38915Y15630D01*
X38889Y15591D01*
X38880Y15545D01*
Y15363D01*
X37297D01*
X34132Y18528D01*
X34052Y18582D01*
X33957Y18601D01*
X22454D01*
X22415Y18631D01*
X22337Y18663D01*
X22254Y18674D01*
X22171Y18663D01*
X22094Y18631D01*
X22027Y18580D01*
X21976Y18514D01*
X21944Y18436D01*
X21933Y18353D01*
X21944Y18270D01*
X21976Y18193D01*
X22027Y18126D01*
X22094Y18075D01*
X22171Y18043D01*
X22254Y18032D01*
X22337Y18043D01*
X22415Y18075D01*
X22454Y18105D01*
X33854D01*
X37019Y14940D01*
X37100Y14886D01*
X37195Y14867D01*
X38848D01*
X38880Y14828D01*
X38885Y14809D01*
X38889Y14790D01*
X38891Y14786D01*
X38892Y14782D01*
X38904Y14767D01*
X38915Y14751D01*
X38918Y14748D01*
X38921Y14745D01*
X38958Y14712D01*
X38962Y14710D01*
X38964Y14707D01*
X38982Y14698D01*
X38999Y14689D01*
X39003Y14688D01*
X39006Y14686D01*
X39026Y14685D01*
X39045Y14683D01*
X39049Y14684D01*
X39053Y14683D01*
X39062Y14684D01*
X39113Y14678D01*
X39157Y14660D01*
X39203Y14650D01*
X39697D01*
X39720Y14615D01*
X39759Y14589D01*
X39806Y14580D01*
X39941D01*
X39955Y14554D01*
X39961Y14530D01*
X39939Y14496D01*
X39930Y14450D01*
Y12070D01*
X34910D01*
Y12742D01*
X34910Y12745D01*
X34910Y12749D01*
X34907Y12762D01*
X34906Y12773D01*
X34903Y12779D01*
X34901Y12788D01*
X34899Y12791D01*
X34898Y12795D01*
X34890Y12805D01*
X34885Y12815D01*
X34880Y12820D01*
X34875Y12827D01*
X34872Y12829D01*
X34869Y12832D01*
X34869Y12832D01*
X34859Y12838D01*
X34850Y12846D01*
X34842Y12849D01*
X34836Y12853D01*
X34832Y12854D01*
X34829Y12856D01*
X34817Y12857D01*
X34805Y12861D01*
X34738Y12870D01*
X34690Y12890D01*
X34649Y12922D01*
X34617Y12963D01*
X34597Y13011D01*
X34590Y13063D01*
X34597Y13114D01*
X34617Y13162D01*
X34649Y13204D01*
X34690Y13235D01*
X34738Y13255D01*
X34805Y13264D01*
X34817Y13268D01*
X34829Y13269D01*
X34832Y13272D01*
X34836Y13272D01*
X34842Y13277D01*
X34850Y13279D01*
X34859Y13287D01*
X34869Y13293D01*
X34869Y13293D01*
X34872Y13296D01*
X34875Y13299D01*
X34880Y13305D01*
X34885Y13310D01*
X34890Y13321D01*
X34898Y13330D01*
X34899Y13334D01*
X34901Y13338D01*
X34903Y13346D01*
X34906Y13352D01*
X34907Y13363D01*
X34910Y13376D01*
X34910Y13380D01*
X34910Y13384D01*
Y15079D01*
X34910Y15082D01*
X34910Y15086D01*
X34907Y15099D01*
X34906Y15110D01*
X34903Y15116D01*
X34901Y15125D01*
X34899Y15128D01*
X34898Y15132D01*
X34890Y15142D01*
X34885Y15152D01*
X34880Y15157D01*
X34875Y15164D01*
X34872Y15166D01*
X34869Y15169D01*
X34869Y15169D01*
X34859Y15175D01*
X34850Y15183D01*
X34842Y15186D01*
X34836Y15190D01*
X34832Y15191D01*
X34829Y15193D01*
X34817Y15194D01*
X34805Y15198D01*
X34738Y15207D01*
X34690Y15227D01*
X34649Y15259D01*
X34617Y15300D01*
X34597Y15348D01*
X34590Y15400D01*
X34597Y15451D01*
X34617Y15499D01*
X34649Y15541D01*
X34690Y15572D01*
X34738Y15592D01*
X34805Y15601D01*
X34817Y15605D01*
X34829Y15606D01*
X34832Y15609D01*
X34836Y15609D01*
X34842Y15614D01*
X34850Y15616D01*
X34859Y15624D01*
X34869Y15630D01*
X34869Y15630D01*
X34872Y15633D01*
X34875Y15636D01*
X34880Y15642D01*
X34885Y15647D01*
X34890Y15658D01*
X34898Y15667D01*
X34899Y15671D01*
X34901Y15675D01*
X34903Y15683D01*
X34906Y15689D01*
X34907Y15700D01*
X34910Y15713D01*
X34910Y15717D01*
X34910Y15721D01*
Y16250D01*
X34901Y16296D01*
X34875Y16335D01*
X34836Y16361D01*
X34790Y16370D01*
X29964D01*
X29918Y16361D01*
X29879Y16335D01*
X29855Y16300D01*
X29245D01*
X29222Y16335D01*
X29183Y16361D01*
X29137Y16370D01*
X28870D01*
Y16850D01*
X28861Y16896D01*
X28835Y16935D01*
X28796Y16961D01*
X28750Y16970D01*
X28581Y16970D01*
X28546Y17006D01*
Y17368D01*
X27955D01*
Y17263D01*
X27889Y17250D01*
X27830Y17210D01*
X27512Y16893D01*
X27473Y16834D01*
X27459Y16765D01*
Y15712D01*
X27277Y15529D01*
X27234Y15557D01*
X27241Y15573D01*
X27244Y15600D01*
X27000D01*
Y15356D01*
X27028Y15360D01*
X27044Y15367D01*
X27072Y15324D01*
X26859Y15111D01*
X25860D01*
X25817Y15167D01*
X25750Y15218D01*
X25673Y15250D01*
X25645Y15254D01*
X25636Y15264D01*
X25614Y15308D01*
X25625Y15362D01*
Y15386D01*
X25676Y15425D01*
X25725D01*
X25791Y15374D01*
X25868Y15342D01*
X25950Y15332D01*
X26033Y15342D01*
X26110Y15374D01*
X26176Y15425D01*
X26187Y15439D01*
X26237D01*
X26238Y15438D01*
X26300Y15390D01*
X26373Y15360D01*
X26400Y15356D01*
Y15650D01*
X26500D01*
Y15356D01*
X26528Y15360D01*
X26601Y15390D01*
X26663Y15438D01*
X26675Y15454D01*
X26725D01*
X26738Y15438D01*
X26800Y15390D01*
X26873Y15360D01*
X26900Y15356D01*
Y15650D01*
X26950D01*
Y15700D01*
X27244D01*
X27241Y15728D01*
X27211Y15801D01*
X27163Y15863D01*
X27147Y15875D01*
Y15925D01*
X27163Y15938D01*
X27211Y16000D01*
X27241Y16073D01*
X27244Y16100D01*
X26950D01*
Y16150D01*
X26900D01*
Y16444D01*
X26873Y16441D01*
X26800Y16411D01*
X26738Y16363D01*
X26737Y16361D01*
X26687D01*
X26676Y16376D01*
X26610Y16426D01*
X26533Y16458D01*
X26450Y16469D01*
X26368Y16458D01*
X26291Y16426D01*
X26225Y16376D01*
X26176D01*
X26110Y16426D01*
X26033Y16458D01*
X25950Y16469D01*
X25868Y16458D01*
X25791Y16426D01*
X25725Y16376D01*
X25676D01*
X25610Y16426D01*
X25533Y16458D01*
X25450Y16469D01*
X25368Y16458D01*
X25316Y16437D01*
X25266Y16466D01*
Y16466D01*
X24634D01*
Y16247D01*
X24575Y16235D01*
X24517Y16196D01*
X24223Y15902D01*
X24175Y15925D01*
X24166Y15992D01*
X24134Y16070D01*
X24083Y16136D01*
X24017Y16187D01*
X23939Y16219D01*
X23856Y16230D01*
X23773Y16219D01*
X23696Y16187D01*
X23629Y16136D01*
X23594Y16090D01*
X23159D01*
X23090Y16076D01*
X23032Y16037D01*
X22088Y15094D01*
X22042Y15113D01*
Y15456D01*
X22098D01*
Y15944D01*
X21625D01*
X21621Y15993D01*
Y16039D01*
X20480D01*
Y15272D01*
X20444Y15237D01*
X19956D01*
Y14764D01*
X20444D01*
X20480Y14729D01*
Y14661D01*
X20614D01*
Y14556D01*
X20628Y14486D01*
X20667Y14428D01*
X20767Y14328D01*
Y14129D01*
X20731Y14095D01*
X20717Y14095D01*
X19553D01*
Y16005D01*
X19539Y16074D01*
X19500Y16133D01*
X19103Y16530D01*
X19044Y16569D01*
X18975Y16583D01*
X18842D01*
X18821Y16633D01*
X18769Y16702D01*
X18700Y16755D01*
X18620Y16788D01*
X18534Y16799D01*
X18448Y16788D01*
X18368Y16755D01*
X18320Y16717D01*
X18284Y16706D01*
X18248Y16717D01*
X18200Y16755D01*
X18120Y16788D01*
X18034Y16799D01*
X17948Y16788D01*
X17868Y16755D01*
X17820Y16717D01*
X17784Y16706D01*
X17748Y16717D01*
X17700Y16755D01*
X17620Y16788D01*
X17534Y16799D01*
X17448Y16788D01*
X17368Y16755D01*
X17320Y16717D01*
X17284Y16706D01*
X17248Y16717D01*
X17200Y16755D01*
X17120Y16788D01*
X17034Y16799D01*
X16948Y16788D01*
X16913Y16773D01*
X16863Y16796D01*
Y16796D01*
X16205D01*
Y16008D01*
X16353D01*
Y15986D01*
X16367Y15917D01*
X16406Y15858D01*
X17459Y14806D01*
X17517Y14767D01*
X17586Y14753D01*
X17691D01*
X18303Y14141D01*
X18283Y14095D01*
X18211D01*
Y13872D01*
X17366D01*
X16652Y14586D01*
X16593Y14626D01*
X16524Y14639D01*
X15207D01*
X15174Y14682D01*
X15105Y14735D01*
X15025Y14768D01*
X14939Y14780D01*
X14809D01*
X14723Y14768D01*
X14643Y14735D01*
X14574Y14682D01*
X14522Y14614D01*
X14489Y14534D01*
X14477Y14448D01*
X14489Y14362D01*
X14522Y14282D01*
X14574Y14213D01*
Y14182D01*
X14522Y14114D01*
X14489Y14034D01*
X14477Y13948D01*
X14489Y13862D01*
X14522Y13782D01*
X14574Y13713D01*
Y13682D01*
X14522Y13614D01*
X14489Y13534D01*
X14477Y13448D01*
X14489Y13362D01*
X14522Y13282D01*
X14574Y13213D01*
Y13182D01*
X14522Y13114D01*
X14489Y13034D01*
X14477Y12948D01*
X14489Y12862D01*
X14503Y12827D01*
X14480Y12777D01*
X14480D01*
Y12119D01*
X14700D01*
X14707Y12081D01*
X14746Y12023D01*
X14943Y11826D01*
X15002Y11787D01*
X15071Y11773D01*
X16122D01*
X16191Y11787D01*
X16250Y11826D01*
X16666Y12241D01*
X17306D01*
Y12048D01*
Y11656D01*
X17303Y11653D01*
X17256Y11639D01*
X17236Y11665D01*
X17169Y11716D01*
X17092Y11748D01*
X17009Y11759D01*
X16926Y11748D01*
X16849Y11716D01*
X16782Y11665D01*
X16731Y11598D01*
X16699Y11521D01*
X16688Y11438D01*
X16699Y11355D01*
X16731Y11277D01*
X16782Y11211D01*
X16849Y11160D01*
X16926Y11128D01*
X17009Y11117D01*
X17092Y11128D01*
X17169Y11160D01*
X17236Y11211D01*
X17256Y11236D01*
X17306Y11219D01*
Y10681D01*
X17306Y10670D01*
Y10631D01*
X17306Y10620D01*
Y10331D01*
X17256Y10310D01*
X16511Y11054D01*
X16509Y11058D01*
X16450Y11098D01*
X16380Y11111D01*
X12785D01*
X11682Y12215D01*
Y12624D01*
X11737D01*
Y13431D01*
X11264D01*
Y13431D01*
X11237D01*
Y13431D01*
X10764D01*
Y13431D01*
X10737D01*
Y13431D01*
X10264D01*
Y13431D01*
X10237D01*
Y13431D01*
X9787D01*
X9750Y13431D01*
X9714Y13431D01*
X9287D01*
X9250Y13431D01*
X9214Y13431D01*
X8787D01*
X8750Y13431D01*
X8714Y13431D01*
X8264D01*
Y12624D01*
X8714D01*
X8750Y12624D01*
X8787Y12624D01*
X9214D01*
X9250Y12624D01*
X9287Y12624D01*
X9783D01*
X9819Y12589D01*
Y11630D01*
X9833Y11560D01*
X9872Y11501D01*
X12032Y9341D01*
X12091Y9302D01*
X12161Y9288D01*
X14440D01*
X14447Y9267D01*
X14448Y9238D01*
X14397Y9203D01*
X13837Y8643D01*
X13666D01*
X13625Y8697D01*
X13556Y8750D01*
X13476Y8783D01*
X13390Y8795D01*
X13260D01*
X13174Y8783D01*
X13094Y8750D01*
X13025Y8697D01*
X12973Y8629D01*
X12940Y8549D01*
X12928Y8463D01*
X12940Y8377D01*
X12973Y8297D01*
X13010Y8248D01*
X13021Y8213D01*
X13010Y8177D01*
X12973Y8129D01*
X12940Y8049D01*
X12928Y7963D01*
X12940Y7877D01*
X12973Y7797D01*
X13010Y7748D01*
X13021Y7713D01*
X13010Y7677D01*
X12973Y7629D01*
X12940Y7549D01*
X12928Y7463D01*
X12940Y7377D01*
X12973Y7297D01*
X13010Y7248D01*
X13021Y7213D01*
X13010Y7177D01*
X12973Y7129D01*
X12940Y7049D01*
X12928Y6963D01*
X12940Y6877D01*
X12954Y6842D01*
X12931Y6792D01*
X12931D01*
Y6134D01*
X13719D01*
Y6282D01*
X14760D01*
X14829Y6296D01*
X14888Y6335D01*
X16660Y8108D01*
X17709D01*
X17727Y8111D01*
X18113D01*
Y8308D01*
Y8702D01*
Y9095D01*
Y9489D01*
Y9883D01*
Y10273D01*
X18262D01*
X18352Y10183D01*
X18349Y10124D01*
X18308Y10093D01*
X18257Y10026D01*
X18225Y9949D01*
X18214Y9866D01*
X18225Y9783D01*
X18257Y9705D01*
X18308Y9639D01*
X18375Y9588D01*
X18452Y9556D01*
X18535Y9545D01*
X18618Y9556D01*
X18695Y9588D01*
X18762Y9639D01*
X18813Y9705D01*
X18845Y9783D01*
X18856Y9866D01*
X18845Y9949D01*
X18813Y10026D01*
X18762Y10093D01*
X18731Y10117D01*
Y10240D01*
X18717Y10309D01*
X18678Y10368D01*
X18464Y10581D01*
X18406Y10620D01*
X18378Y10626D01*
Y10677D01*
X18396Y10680D01*
X18455Y10720D01*
X18882Y11147D01*
X18940Y11139D01*
X19023Y11150D01*
X19100Y11182D01*
X19167Y11233D01*
X19218Y11300D01*
X19250Y11377D01*
X19261Y11460D01*
X19250Y11543D01*
X19218Y11620D01*
X19167Y11687D01*
X19100Y11738D01*
X19023Y11770D01*
X18940Y11781D01*
X18857Y11770D01*
X18780Y11738D01*
X18737Y11705D01*
X18683Y11727D01*
X18680Y11753D01*
X18648Y11830D01*
X18597Y11897D01*
X18567Y11920D01*
Y11983D01*
X18567Y11983D01*
X18618Y12050D01*
X18650Y12127D01*
X18661Y12210D01*
X18650Y12293D01*
X18618Y12370D01*
X18567Y12437D01*
X18500Y12488D01*
X18423Y12520D01*
X18340Y12531D01*
X18257Y12520D01*
X18180Y12488D01*
X18163Y12475D01*
X18113Y12500D01*
Y12835D01*
Y13190D01*
X17727D01*
X17709Y13193D01*
X17557D01*
X17289Y13462D01*
X17310Y13511D01*
X18211D01*
Y13288D01*
X20373D01*
Y12764D01*
X20325Y12744D01*
X20258Y12693D01*
X20207Y12626D01*
X20175Y12549D01*
X20164Y12466D01*
X20175Y12383D01*
X20207Y12305D01*
X20258Y12239D01*
X20325Y12188D01*
X20402Y12156D01*
X20485Y12145D01*
X20568Y12156D01*
X20645Y12188D01*
X20712Y12239D01*
X20763Y12305D01*
X20795Y12383D01*
X20806Y12466D01*
X20795Y12549D01*
X20763Y12626D01*
X20734Y12664D01*
Y13254D01*
X20770Y13288D01*
X20784Y13288D01*
X21453D01*
X21478Y13238D01*
X21457Y13210D01*
X21425Y13133D01*
X21414Y13050D01*
X21425Y12967D01*
X21457Y12890D01*
X21508Y12823D01*
X21556Y12786D01*
X21553Y12732D01*
X21551Y12730D01*
X21498Y12708D01*
X21432Y12657D01*
X21381Y12590D01*
X21349Y12513D01*
X21338Y12430D01*
X21349Y12347D01*
X21381Y12269D01*
X21429Y12207D01*
X21425Y12180D01*
X21414Y12154D01*
X21340Y12123D01*
X21274Y12072D01*
X21223Y12006D01*
X21190Y11928D01*
X21180Y11845D01*
X21190Y11762D01*
X21223Y11685D01*
X21274Y11618D01*
X21340Y11567D01*
X21417Y11535D01*
X21500Y11524D01*
X21558Y11532D01*
X21928Y11162D01*
X21987Y11123D01*
X22056Y11109D01*
X22936D01*
X23129Y10916D01*
X23187Y10877D01*
X23256Y10863D01*
X23354D01*
X23388Y10828D01*
Y10473D01*
Y10290D01*
X23388Y10276D01*
X23354Y10240D01*
X23307D01*
X23238Y10227D01*
X23179Y10188D01*
X22884Y9893D01*
X22613D01*
X22578Y9939D01*
X22511Y9990D01*
X22434Y10022D01*
X22351Y10033D01*
X22268Y10022D01*
X22190Y9990D01*
X22124Y9939D01*
X22073Y9873D01*
X22041Y9796D01*
X22030Y9713D01*
X22041Y9629D01*
X22073Y9552D01*
X22124Y9486D01*
X22190Y9435D01*
X22268Y9403D01*
X22351Y9392D01*
X22434Y9403D01*
X22511Y9435D01*
X22578Y9486D01*
X22613Y9532D01*
X22959D01*
X23028Y9546D01*
X23087Y9585D01*
X23338Y9836D01*
X23388Y9815D01*
Y9292D01*
Y8898D01*
Y8505D01*
Y8111D01*
X24195D01*
Y8505D01*
Y8943D01*
X24241Y8962D01*
X24772Y8431D01*
Y8224D01*
X25579D01*
X25602Y8184D01*
Y8175D01*
X26154D01*
Y8725D01*
Y9276D01*
X25602D01*
Y9267D01*
X25579Y9227D01*
X25028D01*
X24657Y9597D01*
X24599Y9636D01*
X24530Y9650D01*
X24195D01*
Y9883D01*
Y10223D01*
X24195Y10237D01*
X24229Y10273D01*
X24373D01*
X24578Y10068D01*
Y9693D01*
X25523D01*
Y9828D01*
X25600D01*
Y9703D01*
X26171D01*
Y10313D01*
X25600D01*
Y10189D01*
X25523D01*
Y10323D01*
X24833D01*
X24682Y10474D01*
X24684Y10528D01*
X24833Y10678D01*
X25523D01*
Y10812D01*
X25600D01*
Y10687D01*
X26171D01*
Y11298D01*
X25600D01*
Y11173D01*
X25523D01*
Y11307D01*
X25062D01*
X25019Y11324D01*
Y11777D01*
X24704D01*
X24693Y11827D01*
X24727Y11853D01*
X24778Y11920D01*
X24810Y11997D01*
X24814Y12030D01*
X24864Y12033D01*
X24896Y11955D01*
X24947Y11889D01*
X25014Y11838D01*
X25091Y11806D01*
X25174Y11795D01*
X25257Y11806D01*
X25335Y11838D01*
X25401Y11889D01*
X25452Y11955D01*
X25484Y12033D01*
X25484Y12033D01*
X25532Y12081D01*
X25550Y12079D01*
X25646Y12092D01*
X25736Y12129D01*
X25813Y12188D01*
X25872Y12265D01*
X25909Y12354D01*
X25922Y12450D01*
X25915Y12501D01*
X26510Y13095D01*
X27039D01*
X27048Y13091D01*
X27077Y13063D01*
X27080Y13045D01*
X27080Y13041D01*
Y11827D01*
X27081Y11818D01*
X27081Y11809D01*
X27086Y11795D01*
X27089Y11781D01*
X27094Y11773D01*
X27097Y11765D01*
X27121Y11725D01*
X27131Y11714D01*
X27139Y11701D01*
X27146Y11696D01*
X27152Y11690D01*
X27166Y11684D01*
X27178Y11675D01*
X27187Y11674D01*
X27195Y11670D01*
X27210Y11669D01*
X27224Y11666D01*
Y11330D01*
X27057D01*
Y10771D01*
X27000D01*
X26954Y10762D01*
X26915Y10736D01*
X26889Y10696D01*
X26880Y10650D01*
Y9315D01*
X26883Y9299D01*
X26884Y9283D01*
X26887Y9276D01*
X26889Y9269D01*
X26897Y9255D01*
X26904Y9241D01*
X26910Y9236D01*
X26915Y9229D01*
X26928Y9221D01*
X26940Y9210D01*
X26947Y9208D01*
X26954Y9203D01*
X26969Y9200D01*
X26984Y9195D01*
X26998Y9193D01*
X27046Y9173D01*
X27087Y9142D01*
X27119Y9100D01*
X27139Y9052D01*
X27146Y9001D01*
X27139Y8949D01*
X27119Y8901D01*
X27087Y8860D01*
X27070Y8846D01*
X27065Y8840D01*
X27058Y8836D01*
X27049Y8823D01*
X27039Y8811D01*
X27036Y8803D01*
X27032Y8797D01*
X27029Y8781D01*
X27024Y8766D01*
X27024Y8759D01*
X27023Y8751D01*
Y8701D01*
X27024Y8693D01*
X27024Y8685D01*
X27029Y8670D01*
X27032Y8655D01*
X27036Y8648D01*
X27039Y8641D01*
X27049Y8629D01*
X27058Y8616D01*
X27065Y8611D01*
X27070Y8605D01*
X27087Y8592D01*
X27119Y8550D01*
X27139Y8502D01*
X27146Y8451D01*
X27139Y8399D01*
X27119Y8351D01*
X27087Y8310D01*
X27046Y8278D01*
X26998Y8258D01*
X26984Y8256D01*
X26969Y8251D01*
X26954Y8248D01*
X26947Y8244D01*
X26940Y8241D01*
X26928Y8231D01*
X26915Y8222D01*
X26910Y8216D01*
X26904Y8210D01*
X26897Y8196D01*
X26889Y8183D01*
X26887Y8175D01*
X26884Y8168D01*
X26883Y8152D01*
X26880Y8137D01*
Y6900D01*
X26889Y6854D01*
X26915Y6815D01*
X26954Y6789D01*
X27000Y6780D01*
X41800D01*
X41830Y6755D01*
Y4304D01*
X41082D01*
X41079Y4303D01*
X41077Y4303D01*
X41056Y4298D01*
X41036Y4294D01*
X41034Y4293D01*
X41031Y4292D01*
X41014Y4280D01*
X40996Y4268D01*
X40995Y4266D01*
X40993Y4265D01*
X40992Y4263D01*
X40950Y4238D01*
X40928Y4248D01*
X40927Y4248D01*
X40767Y4346D01*
X40573Y4427D01*
X40368Y4476D01*
X40158Y4493D01*
X39948Y4476D01*
X39743Y4427D01*
X39548Y4346D01*
X39388Y4248D01*
X39388Y4248D01*
X39366Y4238D01*
X39323Y4263D01*
X39323Y4265D01*
X39321Y4266D01*
X39319Y4268D01*
X39302Y4280D01*
X39285Y4292D01*
X39282Y4293D01*
X39280Y4294D01*
X39259Y4298D01*
X39239Y4303D01*
X39236Y4303D01*
X39234Y4304D01*
X33227D01*
X32396Y5092D01*
X32378Y5103D01*
X32359Y5116D01*
X32358Y5116D01*
X32357Y5117D01*
X32335Y5120D01*
X32313Y5125D01*
X29220D01*
X29220Y5125D01*
X29174Y5116D01*
X29135Y5089D01*
X28349Y4304D01*
X22508D01*
Y4776D01*
X22494Y4845D01*
X22455Y4904D01*
X22112Y5247D01*
Y5779D01*
X22122Y5787D01*
X22189Y5776D01*
X22197Y5763D01*
X22333Y5628D01*
X22325Y5571D01*
X22336Y5488D01*
X22368Y5410D01*
X22419Y5344D01*
X22485Y5293D01*
X22563Y5261D01*
X22646Y5250D01*
X22729Y5261D01*
X22806Y5293D01*
X22873Y5344D01*
X22924Y5410D01*
X22956Y5488D01*
X22967Y5571D01*
X22956Y5654D01*
X22950Y5667D01*
X22993Y5695D01*
X23275Y5413D01*
X23267Y5355D01*
X23278Y5272D01*
X23310Y5195D01*
X23361Y5129D01*
X23427Y5078D01*
X23505Y5045D01*
X23588Y5035D01*
X23671Y5045D01*
X23748Y5078D01*
X23815Y5129D01*
X23866Y5195D01*
X23898Y5272D01*
X23909Y5355D01*
X23898Y5438D01*
X23866Y5516D01*
X23815Y5582D01*
X23748Y5633D01*
X23671Y5665D01*
X23588Y5676D01*
X23530Y5669D01*
X23478Y5721D01*
X23483Y5744D01*
X23500Y5769D01*
X24076D01*
X24112Y5723D01*
X24178Y5672D01*
X24256Y5640D01*
X24339Y5629D01*
X24422Y5640D01*
X24499Y5672D01*
X24566Y5723D01*
X24617Y5790D01*
X24649Y5867D01*
X24660Y5950D01*
X24649Y6033D01*
X24617Y6111D01*
X24566Y6177D01*
X24499Y6228D01*
X24422Y6260D01*
X24339Y6271D01*
X24256Y6260D01*
X24178Y6228D01*
X24112Y6177D01*
X24076Y6131D01*
X23564D01*
X23319Y6375D01*
X23344Y6421D01*
X23381Y6414D01*
X24872D01*
X24907Y6368D01*
X24974Y6317D01*
X25051Y6285D01*
X25134Y6274D01*
X25217Y6285D01*
X25294Y6317D01*
X25361Y6368D01*
X25412Y6434D01*
X25444Y6512D01*
X25455Y6595D01*
X25444Y6678D01*
X25412Y6755D01*
X25361Y6822D01*
X25294Y6873D01*
X25217Y6905D01*
X25134Y6916D01*
X25051Y6905D01*
X24974Y6873D01*
X24907Y6822D01*
X24872Y6775D01*
X23456D01*
X23262Y6970D01*
X23262Y6970D01*
X23096Y7135D01*
Y7206D01*
X23290D01*
Y7445D01*
X24898D01*
X24933Y7399D01*
X25000Y7348D01*
X25077Y7316D01*
X25160Y7305D01*
X25243Y7316D01*
X25320Y7348D01*
X25387Y7399D01*
X25438Y7465D01*
X25470Y7543D01*
X25481Y7626D01*
X25470Y7709D01*
X25438Y7786D01*
X25387Y7853D01*
X25320Y7904D01*
X25243Y7936D01*
X25160Y7947D01*
X25077Y7936D01*
X25000Y7904D01*
X24933Y7853D01*
X24898Y7806D01*
X23290D01*
Y8013D01*
X20967D01*
X20931Y8047D01*
Y8593D01*
X20917Y8662D01*
X20878Y8721D01*
X20836Y8763D01*
X20850Y8797D01*
X20861Y8880D01*
X20850Y8963D01*
X20818Y9040D01*
X20767Y9107D01*
X20700Y9158D01*
X20623Y9190D01*
X20540Y9201D01*
X20457Y9190D01*
X20380Y9158D01*
X20313Y9107D01*
X20262Y9040D01*
X20230Y8963D01*
X20219Y8880D01*
X20230Y8797D01*
X20262Y8720D01*
X20313Y8653D01*
X20380Y8602D01*
X20457Y8570D01*
X20527Y8561D01*
X20570Y8519D01*
Y8013D01*
X18211D01*
Y7790D01*
X17551D01*
X17482Y7776D01*
X17423Y7737D01*
X14358Y4672D01*
X13462D01*
X13392Y4658D01*
X13334Y4619D01*
X13328Y4613D01*
X13278Y4614D01*
X12118Y5779D01*
X12118Y5779D01*
X12118Y5780D01*
X12098Y5793D01*
X12079Y5806D01*
X12079Y5806D01*
X12079Y5806D01*
X12056Y5810D01*
X12033Y5815D01*
X12033Y5815D01*
X12033Y5815D01*
X10855D01*
X10808Y5806D01*
X10769Y5780D01*
X9293Y4304D01*
X8449D01*
X7180Y5572D01*
X7141Y5599D01*
X7095Y5608D01*
X7095Y5608D01*
X6102D01*
X6102Y5608D01*
X6056Y5599D01*
X6017Y5572D01*
X5499Y5054D01*
X5472Y5015D01*
X5463Y4969D01*
X5463Y4969D01*
Y0D01*
X0D01*
Y33420D01*
X43365Y33460D01*
X43400Y33425D01*
D02*
G37*
G36*
X42450Y22800D02*
X37750D01*
X37750Y19106D01*
X37974D01*
Y19037D01*
X38427D01*
Y19091D01*
X38750D01*
X38750Y17600D01*
X36750Y17600D01*
X36750Y27050D01*
X42450D01*
Y22800D01*
D02*
G37*
G36*
X40600Y17250D02*
X39000D01*
Y18600D01*
X40600D01*
Y17250D01*
D02*
G37*
G36*
X29369Y14274D02*
Y13975D01*
X29137D01*
Y13072D01*
X29091Y13053D01*
X27835Y14309D01*
X27776Y14348D01*
X27707Y14362D01*
X27442D01*
X27423Y14408D01*
X27752Y14737D01*
X27810Y14729D01*
X27893Y14740D01*
X27938Y14759D01*
X27940Y14757D01*
Y14757D01*
X28550D01*
Y14861D01*
X28782D01*
X29369Y14274D01*
D02*
G37*
G36*
X28746Y12300D02*
X28760Y12291D01*
X28764Y12285D01*
X28775Y12249D01*
X28766Y12226D01*
X28762Y12222D01*
X28734Y12180D01*
X28730Y12169D01*
X28723Y12160D01*
X28721Y12148D01*
X28716Y12137D01*
Y12125D01*
X28714Y12114D01*
X28716Y12102D01*
Y12090D01*
X28721Y12079D01*
X28723Y12069D01*
X28730Y12016D01*
X28723Y11965D01*
X28703Y11917D01*
X28671Y11875D01*
X28630Y11844D01*
X28582Y11824D01*
X28530Y11817D01*
X28479Y11824D01*
X28446Y11837D01*
X28435Y11839D01*
X28424Y11844D01*
X28412Y11844D01*
X28405Y11845D01*
X28403Y11855D01*
X28396Y11864D01*
X28391Y11873D01*
X28358Y11917D01*
X28338Y11965D01*
X28331Y12016D01*
X28332Y12024D01*
X28332Y12032D01*
X28333Y12040D01*
X28330Y12055D01*
X28329Y12071D01*
X28326Y12078D01*
X28324Y12086D01*
X28315Y12099D01*
X28308Y12113D01*
X28302Y12118D01*
X28298Y12125D01*
X28193Y12230D01*
X28193Y12230D01*
X28153Y12257D01*
X28107Y12266D01*
X28107Y12266D01*
X27870D01*
Y13100D01*
X27869Y13106D01*
X27915Y13131D01*
X28746Y12300D01*
D02*
G37*
G36*
X27750Y12155D02*
X27795D01*
Y12145D01*
X28107D01*
X28213Y12040D01*
X28210Y12016D01*
X28221Y11933D01*
X28253Y11856D01*
X28295Y11800D01*
X28284Y11764D01*
X28273Y11750D01*
X27677D01*
Y11787D01*
X27224D01*
X27200Y11827D01*
Y13041D01*
X27224Y13082D01*
X27677D01*
Y13100D01*
X27750D01*
Y12155D01*
D02*
G37*
G36*
X29980Y10850D02*
X28350D01*
Y11693D01*
X28400Y11726D01*
X28447Y11706D01*
X28530Y11695D01*
X28614Y11706D01*
X28691Y11738D01*
X28757Y11789D01*
X28808Y11856D01*
X28840Y11933D01*
X28851Y12016D01*
X28840Y12099D01*
X28834Y12114D01*
X28862Y12155D01*
X29980D01*
Y10850D01*
D02*
G37*
G36*
X33410Y10400D02*
X33419Y10354D01*
X33445Y10315D01*
X33484Y10289D01*
X33530Y10280D01*
X40430D01*
Y7968D01*
X28120D01*
Y9295D01*
X28111Y9341D01*
X28085Y9380D01*
X28046Y9407D01*
X28000Y9416D01*
X27915D01*
Y9785D01*
X28000D01*
X28046Y9794D01*
X28085Y9820D01*
X28111Y9859D01*
X28120Y9906D01*
Y10650D01*
X28111Y10696D01*
X28085Y10736D01*
X28046Y10762D01*
X28000Y10771D01*
X27844D01*
Y11330D01*
X27677D01*
Y11630D01*
X27890D01*
X28230Y11290D01*
Y10850D01*
X28239Y10804D01*
X28265Y10765D01*
X28304Y10739D01*
X28350Y10730D01*
X29980D01*
X30026Y10739D01*
X30065Y10765D01*
X30091Y10804D01*
X30100Y10850D01*
Y12155D01*
X30092Y12197D01*
X30093Y12204D01*
X30121Y12247D01*
X32511D01*
X32580Y12261D01*
X32639Y12300D01*
X33232Y12894D01*
X33272Y12952D01*
X33285Y13021D01*
Y14395D01*
X33272Y14464D01*
X33232Y14523D01*
X32413Y15342D01*
X32421Y15400D01*
X32410Y15483D01*
X32378Y15560D01*
X32376Y15562D01*
X32399Y15607D01*
X33410D01*
Y10400D01*
D02*
G37*
G36*
X28750Y16250D02*
X29137D01*
Y16180D01*
X29964D01*
Y16250D01*
X34790D01*
Y15721D01*
X34790Y15720D01*
X34707Y15710D01*
X34629Y15677D01*
X34563Y15626D01*
X34512Y15560D01*
X34480Y15483D01*
X34469Y15400D01*
X34480Y15317D01*
X34512Y15239D01*
X34563Y15173D01*
X34629Y15122D01*
X34707Y15090D01*
X34790Y15079D01*
X34790Y15079D01*
Y13384D01*
X34790Y13383D01*
X34707Y13373D01*
X34629Y13340D01*
X34563Y13289D01*
X34512Y13223D01*
X34480Y13146D01*
X34469Y13063D01*
X34480Y12980D01*
X34512Y12902D01*
X34563Y12836D01*
X34629Y12785D01*
X34707Y12753D01*
X34790Y12742D01*
X34790Y12742D01*
Y11950D01*
X40050D01*
Y14450D01*
X41800D01*
Y6900D01*
X27000D01*
Y8137D01*
X27030Y8141D01*
X27107Y8173D01*
X27173Y8224D01*
X27224Y8290D01*
X27256Y8368D01*
X27267Y8451D01*
X27256Y8534D01*
X27224Y8611D01*
X27173Y8678D01*
X27143Y8701D01*
Y8751D01*
X27173Y8774D01*
X27224Y8840D01*
X27256Y8918D01*
X27267Y9001D01*
X27256Y9084D01*
X27224Y9161D01*
X27173Y9228D01*
X27107Y9279D01*
X27030Y9311D01*
X27000Y9315D01*
Y10650D01*
X28000Y10650D01*
Y9906D01*
X27795D01*
Y9295D01*
X28000D01*
Y7847D01*
X40550D01*
Y10400D01*
X33530D01*
Y15728D01*
X28472D01*
Y15796D01*
X28073D01*
X28073Y16797D01*
X28546D01*
Y16850D01*
X28750Y16850D01*
Y16250D01*
D02*
G37*
G36*
X20373Y4995D02*
Y4940D01*
X19664Y4231D01*
X19660Y4228D01*
X19620Y4169D01*
X19607Y4100D01*
Y2766D01*
X19225Y2384D01*
X18939D01*
X18503Y2820D01*
Y3221D01*
X18537Y3244D01*
X18596Y3283D01*
X20327Y5014D01*
X20373Y4995D01*
D02*
G37*
G36*
X43307Y17100D02*
Y0D01*
X5584D01*
Y4969D01*
X6102Y5487D01*
X7095D01*
X8399Y4183D01*
X9343D01*
X10855Y5694D01*
X12033D01*
X13218Y4503D01*
X13003Y4288D01*
X12953Y4290D01*
X12914Y4341D01*
X12846Y4394D01*
X12766Y4427D01*
X12680Y4438D01*
X12550D01*
X12464Y4427D01*
X12384Y4394D01*
X12315Y4341D01*
X12262Y4272D01*
X12229Y4192D01*
X12218Y4106D01*
X12229Y4020D01*
X12262Y3940D01*
X12299Y3892D01*
X12310Y3856D01*
X12299Y3821D01*
X12262Y3772D01*
X12229Y3692D01*
X12218Y3606D01*
X12229Y3520D01*
X12262Y3440D01*
X12299Y3392D01*
X12310Y3356D01*
X12299Y3321D01*
X12262Y3272D01*
X12229Y3192D01*
X12218Y3106D01*
X12229Y3020D01*
X12262Y2940D01*
X12299Y2892D01*
X12310Y2856D01*
X12299Y2821D01*
X12262Y2772D01*
X12229Y2692D01*
X12218Y2606D01*
X12229Y2520D01*
X12243Y2485D01*
X12221Y2435D01*
X12221D01*
Y1777D01*
X13009D01*
Y1926D01*
X13780D01*
X13849Y1939D01*
X13907Y1979D01*
X14493Y2564D01*
X14886D01*
X14955Y2578D01*
X15013Y2617D01*
X16580Y4183D01*
X17778D01*
X17803Y4139D01*
X17793Y4107D01*
X17756Y4058D01*
X17723Y3978D01*
X17712Y3892D01*
X17723Y3806D01*
X17756Y3726D01*
X17809Y3658D01*
Y3627D01*
X17756Y3558D01*
X17723Y3478D01*
X17712Y3392D01*
X17723Y3306D01*
X17738Y3271D01*
X17715Y3221D01*
X17715D01*
Y2563D01*
X18246D01*
X18735Y2074D01*
X18794Y2035D01*
X18864Y2021D01*
X19300D01*
X19370Y2035D01*
X19429Y2074D01*
X19917Y2562D01*
X19956Y2621D01*
X19970Y2690D01*
Y4026D01*
X20127Y4183D01*
X20447D01*
X20466Y4137D01*
X20200Y3870D01*
X20161Y3812D01*
X20147Y3743D01*
Y1801D01*
X19998D01*
Y1013D01*
X20657D01*
Y1013D01*
X20707Y1036D01*
X20742Y1021D01*
X20827Y1010D01*
X20913Y1021D01*
X20993Y1054D01*
X21062Y1107D01*
X21093D01*
X21162Y1054D01*
X21242Y1021D01*
X21327Y1010D01*
X21413Y1021D01*
X21493Y1054D01*
X21562Y1107D01*
X21593D01*
X21662Y1054D01*
X21742Y1021D01*
X21827Y1010D01*
X21913Y1021D01*
X21993Y1054D01*
X22062Y1107D01*
X22093D01*
X22162Y1054D01*
X22242Y1021D01*
X22327Y1010D01*
X22413Y1021D01*
X22493Y1054D01*
X22562Y1107D01*
X22615Y1176D01*
X22648Y1256D01*
X22659Y1342D01*
Y1472D01*
X22648Y1558D01*
X22615Y1638D01*
X22562Y1706D01*
X22508Y1748D01*
Y4183D01*
X28399D01*
X29220Y5004D01*
X32313D01*
X33178Y4183D01*
X39234D01*
X39251Y4136D01*
X39208Y4099D01*
X39072Y3939D01*
X38962Y3760D01*
X38881Y3565D01*
X38832Y3360D01*
X38815Y3150D01*
X38832Y2940D01*
X38881Y2735D01*
X38962Y2540D01*
X39072Y2361D01*
X39208Y2201D01*
X39369Y2064D01*
X39548Y1954D01*
X39743Y1873D01*
X39948Y1824D01*
X40158Y1807D01*
X40368Y1824D01*
X40573Y1873D01*
X40767Y1954D01*
X40947Y2064D01*
X41107Y2201D01*
X41244Y2361D01*
X41354Y2540D01*
X41435Y2735D01*
X41484Y2940D01*
X41501Y3150D01*
X41484Y3360D01*
X41435Y3565D01*
X41354Y3760D01*
X41244Y3939D01*
X41107Y4099D01*
X41064Y4136D01*
X41082Y4183D01*
X41950D01*
Y14700D01*
X39806D01*
Y14771D01*
X39203D01*
X39145Y14795D01*
X39062Y14806D01*
X39038Y14803D01*
X39000Y14836D01*
Y15545D01*
X39156D01*
Y16156D01*
X39000D01*
Y17065D01*
X39035Y17100D01*
X43307Y17100D01*
D02*
G37*
%LPC*%
G36*
X35876Y30746D02*
X34991D01*
Y29860D01*
X35876D01*
Y30746D01*
D02*
G37*
G36*
X28002D02*
X27117D01*
Y29860D01*
X28002D01*
Y30746D01*
D02*
G37*
G36*
X20128D02*
X19243D01*
Y29860D01*
X20128D01*
Y30746D01*
D02*
G37*
G36*
X12254D02*
X11369D01*
Y29860D01*
X12254D01*
Y30746D01*
D02*
G37*
G36*
X33465Y30749D02*
X33349Y30734D01*
X33242Y30690D01*
X33149Y30619D01*
X33078Y30526D01*
X33033Y30418D01*
X33018Y30303D01*
X33033Y30187D01*
X33078Y30079D01*
X33149Y29987D01*
X33242Y29916D01*
X33349Y29871D01*
X33465Y29856D01*
X33581Y29871D01*
X33688Y29916D01*
X33781Y29987D01*
X33852Y30079D01*
X33896Y30187D01*
X33912Y30303D01*
X33896Y30418D01*
X33852Y30526D01*
X33781Y30619D01*
X33688Y30690D01*
X33581Y30734D01*
X33465Y30749D01*
D02*
G37*
G36*
X31496D02*
X31381Y30734D01*
X31273Y30690D01*
X31181Y30619D01*
X31110Y30526D01*
X31065Y30418D01*
X31050Y30303D01*
X31065Y30187D01*
X31110Y30079D01*
X31181Y29987D01*
X31273Y29916D01*
X31381Y29871D01*
X31496Y29856D01*
X31612Y29871D01*
X31720Y29916D01*
X31812Y29987D01*
X31883Y30079D01*
X31928Y30187D01*
X31943Y30303D01*
X31928Y30418D01*
X31883Y30526D01*
X31812Y30619D01*
X31720Y30690D01*
X31612Y30734D01*
X31496Y30749D01*
D02*
G37*
G36*
X25591D02*
X25475Y30734D01*
X25368Y30690D01*
X25275Y30619D01*
X25204Y30526D01*
X25159Y30418D01*
X25144Y30303D01*
X25159Y30187D01*
X25204Y30079D01*
X25275Y29987D01*
X25368Y29916D01*
X25475Y29871D01*
X25591Y29856D01*
X25707Y29871D01*
X25814Y29916D01*
X25907Y29987D01*
X25978Y30079D01*
X26022Y30187D01*
X26038Y30303D01*
X26022Y30418D01*
X25978Y30526D01*
X25907Y30619D01*
X25814Y30690D01*
X25707Y30734D01*
X25591Y30749D01*
D02*
G37*
G36*
X23622D02*
X23507Y30734D01*
X23399Y30690D01*
X23307Y30619D01*
X23236Y30526D01*
X23191Y30418D01*
X23176Y30303D01*
X23191Y30187D01*
X23236Y30079D01*
X23307Y29987D01*
X23399Y29916D01*
X23507Y29871D01*
X23622Y29856D01*
X23738Y29871D01*
X23846Y29916D01*
X23938Y29987D01*
X24009Y30079D01*
X24054Y30187D01*
X24069Y30303D01*
X24054Y30418D01*
X24009Y30526D01*
X23938Y30619D01*
X23846Y30690D01*
X23738Y30734D01*
X23622Y30749D01*
D02*
G37*
G36*
X17717D02*
X17601Y30734D01*
X17494Y30690D01*
X17401Y30619D01*
X17330Y30526D01*
X17285Y30418D01*
X17270Y30303D01*
X17285Y30187D01*
X17330Y30079D01*
X17401Y29987D01*
X17494Y29916D01*
X17601Y29871D01*
X17717Y29856D01*
X17833Y29871D01*
X17940Y29916D01*
X18033Y29987D01*
X18104Y30079D01*
X18148Y30187D01*
X18164Y30303D01*
X18148Y30418D01*
X18104Y30526D01*
X18033Y30619D01*
X17940Y30690D01*
X17833Y30734D01*
X17717Y30749D01*
D02*
G37*
G36*
X15748D02*
X15633Y30734D01*
X15525Y30690D01*
X15433Y30619D01*
X15362Y30526D01*
X15317Y30418D01*
X15302Y30303D01*
X15317Y30187D01*
X15362Y30079D01*
X15433Y29987D01*
X15525Y29916D01*
X15633Y29871D01*
X15748Y29856D01*
X15864Y29871D01*
X15972Y29916D01*
X16064Y29987D01*
X16135Y30079D01*
X16180Y30187D01*
X16195Y30303D01*
X16180Y30418D01*
X16135Y30526D01*
X16064Y30619D01*
X15972Y30690D01*
X15864Y30734D01*
X15748Y30749D01*
D02*
G37*
G36*
X9843D02*
X9727Y30734D01*
X9620Y30690D01*
X9527Y30619D01*
X9456Y30526D01*
X9411Y30418D01*
X9396Y30303D01*
X9411Y30187D01*
X9456Y30079D01*
X9527Y29987D01*
X9620Y29916D01*
X9727Y29871D01*
X9843Y29856D01*
X9959Y29871D01*
X10066Y29916D01*
X10159Y29987D01*
X10230Y30079D01*
X10274Y30187D01*
X10290Y30303D01*
X10274Y30418D01*
X10230Y30526D01*
X10159Y30619D01*
X10066Y30690D01*
X9959Y30734D01*
X9843Y30749D01*
D02*
G37*
G36*
X7874D02*
X7759Y30734D01*
X7651Y30690D01*
X7559Y30619D01*
X7488Y30526D01*
X7443Y30418D01*
X7428Y30303D01*
X7443Y30187D01*
X7488Y30079D01*
X7559Y29987D01*
X7651Y29916D01*
X7759Y29871D01*
X7874Y29856D01*
X7990Y29871D01*
X8098Y29916D01*
X8190Y29987D01*
X8261Y30079D01*
X8306Y30187D01*
X8321Y30303D01*
X8306Y30418D01*
X8261Y30526D01*
X8190Y30619D01*
X8098Y30690D01*
X7990Y30734D01*
X7874Y30749D01*
D02*
G37*
G36*
X40158Y32052D02*
X39948Y32035D01*
X39743Y31986D01*
X39548Y31905D01*
X39369Y31795D01*
X39208Y31658D01*
X39072Y31498D01*
X38962Y31319D01*
X38881Y31124D01*
X38832Y30919D01*
X38815Y30709D01*
X38832Y30499D01*
X38881Y30294D01*
X38962Y30099D01*
X39072Y29920D01*
X39208Y29760D01*
X39369Y29623D01*
X39548Y29513D01*
X39743Y29432D01*
X39948Y29383D01*
X40158Y29366D01*
X40368Y29383D01*
X40573Y29432D01*
X40767Y29513D01*
X40947Y29623D01*
X41107Y29760D01*
X41244Y29920D01*
X41354Y30099D01*
X41435Y30294D01*
X41484Y30499D01*
X41501Y30709D01*
X41484Y30919D01*
X41435Y31124D01*
X41354Y31319D01*
X41244Y31498D01*
X41107Y31658D01*
X40947Y31795D01*
X40767Y31905D01*
X40573Y31986D01*
X40368Y32035D01*
X40158Y32052D01*
D02*
G37*
G36*
X35827Y25324D02*
X35703Y25307D01*
X35588Y25260D01*
X35489Y25184D01*
X35413Y25085D01*
X35365Y24969D01*
X35349Y24846D01*
X35365Y24722D01*
X35413Y24607D01*
X35489Y24508D01*
X35588Y24432D01*
X35703Y24384D01*
X35827Y24368D01*
X35951Y24384D01*
X36066Y24432D01*
X36165Y24508D01*
X36241Y24607D01*
X36289Y24722D01*
X36305Y24846D01*
X36289Y24969D01*
X36241Y25085D01*
X36165Y25184D01*
X36066Y25260D01*
X35951Y25307D01*
X35827Y25324D01*
D02*
G37*
G36*
X31103D02*
X30979Y25307D01*
X30864Y25260D01*
X30765Y25184D01*
X30689Y25085D01*
X30641Y24969D01*
X30625Y24846D01*
X30641Y24722D01*
X30689Y24607D01*
X30765Y24508D01*
X30864Y24432D01*
X30979Y24384D01*
X31103Y24368D01*
X31226Y24384D01*
X31342Y24432D01*
X31441Y24508D01*
X31517Y24607D01*
X31565Y24722D01*
X31581Y24846D01*
X31565Y24969D01*
X31517Y25085D01*
X31441Y25184D01*
X31342Y25260D01*
X31226Y25307D01*
X31103Y25324D01*
D02*
G37*
G36*
X27953D02*
X27829Y25307D01*
X27714Y25260D01*
X27615Y25184D01*
X27539Y25085D01*
X27491Y24969D01*
X27475Y24846D01*
X27491Y24722D01*
X27539Y24607D01*
X27615Y24508D01*
X27714Y24432D01*
X27829Y24384D01*
X27953Y24368D01*
X28077Y24384D01*
X28192Y24432D01*
X28291Y24508D01*
X28367Y24607D01*
X28415Y24722D01*
X28431Y24846D01*
X28415Y24969D01*
X28367Y25085D01*
X28291Y25184D01*
X28192Y25260D01*
X28077Y25307D01*
X27953Y25324D01*
D02*
G37*
G36*
X23229D02*
X23105Y25307D01*
X22990Y25260D01*
X22891Y25184D01*
X22815Y25085D01*
X22767Y24969D01*
X22751Y24846D01*
X22767Y24722D01*
X22815Y24607D01*
X22891Y24508D01*
X22990Y24432D01*
X23105Y24384D01*
X23229Y24368D01*
X23352Y24384D01*
X23468Y24432D01*
X23567Y24508D01*
X23643Y24607D01*
X23691Y24722D01*
X23707Y24846D01*
X23691Y24969D01*
X23643Y25085D01*
X23567Y25184D01*
X23468Y25260D01*
X23352Y25307D01*
X23229Y25324D01*
D02*
G37*
G36*
X20079D02*
X19955Y25307D01*
X19840Y25260D01*
X19741Y25184D01*
X19665Y25085D01*
X19617Y24969D01*
X19601Y24846D01*
X19617Y24722D01*
X19665Y24607D01*
X19741Y24508D01*
X19840Y24432D01*
X19955Y24384D01*
X20079Y24368D01*
X20203Y24384D01*
X20318Y24432D01*
X20417Y24508D01*
X20493Y24607D01*
X20541Y24722D01*
X20557Y24846D01*
X20541Y24969D01*
X20493Y25085D01*
X20417Y25184D01*
X20318Y25260D01*
X20203Y25307D01*
X20079Y25324D01*
D02*
G37*
G36*
X15355D02*
X15231Y25307D01*
X15116Y25260D01*
X15017Y25184D01*
X14941Y25085D01*
X14893Y24969D01*
X14877Y24846D01*
X14893Y24722D01*
X14941Y24607D01*
X15017Y24508D01*
X15116Y24432D01*
X15231Y24384D01*
X15355Y24368D01*
X15478Y24384D01*
X15594Y24432D01*
X15693Y24508D01*
X15769Y24607D01*
X15817Y24722D01*
X15833Y24846D01*
X15817Y24969D01*
X15769Y25085D01*
X15693Y25184D01*
X15594Y25260D01*
X15478Y25307D01*
X15355Y25324D01*
D02*
G37*
G36*
X12205D02*
X12081Y25307D01*
X11966Y25260D01*
X11867Y25184D01*
X11791Y25085D01*
X11743Y24969D01*
X11727Y24846D01*
X11743Y24722D01*
X11791Y24607D01*
X11867Y24508D01*
X11966Y24432D01*
X12081Y24384D01*
X12205Y24368D01*
X12329Y24384D01*
X12444Y24432D01*
X12543Y24508D01*
X12619Y24607D01*
X12667Y24722D01*
X12683Y24846D01*
X12667Y24969D01*
X12619Y25085D01*
X12543Y25184D01*
X12444Y25260D01*
X12329Y25307D01*
X12205Y25324D01*
D02*
G37*
G36*
X7481D02*
X7357Y25307D01*
X7242Y25260D01*
X7143Y25184D01*
X7067Y25085D01*
X7019Y24969D01*
X7003Y24846D01*
X7019Y24722D01*
X7067Y24607D01*
X7143Y24508D01*
X7242Y24432D01*
X7357Y24384D01*
X7481Y24368D01*
X7604Y24384D01*
X7720Y24432D01*
X7819Y24508D01*
X7895Y24607D01*
X7943Y24722D01*
X7959Y24846D01*
X7943Y24969D01*
X7895Y25085D01*
X7819Y25184D01*
X7720Y25260D01*
X7604Y25307D01*
X7481Y25324D01*
D02*
G37*
G36*
X33250Y22842D02*
X33250Y22842D01*
X10820D01*
X10820Y22842D01*
X10735Y22825D01*
X10663Y22777D01*
X10663Y22777D01*
X8833Y20947D01*
X8785Y20875D01*
X8768Y20790D01*
X8768Y20790D01*
Y17670D01*
X8768Y17670D01*
X8785Y17585D01*
X8833Y17513D01*
X9778Y16567D01*
Y15598D01*
X9737Y15577D01*
X9714Y15577D01*
X9287D01*
X9250Y15577D01*
X9214Y15577D01*
X8787D01*
X8750Y15577D01*
X8714Y15577D01*
X8287D01*
X8264Y15577D01*
X8223Y15598D01*
Y15863D01*
X8384Y16025D01*
X8433Y16097D01*
X8450Y16182D01*
X8450Y16182D01*
Y16247D01*
X8684D01*
Y16877D01*
X7916D01*
Y16247D01*
X7916D01*
X7934Y16203D01*
X7843Y16112D01*
X7795Y16040D01*
X7778Y15955D01*
X7778Y15955D01*
Y15577D01*
X7764D01*
Y14770D01*
X8214D01*
X8250Y14770D01*
X8287Y14770D01*
X8714D01*
X8750Y14770D01*
X8787Y14770D01*
X9214D01*
X9250Y14770D01*
X9287Y14770D01*
X9714D01*
X9750Y14770D01*
X9787Y14770D01*
X10214D01*
X10250Y14770D01*
X10287Y14770D01*
X10714D01*
X10750Y14770D01*
X10787Y14770D01*
X11214D01*
X11250Y14770D01*
X11287Y14770D01*
X11737D01*
Y15262D01*
X12362Y15888D01*
X12362Y15888D01*
X12411Y15960D01*
X12428Y16045D01*
X12428Y16045D01*
Y19622D01*
X12444Y19628D01*
X12543Y19704D01*
X12619Y19803D01*
X12667Y19919D01*
X12683Y20043D01*
X12667Y20166D01*
X12619Y20282D01*
X12543Y20381D01*
X12444Y20457D01*
X12329Y20504D01*
X12205Y20521D01*
X12081Y20504D01*
X11966Y20457D01*
X11867Y20381D01*
X11791Y20282D01*
X11743Y20166D01*
X11727Y20043D01*
X11743Y19919D01*
X11791Y19803D01*
X11867Y19704D01*
X11966Y19628D01*
X11983Y19622D01*
Y16137D01*
X11422Y15577D01*
X11287D01*
X11264Y15577D01*
X11223Y15598D01*
Y17365D01*
X11606Y17748D01*
X11606Y17748D01*
X11655Y17821D01*
X11672Y17906D01*
X11672Y17906D01*
Y20587D01*
X12012Y20928D01*
X18880D01*
X19624Y20183D01*
X19617Y20166D01*
X19601Y20043D01*
X19617Y19919D01*
X19665Y19803D01*
X19741Y19704D01*
X19840Y19628D01*
X19955Y19581D01*
X20079Y19564D01*
X20203Y19581D01*
X20318Y19628D01*
X20417Y19704D01*
X20493Y19803D01*
X20541Y19919D01*
X20557Y20043D01*
X20541Y20166D01*
X20493Y20282D01*
X20417Y20381D01*
X20318Y20457D01*
X20203Y20504D01*
X20079Y20521D01*
X19955Y20504D01*
X19939Y20497D01*
X19129Y21307D01*
X19057Y21355D01*
X18972Y21372D01*
X18972Y21372D01*
X11920D01*
X11920Y21372D01*
X11835Y21355D01*
X11763Y21307D01*
X11763Y21307D01*
X11292Y20836D01*
X11244Y20764D01*
X11227Y20679D01*
X11227Y20679D01*
Y17998D01*
X10843Y17614D01*
X10795Y17542D01*
X10778Y17457D01*
X10778Y17457D01*
Y15646D01*
X10750Y15630D01*
X10723Y15646D01*
Y18121D01*
X10953Y18351D01*
X10953Y18351D01*
X11001Y18423D01*
X11018Y18508D01*
Y21193D01*
X11532Y21708D01*
X25974D01*
X27498Y20183D01*
X27491Y20166D01*
X27475Y20043D01*
X27491Y19919D01*
X27539Y19803D01*
X27615Y19704D01*
X27714Y19628D01*
X27829Y19581D01*
X27953Y19564D01*
X28077Y19581D01*
X28192Y19628D01*
X28291Y19704D01*
X28367Y19803D01*
X28415Y19919D01*
X28431Y20043D01*
X28415Y20166D01*
X28367Y20282D01*
X28291Y20381D01*
X28192Y20457D01*
X28077Y20504D01*
X27953Y20521D01*
X27829Y20504D01*
X27813Y20497D01*
X26223Y22087D01*
X26151Y22135D01*
X26066Y22152D01*
X26066Y22152D01*
X11440D01*
X11440Y22152D01*
X11355Y22135D01*
X11283Y22087D01*
X11283Y22087D01*
X10638Y21443D01*
X10590Y21371D01*
X10573Y21286D01*
X10573Y21286D01*
Y18600D01*
X10343Y18370D01*
X10295Y18298D01*
X10278Y18213D01*
X10278Y18213D01*
Y15646D01*
X10250Y15630D01*
X10223Y15646D01*
Y16660D01*
X10223Y16660D01*
X10206Y16745D01*
X10158Y16817D01*
X10158Y16817D01*
X9212Y17762D01*
Y20698D01*
X10912Y22398D01*
X33158D01*
X35372Y20183D01*
X35365Y20166D01*
X35349Y20043D01*
X35365Y19919D01*
X35413Y19803D01*
X35489Y19704D01*
X35588Y19628D01*
X35703Y19581D01*
X35827Y19564D01*
X35951Y19581D01*
X36066Y19628D01*
X36165Y19704D01*
X36241Y19803D01*
X36289Y19919D01*
X36305Y20043D01*
X36289Y20166D01*
X36241Y20282D01*
X36165Y20381D01*
X36066Y20457D01*
X35951Y20504D01*
X35827Y20521D01*
X35703Y20504D01*
X35687Y20497D01*
X33407Y22777D01*
X33335Y22825D01*
X33250Y22842D01*
D02*
G37*
G36*
X31103Y20521D02*
X30979Y20504D01*
X30864Y20457D01*
X30765Y20381D01*
X30689Y20282D01*
X30641Y20166D01*
X30625Y20043D01*
X30641Y19919D01*
X30648Y19902D01*
X30170Y19425D01*
X27152D01*
X26376Y20200D01*
X26304Y20248D01*
X26219Y20265D01*
X26219Y20265D01*
X23650D01*
X23643Y20282D01*
X23567Y20381D01*
X23468Y20457D01*
X23352Y20504D01*
X23229Y20521D01*
X23105Y20504D01*
X22990Y20457D01*
X22891Y20381D01*
X22815Y20282D01*
X22808Y20265D01*
X21503D01*
X21503Y20265D01*
X21417Y20248D01*
X21345Y20200D01*
X21345Y20200D01*
X20477Y19332D01*
X19421D01*
X18554Y20200D01*
X18481Y20248D01*
X18396Y20265D01*
X18396Y20265D01*
X15776D01*
X15769Y20282D01*
X15693Y20381D01*
X15594Y20457D01*
X15478Y20504D01*
X15355Y20521D01*
X15231Y20504D01*
X15116Y20457D01*
X15017Y20381D01*
X14941Y20282D01*
X14893Y20166D01*
X14877Y20043D01*
X14893Y19919D01*
X14941Y19803D01*
X15017Y19704D01*
X15116Y19628D01*
X15132Y19622D01*
Y17407D01*
X11882Y14156D01*
X7852D01*
X6861Y15147D01*
Y19108D01*
X7340Y19588D01*
X7357Y19581D01*
X7481Y19564D01*
X7604Y19581D01*
X7720Y19628D01*
X7819Y19704D01*
X7867Y19767D01*
X7917Y19770D01*
X8078Y19609D01*
Y17585D01*
X7916D01*
Y16955D01*
X8684D01*
Y17585D01*
X8522D01*
Y19701D01*
X8522Y19701D01*
X8506Y19786D01*
X8457Y19858D01*
X8116Y20200D01*
X8044Y20248D01*
X7959Y20265D01*
X7959Y20265D01*
X7902D01*
X7895Y20282D01*
X7819Y20381D01*
X7720Y20457D01*
X7604Y20504D01*
X7481Y20521D01*
X7357Y20504D01*
X7242Y20457D01*
X7143Y20381D01*
X7067Y20282D01*
X7019Y20166D01*
X7003Y20043D01*
X7019Y19919D01*
X7026Y19902D01*
X6481Y19357D01*
X6433Y19285D01*
X6416Y19200D01*
X6416Y19200D01*
Y15055D01*
X6416Y15055D01*
X6433Y14970D01*
X6481Y14898D01*
X7603Y13776D01*
X7603Y13776D01*
X7675Y13728D01*
X7760Y13711D01*
X7760Y13711D01*
X11974D01*
X11974Y13711D01*
X12059Y13728D01*
X12131Y13776D01*
X15512Y17157D01*
X15512Y17157D01*
X15560Y17230D01*
X15577Y17315D01*
X15577Y17315D01*
Y19622D01*
X15594Y19628D01*
X15693Y19704D01*
X15769Y19803D01*
X15776Y19820D01*
X18304D01*
X19172Y18952D01*
X19172Y18952D01*
X19244Y18904D01*
X19329Y18887D01*
X19329Y18887D01*
X20569D01*
X20569Y18887D01*
X20655Y18904D01*
X20727Y18952D01*
X21595Y19820D01*
X22808D01*
X22815Y19803D01*
X22891Y19704D01*
X22990Y19628D01*
X23105Y19581D01*
X23229Y19564D01*
X23352Y19581D01*
X23468Y19628D01*
X23567Y19704D01*
X23643Y19803D01*
X23650Y19820D01*
X26127D01*
X26902Y19045D01*
X26902Y19045D01*
X26974Y18997D01*
X27059Y18980D01*
X27059Y18980D01*
X30262D01*
X30262Y18980D01*
X30347Y18997D01*
X30420Y19045D01*
X30962Y19588D01*
X30979Y19581D01*
X31103Y19564D01*
X31226Y19581D01*
X31342Y19628D01*
X31441Y19704D01*
X31517Y19803D01*
X31565Y19919D01*
X31581Y20043D01*
X31565Y20166D01*
X31517Y20282D01*
X31441Y20381D01*
X31342Y20457D01*
X31226Y20504D01*
X31103Y20521D01*
D02*
G37*
G36*
X33939Y19729D02*
X32991D01*
Y18781D01*
X33939D01*
Y19729D01*
D02*
G37*
G36*
X26065D02*
X25117D01*
Y18781D01*
X26065D01*
Y19729D01*
D02*
G37*
G36*
X18191D02*
X17243D01*
Y18781D01*
X18191D01*
Y19729D01*
D02*
G37*
G36*
X10317D02*
X9369D01*
Y18781D01*
X10317D01*
Y19729D01*
D02*
G37*
G36*
X20530Y17580D02*
X20150D01*
Y17200D01*
X20530D01*
Y17580D01*
D02*
G37*
G36*
X20050D02*
X19671D01*
Y17200D01*
X20050D01*
Y17580D01*
D02*
G37*
G36*
X20530Y17100D02*
X20150D01*
Y16721D01*
X20530D01*
Y17100D01*
D02*
G37*
G36*
X20050D02*
X19671D01*
Y16721D01*
X20050D01*
Y17100D01*
D02*
G37*
G36*
X23100Y17601D02*
X22984Y17586D01*
X22875Y17541D01*
X22781Y17469D01*
X22710Y17376D01*
X22665Y17267D01*
X22649Y17150D01*
X22665Y17034D01*
X22710Y16925D01*
X22781Y16831D01*
X22875Y16760D01*
X22984Y16715D01*
X23100Y16699D01*
X23217Y16715D01*
X23326Y16760D01*
X23419Y16831D01*
X23491Y16925D01*
X23536Y17034D01*
X23551Y17150D01*
X23536Y17267D01*
X23491Y17376D01*
X23419Y17469D01*
X23326Y17541D01*
X23217Y17586D01*
X23100Y17601D01*
D02*
G37*
G36*
X22100D02*
X21984Y17586D01*
X21875Y17541D01*
X21781Y17469D01*
X21710Y17376D01*
X21665Y17267D01*
X21649Y17150D01*
X21665Y17034D01*
X21710Y16925D01*
X21781Y16831D01*
X21875Y16760D01*
X21984Y16715D01*
X22100Y16699D01*
X22217Y16715D01*
X22326Y16760D01*
X22419Y16831D01*
X22491Y16925D01*
X22536Y17034D01*
X22552Y17150D01*
X22536Y17267D01*
X22491Y17376D01*
X22419Y17469D01*
X22326Y17541D01*
X22217Y17586D01*
X22100Y17601D01*
D02*
G37*
G36*
X21100D02*
X20984Y17586D01*
X20875Y17541D01*
X20781Y17469D01*
X20710Y17376D01*
X20665Y17267D01*
X20649Y17150D01*
X20665Y17034D01*
X20710Y16925D01*
X20781Y16831D01*
X20875Y16760D01*
X20984Y16715D01*
X21100Y16699D01*
X21217Y16715D01*
X21326Y16760D01*
X21419Y16831D01*
X21491Y16925D01*
X21536Y17034D01*
X21551Y17150D01*
X21536Y17267D01*
X21491Y17376D01*
X21419Y17469D01*
X21326Y17541D01*
X21217Y17586D01*
X21100Y17601D01*
D02*
G37*
G36*
X27000Y16444D02*
Y16200D01*
X27244D01*
X27241Y16228D01*
X27211Y16301D01*
X27163Y16363D01*
X27101Y16411D01*
X27028Y16441D01*
X27000Y16444D01*
D02*
G37*
G36*
X37300Y33170D02*
X250D01*
X204Y33161D01*
X165Y33135D01*
X139Y33096D01*
X130Y33050D01*
Y22850D01*
X139Y22804D01*
X165Y22765D01*
X184Y22752D01*
X180Y22730D01*
Y20700D01*
X189Y20654D01*
X215Y20615D01*
Y20585D01*
X189Y20546D01*
X180Y20500D01*
Y18950D01*
X189Y18904D01*
X215Y18865D01*
Y18835D01*
X189Y18796D01*
X180Y18750D01*
Y17100D01*
X189Y17054D01*
X215Y17015D01*
Y16985D01*
X189Y16946D01*
X180Y16900D01*
Y15050D01*
X189Y15004D01*
X208Y14975D01*
X189Y14946D01*
X180Y14900D01*
Y13200D01*
X189Y13154D01*
X208Y13125D01*
X189Y13096D01*
X180Y13050D01*
Y11200D01*
X189Y11154D01*
X215Y11115D01*
X254Y11089D01*
X300Y11080D01*
X2365D01*
X2376Y11082D01*
X2388D01*
X2399Y11086D01*
X2411Y11089D01*
X2420Y11095D01*
X2431Y11100D01*
X2451Y11114D01*
X2497Y11096D01*
X2523Y11076D01*
X2506Y11026D01*
X2361D01*
Y10680D01*
X2756D01*
X3152D01*
Y11026D01*
X3006D01*
X2989Y11076D01*
X3016Y11096D01*
X3062Y11114D01*
X3081Y11100D01*
X3092Y11095D01*
X3102Y11089D01*
X3114Y11086D01*
X3125Y11082D01*
X3136D01*
X3148Y11080D01*
X5100D01*
X5146Y11089D01*
X5185Y11115D01*
X5211Y11154D01*
X5220Y11200D01*
Y13050D01*
X5211Y13096D01*
X5192Y13125D01*
X5211Y13154D01*
X5220Y13200D01*
Y14900D01*
X5211Y14946D01*
X5185Y14985D01*
X5160Y15002D01*
X5161Y15004D01*
X5170Y15050D01*
Y16900D01*
X5161Y16946D01*
X5146Y16989D01*
X5185Y17015D01*
X5211Y17054D01*
X5220Y17100D01*
Y18750D01*
X5211Y18796D01*
X5185Y18835D01*
X5199Y18886D01*
X5211Y18904D01*
X5220Y18950D01*
Y20500D01*
X5211Y20546D01*
X5185Y20585D01*
X5146Y20611D01*
X5161Y20654D01*
X5170Y20700D01*
Y21834D01*
X5167Y21849D01*
X5166Y21865D01*
X5163Y21872D01*
X5161Y21880D01*
X5153Y21893D01*
X5146Y21907D01*
X5142Y21913D01*
X5122Y21961D01*
X5115Y22012D01*
X5115Y22013D01*
X5115Y22017D01*
X5116Y22021D01*
X5113Y22041D01*
X5112Y22060D01*
X5110Y22064D01*
X5110Y22068D01*
X5100Y22085D01*
X5091Y22102D01*
X5088Y22105D01*
X5086Y22108D01*
X5060Y22138D01*
Y22750D01*
X5051Y22796D01*
X5025Y22835D01*
X4986Y22861D01*
X4940Y22870D01*
X3920D01*
X3920Y27550D01*
X7400Y31030D01*
X37300Y31030D01*
X37346Y31039D01*
X37385Y31065D01*
X37411Y31104D01*
X37420Y31150D01*
Y33050D01*
X37411Y33096D01*
X37385Y33135D01*
X37346Y33161D01*
X37300Y33170D01*
D02*
G37*
G36*
X3152Y10580D02*
X2806D01*
Y10235D01*
X3152D01*
Y10580D01*
D02*
G37*
G36*
X2706D02*
X2361D01*
Y10235D01*
X2706D01*
Y10580D01*
D02*
G37*
G36*
X3150Y4493D02*
X2940Y4476D01*
X2735Y4427D01*
X2540Y4346D01*
X2361Y4236D01*
X2201Y4099D01*
X2064Y3939D01*
X1954Y3760D01*
X1873Y3565D01*
X1824Y3360D01*
X1807Y3150D01*
X1824Y2940D01*
X1873Y2735D01*
X1954Y2540D01*
X2064Y2361D01*
X2201Y2201D01*
X2361Y2064D01*
X2540Y1954D01*
X2735Y1873D01*
X2940Y1824D01*
X3150Y1807D01*
X3360Y1824D01*
X3565Y1873D01*
X3760Y1954D01*
X3939Y2064D01*
X4099Y2201D01*
X4236Y2361D01*
X4346Y2540D01*
X4427Y2735D01*
X4476Y2940D01*
X4493Y3150D01*
X4476Y3360D01*
X4427Y3565D01*
X4346Y3760D01*
X4236Y3939D01*
X4099Y4099D01*
X3939Y4236D01*
X3760Y4346D01*
X3565Y4427D01*
X3360Y4476D01*
X3150Y4493D01*
D02*
G37*
%LPD*%
G36*
X37300Y31150D02*
X7350Y31150D01*
X3800Y27600D01*
X3800Y22850D01*
X3170D01*
Y22855D01*
X3000D01*
X2983Y22905D01*
X3038Y22947D01*
X3102Y23029D01*
X3141Y23126D01*
X3148Y23179D01*
X2756D01*
X2364D01*
X2371Y23126D01*
X2411Y23029D01*
X2474Y22947D01*
X2529Y22905D01*
X2512Y22855D01*
X2343D01*
Y22850D01*
X250D01*
Y33050D01*
X37300D01*
Y31150D01*
D02*
G37*
G36*
X4940Y22750D02*
Y22067D01*
X4963D01*
X4996Y22029D01*
X4993Y22012D01*
X5004Y21929D01*
X5036Y21852D01*
X5050Y21834D01*
Y20700D01*
X300Y20700D01*
Y22730D01*
X2343D01*
X2361Y22715D01*
Y22491D01*
X2756D01*
X3152D01*
Y22715D01*
X3170Y22730D01*
X3800D01*
X3846Y22739D01*
X3863Y22750D01*
X4940D01*
D02*
G37*
G36*
X5100Y20500D02*
Y18950D01*
X3038Y18950D01*
X3022Y18997D01*
X3038Y19010D01*
X3102Y19092D01*
X3141Y19189D01*
X3148Y19242D01*
X2756D01*
X2364D01*
X2371Y19189D01*
X2411Y19092D01*
X2474Y19010D01*
X2491Y18997D01*
X2475Y18950D01*
X300Y18950D01*
Y20500D01*
X5100Y20500D01*
D02*
G37*
G36*
X5100Y17100D02*
X300D01*
Y18750D01*
X2361D01*
Y18554D01*
X2756D01*
X3152D01*
Y18750D01*
X5100D01*
Y17100D01*
D02*
G37*
G36*
X5050Y15050D02*
X3084D01*
X3059Y15100D01*
X3102Y15155D01*
X3141Y15252D01*
X3148Y15305D01*
X2756D01*
X2364D01*
X2371Y15252D01*
X2411Y15155D01*
X2454Y15100D01*
X2429Y15050D01*
X300D01*
Y16900D01*
X5050D01*
Y15050D01*
D02*
G37*
G36*
X2361Y14900D02*
Y14617D01*
X2756D01*
X3152D01*
Y14900D01*
X5100D01*
Y13200D01*
X300Y13200D01*
Y14900D01*
X2361D01*
D02*
G37*
G36*
X5100Y11200D02*
X3148D01*
X3115Y11250D01*
X3141Y11315D01*
X3148Y11368D01*
X2756D01*
X2364D01*
X2371Y11315D01*
X2398Y11250D01*
X2365Y11200D01*
X300D01*
Y13050D01*
X5100D01*
Y11200D01*
D02*
G37*
%LPC*%
G36*
X35434Y32706D02*
X35351Y32695D01*
X35273Y32663D01*
X35207Y32612D01*
X35156Y32545D01*
X35124Y32468D01*
X35113Y32385D01*
X35115Y32368D01*
X35080Y32333D01*
X35049Y32337D01*
X34966Y32326D01*
X34889Y32294D01*
X34822Y32243D01*
X34771Y32176D01*
X34739Y32099D01*
X34728Y32016D01*
X34739Y31933D01*
X34771Y31855D01*
X34822Y31789D01*
X34889Y31738D01*
X34966Y31706D01*
X35049Y31695D01*
X35132Y31706D01*
X35209Y31738D01*
X35276Y31789D01*
X35327Y31855D01*
X35359Y31933D01*
X35370Y32016D01*
X35368Y32033D01*
X35403Y32068D01*
X35434Y32064D01*
X35464Y32068D01*
X35500Y32033D01*
X35497Y32015D01*
X35508Y31932D01*
X35540Y31855D01*
X35591Y31788D01*
X35658Y31737D01*
X35735Y31705D01*
X35818Y31694D01*
X35901Y31705D01*
X35979Y31737D01*
X36045Y31788D01*
X36096Y31855D01*
X36128Y31932D01*
X36139Y32015D01*
X36128Y32098D01*
X36096Y32175D01*
X36045Y32242D01*
X35979Y32293D01*
X35901Y32325D01*
X35818Y32336D01*
X35788Y32332D01*
X35752Y32367D01*
X35755Y32385D01*
X35744Y32468D01*
X35712Y32545D01*
X35661Y32612D01*
X35594Y32663D01*
X35517Y32695D01*
X35434Y32706D01*
D02*
G37*
G36*
X19686Y32706D02*
X19603Y32695D01*
X19525Y32663D01*
X19459Y32612D01*
X19408Y32546D01*
X19376Y32468D01*
X19365Y32385D01*
X19369Y32353D01*
X19334Y32317D01*
X19301Y32322D01*
X19218Y32311D01*
X19140Y32279D01*
X19074Y32228D01*
X19023Y32161D01*
X18991Y32084D01*
X18980Y32001D01*
X18991Y31918D01*
X19023Y31840D01*
X19074Y31774D01*
X19140Y31723D01*
X19218Y31691D01*
X19301Y31680D01*
X19384Y31691D01*
X19461Y31723D01*
X19528Y31774D01*
X19579Y31840D01*
X19611Y31918D01*
X19622Y32001D01*
X19617Y32033D01*
X19653Y32069D01*
X19686Y32064D01*
X19718Y32069D01*
X19754Y32033D01*
X19749Y32000D01*
X19760Y31917D01*
X19792Y31840D01*
X19843Y31773D01*
X19910Y31722D01*
X19987Y31690D01*
X20070Y31679D01*
X20153Y31690D01*
X20231Y31722D01*
X20297Y31773D01*
X20348Y31840D01*
X20380Y31917D01*
X20391Y32000D01*
X20380Y32083D01*
X20348Y32160D01*
X20297Y32227D01*
X20231Y32278D01*
X20153Y32310D01*
X20070Y32321D01*
X20037Y32317D01*
X20002Y32352D01*
X20006Y32385D01*
X19996Y32468D01*
X19964Y32546D01*
X19913Y32612D01*
X19846Y32663D01*
X19769Y32695D01*
X19686Y32706D01*
D02*
G37*
G36*
X27560Y32706D02*
X27477Y32695D01*
X27400Y32663D01*
X27333Y32612D01*
X27282Y32545D01*
X27250Y32468D01*
X27239Y32385D01*
X27243Y32352D01*
X27208Y32317D01*
X27175Y32321D01*
X27092Y32311D01*
X27015Y32278D01*
X26948Y32227D01*
X26897Y32161D01*
X26865Y32084D01*
X26854Y32001D01*
X26865Y31918D01*
X26897Y31840D01*
X26948Y31774D01*
X27015Y31723D01*
X27092Y31691D01*
X27175Y31680D01*
X27258Y31691D01*
X27335Y31723D01*
X27402Y31774D01*
X27453Y31840D01*
X27485Y31918D01*
X27496Y32001D01*
X27492Y32033D01*
X27527Y32068D01*
X27560Y32064D01*
X27592Y32068D01*
X27628Y32033D01*
X27623Y32000D01*
X27634Y31917D01*
X27666Y31840D01*
X27717Y31773D01*
X27784Y31722D01*
X27861Y31690D01*
X27944Y31679D01*
X28027Y31690D01*
X28105Y31722D01*
X28171Y31773D01*
X28222Y31840D01*
X28254Y31917D01*
X28265Y32000D01*
X28254Y32083D01*
X28222Y32160D01*
X28171Y32227D01*
X28105Y32278D01*
X28027Y32310D01*
X27944Y32321D01*
X27912Y32317D01*
X27877Y32352D01*
X27881Y32385D01*
X27870Y32468D01*
X27838Y32545D01*
X27787Y32612D01*
X27720Y32663D01*
X27643Y32695D01*
X27560Y32706D01*
D02*
G37*
G36*
X11801Y32765D02*
X11718Y32754D01*
X11640Y32722D01*
X11574Y32671D01*
X11523Y32605D01*
X11491Y32527D01*
X11480Y32444D01*
X11491Y32361D01*
X11455Y32316D01*
X11416Y32321D01*
X11333Y32311D01*
X11256Y32278D01*
X11189Y32227D01*
X11138Y32161D01*
X11106Y32084D01*
X11095Y32001D01*
X11106Y31918D01*
X11138Y31840D01*
X11189Y31774D01*
X11256Y31723D01*
X11333Y31691D01*
X11416Y31680D01*
X11499Y31691D01*
X11576Y31723D01*
X11643Y31774D01*
X11694Y31840D01*
X11726Y31918D01*
X11737Y32001D01*
X11726Y32084D01*
X11761Y32128D01*
X11801Y32123D01*
X11840Y32128D01*
X11875Y32083D01*
X11864Y32000D01*
X11875Y31917D01*
X11907Y31840D01*
X11958Y31773D01*
X12025Y31722D01*
X12102Y31690D01*
X12185Y31679D01*
X12268Y31690D01*
X12345Y31722D01*
X12412Y31773D01*
X12463Y31840D01*
X12495Y31917D01*
X12506Y32000D01*
X12495Y32083D01*
X12463Y32160D01*
X12412Y32227D01*
X12345Y32278D01*
X12268Y32310D01*
X12185Y32321D01*
X12146Y32316D01*
X12111Y32361D01*
X12122Y32444D01*
X12111Y32527D01*
X12079Y32605D01*
X12028Y32671D01*
X11961Y32722D01*
X11884Y32754D01*
X11801Y32765D01*
D02*
G37*
G36*
X3150Y32052D02*
X2940Y32035D01*
X2735Y31986D01*
X2540Y31905D01*
X2361Y31795D01*
X2201Y31658D01*
X2064Y31498D01*
X1954Y31319D01*
X1873Y31124D01*
X1824Y30919D01*
X1807Y30709D01*
X1824Y30499D01*
X1873Y30294D01*
X1954Y30099D01*
X2064Y29920D01*
X2201Y29760D01*
X2361Y29623D01*
X2540Y29513D01*
X2735Y29432D01*
X2940Y29383D01*
X3150Y29366D01*
X3360Y29383D01*
X3565Y29432D01*
X3760Y29513D01*
X3939Y29623D01*
X4099Y29760D01*
X4236Y29920D01*
X4346Y30099D01*
X4427Y30294D01*
X4476Y30499D01*
X4493Y30709D01*
X4476Y30919D01*
X4427Y31124D01*
X4346Y31319D01*
X4236Y31498D01*
X4099Y31658D01*
X3939Y31795D01*
X3760Y31905D01*
X3565Y31986D01*
X3360Y32035D01*
X3150Y32052D01*
D02*
G37*
G36*
X2806Y23621D02*
Y23279D01*
X3148D01*
X3141Y23332D01*
X3102Y23428D01*
X3038Y23511D01*
X2956Y23574D01*
X2859Y23614D01*
X2806Y23621D01*
D02*
G37*
G36*
X2706D02*
X2653Y23614D01*
X2557Y23574D01*
X2474Y23511D01*
X2411Y23428D01*
X2371Y23332D01*
X2364Y23279D01*
X2706D01*
Y23621D01*
D02*
G37*
%LPD*%
G36*
X35485Y32578D02*
X35534Y32558D01*
X35575Y32526D01*
X35607Y32485D01*
X35626Y32437D01*
X35633Y32385D01*
X35633Y32383D01*
X35633Y32375D01*
X35632Y32367D01*
X35635Y32352D01*
X35636Y32336D01*
X35640Y32329D01*
X35641Y32321D01*
X35650Y32308D01*
X35657Y32294D01*
X35663Y32289D01*
X35667Y32282D01*
X35703Y32247D01*
X35709Y32242D01*
X35714Y32236D01*
X35729Y32229D01*
X35742Y32221D01*
X35749Y32219D01*
X35757Y32215D01*
X35772Y32214D01*
X35788Y32211D01*
X35796Y32213D01*
X35803Y32212D01*
X35818Y32214D01*
X35870Y32208D01*
X35918Y32188D01*
X35959Y32156D01*
X35991Y32115D01*
X36011Y32067D01*
X36018Y32015D01*
X36011Y31963D01*
X35991Y31915D01*
X35959Y31874D01*
X35918Y31842D01*
X35870Y31822D01*
X35818Y31816D01*
X35767Y31822D01*
X35719Y31842D01*
X35677Y31874D01*
X35646Y31915D01*
X35626Y31963D01*
X35619Y32015D01*
X35619Y32017D01*
X35619Y32025D01*
X35620Y32033D01*
X35617Y32048D01*
X35616Y32064D01*
X35613Y32071D01*
X35611Y32079D01*
X35602Y32092D01*
X35595Y32106D01*
X35589Y32111D01*
X35585Y32118D01*
X35550Y32153D01*
X35543Y32158D01*
X35538Y32164D01*
X35524Y32171D01*
X35511Y32179D01*
X35503Y32181D01*
X35496Y32185D01*
X35480Y32186D01*
X35464Y32189D01*
X35457Y32187D01*
X35449Y32188D01*
X35434Y32186D01*
X35419Y32188D01*
X35411Y32187D01*
X35403Y32189D01*
X35388Y32186D01*
X35372Y32185D01*
X35365Y32181D01*
X35357Y32180D01*
X35344Y32171D01*
X35330Y32164D01*
X35324Y32158D01*
X35318Y32153D01*
X35282Y32118D01*
X35278Y32111D01*
X35272Y32106D01*
X35265Y32092D01*
X35256Y32079D01*
X35255Y32071D01*
X35251Y32064D01*
X35250Y32048D01*
X35247Y32033D01*
X35249Y32025D01*
X35248Y32017D01*
X35248Y32016D01*
X35242Y31964D01*
X35222Y31916D01*
X35190Y31875D01*
X35149Y31843D01*
X35101Y31823D01*
X35049Y31816D01*
X34997Y31823D01*
X34949Y31843D01*
X34908Y31875D01*
X34876Y31916D01*
X34856Y31964D01*
X34850Y32016D01*
X34856Y32067D01*
X34876Y32115D01*
X34908Y32157D01*
X34949Y32188D01*
X34997Y32208D01*
X35049Y32215D01*
X35064Y32213D01*
X35072Y32214D01*
X35080Y32212D01*
X35095Y32215D01*
X35111Y32216D01*
X35118Y32220D01*
X35126Y32221D01*
X35139Y32230D01*
X35153Y32237D01*
X35158Y32243D01*
X35165Y32247D01*
X35200Y32283D01*
X35205Y32289D01*
X35211Y32295D01*
X35218Y32309D01*
X35227Y32322D01*
X35228Y32330D01*
X35232Y32337D01*
X35233Y32352D01*
X35236Y32368D01*
X35234Y32376D01*
X35235Y32384D01*
X35234Y32385D01*
X35241Y32437D01*
X35261Y32485D01*
X35293Y32526D01*
X35334Y32558D01*
X35382Y32578D01*
X35434Y32584D01*
X35485Y32578D01*
D02*
G37*
G36*
X19737Y32578D02*
X19785Y32558D01*
X19827Y32526D01*
X19858Y32485D01*
X19878Y32437D01*
X19885Y32385D01*
X19883Y32368D01*
X19883Y32360D01*
X19882Y32352D01*
X19885Y32336D01*
X19886Y32321D01*
X19889Y32314D01*
X19891Y32306D01*
X19900Y32293D01*
X19907Y32279D01*
X19913Y32273D01*
X19917Y32267D01*
X19952Y32231D01*
X19959Y32227D01*
X19964Y32221D01*
X19978Y32214D01*
X19991Y32205D01*
X19999Y32204D01*
X20006Y32200D01*
X20022Y32199D01*
X20037Y32196D01*
X20045Y32198D01*
X20053Y32197D01*
X20070Y32199D01*
X20122Y32193D01*
X20170Y32173D01*
X20211Y32141D01*
X20243Y32100D01*
X20263Y32052D01*
X20269Y32000D01*
X20263Y31948D01*
X20243Y31900D01*
X20211Y31859D01*
X20170Y31827D01*
X20122Y31807D01*
X20070Y31801D01*
X20018Y31807D01*
X19970Y31827D01*
X19929Y31859D01*
X19897Y31900D01*
X19877Y31948D01*
X19871Y32000D01*
X19873Y32018D01*
X19872Y32026D01*
X19874Y32033D01*
X19871Y32049D01*
X19870Y32064D01*
X19866Y32072D01*
X19865Y32079D01*
X19856Y32092D01*
X19849Y32107D01*
X19843Y32112D01*
X19839Y32118D01*
X19803Y32154D01*
X19797Y32158D01*
X19792Y32164D01*
X19777Y32171D01*
X19764Y32180D01*
X19757Y32181D01*
X19749Y32185D01*
X19734Y32186D01*
X19718Y32189D01*
X19710Y32188D01*
X19703Y32188D01*
X19686Y32186D01*
X19668Y32188D01*
X19661Y32188D01*
X19653Y32189D01*
X19637Y32186D01*
X19622Y32185D01*
X19614Y32182D01*
X19607Y32180D01*
X19594Y32171D01*
X19579Y32164D01*
X19574Y32158D01*
X19568Y32154D01*
X19532Y32119D01*
X19528Y32112D01*
X19522Y32107D01*
X19515Y32093D01*
X19506Y32079D01*
X19505Y32072D01*
X19501Y32065D01*
X19500Y32049D01*
X19497Y32033D01*
X19498Y32026D01*
X19498Y32018D01*
X19500Y32001D01*
X19493Y31949D01*
X19473Y31901D01*
X19442Y31860D01*
X19400Y31828D01*
X19352Y31808D01*
X19301Y31801D01*
X19249Y31808D01*
X19201Y31828D01*
X19160Y31860D01*
X19128Y31901D01*
X19108Y31949D01*
X19101Y32001D01*
X19108Y32052D01*
X19128Y32100D01*
X19160Y32142D01*
X19201Y32173D01*
X19249Y32193D01*
X19301Y32200D01*
X19318Y32198D01*
X19326Y32198D01*
X19334Y32197D01*
X19349Y32200D01*
X19365Y32201D01*
X19372Y32204D01*
X19380Y32206D01*
X19393Y32215D01*
X19407Y32222D01*
X19412Y32228D01*
X19419Y32232D01*
X19454Y32268D01*
X19459Y32274D01*
X19465Y32279D01*
X19472Y32293D01*
X19480Y32307D01*
X19482Y32314D01*
X19485Y32322D01*
X19486Y32337D01*
X19489Y32353D01*
X19488Y32360D01*
X19488Y32368D01*
X19486Y32385D01*
X19493Y32437D01*
X19513Y32485D01*
X19545Y32526D01*
X19586Y32558D01*
X19634Y32578D01*
X19686Y32585D01*
X19737Y32578D01*
D02*
G37*
G36*
X27612Y32577D02*
X27660Y32558D01*
X27701Y32526D01*
X27733Y32485D01*
X27753Y32436D01*
X27759Y32385D01*
X27757Y32368D01*
X27758Y32360D01*
X27756Y32352D01*
X27759Y32337D01*
X27760Y32321D01*
X27764Y32314D01*
X27765Y32306D01*
X27774Y32293D01*
X27781Y32279D01*
X27787Y32273D01*
X27791Y32267D01*
X27827Y32231D01*
X27833Y32227D01*
X27839Y32221D01*
X27853Y32214D01*
X27866Y32205D01*
X27874Y32204D01*
X27881Y32200D01*
X27896Y32199D01*
X27912Y32196D01*
X27920Y32198D01*
X27928Y32197D01*
X27944Y32199D01*
X27996Y32193D01*
X28044Y32173D01*
X28085Y32141D01*
X28117Y32100D01*
X28137Y32052D01*
X28143Y32000D01*
X28137Y31948D01*
X28117Y31900D01*
X28085Y31859D01*
X28044Y31827D01*
X27996Y31807D01*
X27944Y31801D01*
X27892Y31807D01*
X27844Y31827D01*
X27803Y31859D01*
X27771Y31900D01*
X27752Y31948D01*
X27745Y32000D01*
X27747Y32017D01*
X27746Y32025D01*
X27748Y32033D01*
X27745Y32048D01*
X27744Y32064D01*
X27740Y32071D01*
X27739Y32079D01*
X27730Y32092D01*
X27723Y32106D01*
X27717Y32111D01*
X27713Y32118D01*
X27677Y32153D01*
X27671Y32158D01*
X27666Y32164D01*
X27651Y32171D01*
X27638Y32179D01*
X27631Y32181D01*
X27623Y32185D01*
X27608Y32186D01*
X27592Y32189D01*
X27584Y32187D01*
X27576Y32188D01*
X27560Y32185D01*
X27543Y32188D01*
X27535Y32187D01*
X27527Y32189D01*
X27511Y32186D01*
X27496Y32185D01*
X27489Y32181D01*
X27481Y32180D01*
X27468Y32171D01*
X27454Y32164D01*
X27448Y32158D01*
X27442Y32153D01*
X27406Y32118D01*
X27402Y32112D01*
X27396Y32106D01*
X27389Y32092D01*
X27380Y32079D01*
X27379Y32071D01*
X27375Y32064D01*
X27374Y32048D01*
X27371Y32033D01*
X27373Y32025D01*
X27372Y32017D01*
X27374Y32001D01*
X27368Y31949D01*
X27348Y31901D01*
X27316Y31860D01*
X27275Y31828D01*
X27227Y31808D01*
X27175Y31801D01*
X27123Y31808D01*
X27075Y31828D01*
X27034Y31860D01*
X27002Y31901D01*
X26982Y31949D01*
X26976Y32001D01*
X26982Y32052D01*
X27002Y32100D01*
X27034Y32142D01*
X27075Y32173D01*
X27123Y32193D01*
X27175Y32200D01*
X27192Y32198D01*
X27200Y32198D01*
X27208Y32197D01*
X27224Y32200D01*
X27239Y32201D01*
X27246Y32204D01*
X27254Y32206D01*
X27267Y32215D01*
X27281Y32222D01*
X27287Y32228D01*
X27293Y32232D01*
X27329Y32267D01*
X27333Y32274D01*
X27339Y32279D01*
X27346Y32293D01*
X27355Y32306D01*
X27356Y32314D01*
X27360Y32321D01*
X27361Y32337D01*
X27364Y32352D01*
X27362Y32360D01*
X27363Y32368D01*
X27361Y32385D01*
X27367Y32436D01*
X27387Y32485D01*
X27419Y32526D01*
X27460Y32558D01*
X27508Y32577D01*
X27560Y32584D01*
X27612Y32577D01*
D02*
G37*
G36*
X11852Y32637D02*
X11900Y32617D01*
X11942Y32585D01*
X11973Y32544D01*
X11993Y32496D01*
X12000Y32444D01*
X11991Y32377D01*
X11991Y32376D01*
X11991Y32376D01*
X11993Y32353D01*
X11994Y32330D01*
X11995Y32329D01*
X11995Y32329D01*
X12005Y32308D01*
X12015Y32288D01*
X12016Y32287D01*
X12016Y32287D01*
X12051Y32242D01*
X12063Y32232D01*
X12073Y32220D01*
X12080Y32216D01*
X12087Y32211D01*
X12101Y32206D01*
X12115Y32199D01*
X12123Y32199D01*
X12131Y32196D01*
X12147Y32197D01*
X12162Y32196D01*
X12185Y32199D01*
X12237Y32193D01*
X12285Y32173D01*
X12326Y32141D01*
X12358Y32100D01*
X12378Y32052D01*
X12384Y32000D01*
X12378Y31948D01*
X12358Y31900D01*
X12326Y31859D01*
X12285Y31827D01*
X12237Y31807D01*
X12185Y31801D01*
X12133Y31807D01*
X12085Y31827D01*
X12044Y31859D01*
X12012Y31900D01*
X11992Y31948D01*
X11986Y32000D01*
X11995Y32067D01*
X11994Y32068D01*
X11995Y32068D01*
X11993Y32091D01*
X11991Y32114D01*
X11991Y32115D01*
X11991Y32115D01*
X11981Y32136D01*
X11971Y32156D01*
X11970Y32157D01*
X11970Y32157D01*
X11935Y32202D01*
X11923Y32212D01*
X11913Y32224D01*
X11906Y32228D01*
X11899Y32233D01*
X11885Y32238D01*
X11871Y32245D01*
X11863Y32245D01*
X11855Y32248D01*
X11839Y32247D01*
X11824Y32248D01*
X11801Y32245D01*
X11777Y32248D01*
X11762Y32247D01*
X11748Y32248D01*
X11739Y32245D01*
X11730Y32245D01*
X11717Y32238D01*
X11703Y32234D01*
X11696Y32228D01*
X11688Y32224D01*
X11678Y32213D01*
X11667Y32203D01*
X11632Y32159D01*
X11631Y32158D01*
X11630Y32157D01*
X11620Y32137D01*
X11610Y32117D01*
X11610Y32116D01*
X11610Y32115D01*
X11608Y32092D01*
X11606Y32070D01*
X11607Y32069D01*
X11606Y32068D01*
X11615Y32001D01*
X11609Y31949D01*
X11589Y31901D01*
X11557Y31860D01*
X11516Y31828D01*
X11468Y31808D01*
X11416Y31801D01*
X11364Y31808D01*
X11316Y31828D01*
X11275Y31860D01*
X11243Y31901D01*
X11223Y31949D01*
X11217Y32001D01*
X11223Y32052D01*
X11243Y32100D01*
X11275Y32142D01*
X11316Y32173D01*
X11364Y32193D01*
X11416Y32200D01*
X11440Y32197D01*
X11454Y32198D01*
X11469Y32197D01*
X11478Y32199D01*
X11486Y32200D01*
X11500Y32206D01*
X11514Y32211D01*
X11521Y32217D01*
X11529Y32221D01*
X11538Y32232D01*
X11550Y32241D01*
X11585Y32286D01*
X11586Y32287D01*
X11586Y32288D01*
X11596Y32308D01*
X11607Y32328D01*
X11607Y32329D01*
X11607Y32330D01*
X11609Y32352D01*
X11611Y32375D01*
X11610Y32376D01*
X11610Y32377D01*
X11601Y32444D01*
X11608Y32496D01*
X11628Y32544D01*
X11660Y32585D01*
X11701Y32617D01*
X11749Y32637D01*
X11801Y32643D01*
X11852Y32637D01*
D02*
G37*
%LPC*%
G36*
X3152Y22391D02*
X2806D01*
Y22046D01*
X3152D01*
Y22391D01*
D02*
G37*
G36*
X2706D02*
X2361D01*
Y22046D01*
X2706D01*
Y22391D01*
D02*
G37*
G36*
X2806Y19684D02*
Y19342D01*
X3148D01*
X3141Y19395D01*
X3102Y19491D01*
X3038Y19574D01*
X2956Y19637D01*
X2859Y19677D01*
X2806Y19684D01*
D02*
G37*
G36*
X2706D02*
X2653Y19677D01*
X2557Y19637D01*
X2474Y19574D01*
X2411Y19491D01*
X2371Y19395D01*
X2364Y19342D01*
X2706D01*
Y19684D01*
D02*
G37*
G36*
X3152Y18454D02*
X2806D01*
Y18109D01*
X3152D01*
Y18454D01*
D02*
G37*
G36*
X2706D02*
X2361D01*
Y18109D01*
X2706D01*
Y18454D01*
D02*
G37*
G36*
X2806Y15747D02*
Y15405D01*
X3148D01*
X3141Y15458D01*
X3102Y15554D01*
X3038Y15637D01*
X2956Y15700D01*
X2859Y15740D01*
X2806Y15747D01*
D02*
G37*
G36*
X2706D02*
X2653Y15740D01*
X2557Y15700D01*
X2474Y15637D01*
X2411Y15554D01*
X2371Y15458D01*
X2364Y15405D01*
X2706D01*
Y15747D01*
D02*
G37*
G36*
X3152Y14517D02*
X2806D01*
Y14172D01*
X3152D01*
Y14517D01*
D02*
G37*
G36*
X2706D02*
X2361D01*
Y14172D01*
X2706D01*
Y14517D01*
D02*
G37*
G36*
X2806Y11810D02*
Y11468D01*
X3148D01*
X3141Y11521D01*
X3102Y11617D01*
X3038Y11700D01*
X2956Y11763D01*
X2859Y11803D01*
X2806Y11810D01*
D02*
G37*
G36*
X2706D02*
X2653Y11803D01*
X2557Y11763D01*
X2474Y11700D01*
X2411Y11617D01*
X2371Y11521D01*
X2364Y11468D01*
X2706D01*
Y11810D01*
D02*
G37*
G36*
X40796Y26539D02*
X40450D01*
Y26194D01*
X40796D01*
Y26539D01*
D02*
G37*
G36*
X40350D02*
X40005D01*
Y26194D01*
X40350D01*
Y26539D01*
D02*
G37*
G36*
X40796Y26094D02*
X40005D01*
Y25749D01*
X40150D01*
X40167Y25699D01*
X40106Y25652D01*
X40039Y25565D01*
X39998Y25465D01*
X39983Y25357D01*
X39998Y25249D01*
X40039Y25148D01*
X40106Y25062D01*
X40192Y24996D01*
X40292Y24954D01*
X40400Y24940D01*
X40508Y24954D01*
X40609Y24996D01*
X40695Y25062D01*
X40761Y25148D01*
X40803Y25249D01*
X40817Y25357D01*
X40803Y25465D01*
X40761Y25565D01*
X40695Y25652D01*
X40634Y25699D01*
X40651Y25749D01*
X40796D01*
Y26094D01*
D02*
G37*
G36*
X41311Y14314D02*
X40838D01*
Y13665D01*
X41311D01*
Y14314D01*
D02*
G37*
G36*
X34795Y11246D02*
X34712Y11236D01*
X34634Y11203D01*
X34568Y11152D01*
X34517Y11086D01*
X34485Y11009D01*
X34474Y10926D01*
X34485Y10843D01*
X34517Y10765D01*
X34568Y10699D01*
X34634Y10648D01*
X34712Y10616D01*
X34795Y10605D01*
X34878Y10616D01*
X34955Y10648D01*
X35022Y10699D01*
X35073Y10765D01*
X35105Y10843D01*
X35116Y10926D01*
X35105Y11009D01*
X35073Y11086D01*
X35022Y11152D01*
X34955Y11203D01*
X34878Y11236D01*
X34795Y11246D01*
D02*
G37*
G36*
X40700Y15871D02*
X40617Y15860D01*
X40540Y15828D01*
X40473Y15777D01*
X40422Y15710D01*
X40390Y15633D01*
X40379Y15550D01*
X40390Y15467D01*
X40422Y15390D01*
X40464Y15335D01*
Y14787D01*
X40937D01*
Y15336D01*
X40978Y15390D01*
X41010Y15467D01*
X41021Y15550D01*
X41010Y15633D01*
X40978Y15710D01*
X40927Y15777D01*
X40860Y15828D01*
X40783Y15860D01*
X40700Y15871D01*
D02*
G37*
G36*
X32523Y4111D02*
X32440Y4100D01*
X32362Y4068D01*
X32296Y4017D01*
X32245Y3950D01*
X32213Y3873D01*
X32202Y3790D01*
X32213Y3707D01*
X32245Y3629D01*
X32296Y3563D01*
X32362Y3512D01*
X32440Y3480D01*
X32523Y3469D01*
X32606Y3480D01*
X32683Y3512D01*
X32750Y3563D01*
X32801Y3629D01*
X32833Y3707D01*
X32844Y3790D01*
X32833Y3873D01*
X32801Y3950D01*
X32750Y4017D01*
X32683Y4068D01*
X32606Y4100D01*
X32523Y4111D01*
D02*
G37*
G36*
X26224D02*
X26141Y4100D01*
X26063Y4068D01*
X25997Y4017D01*
X25946Y3950D01*
X25914Y3873D01*
X25903Y3790D01*
X25914Y3707D01*
X25946Y3629D01*
X25997Y3563D01*
X26063Y3512D01*
X26141Y3480D01*
X26224Y3469D01*
X26307Y3480D01*
X26384Y3512D01*
X26451Y3563D01*
X26502Y3629D01*
X26534Y3707D01*
X26545Y3790D01*
X26534Y3873D01*
X26502Y3950D01*
X26451Y4017D01*
X26384Y4068D01*
X26307Y4100D01*
X26224Y4111D01*
D02*
G37*
G36*
X7326D02*
X7243Y4100D01*
X7166Y4068D01*
X7099Y4017D01*
X7048Y3950D01*
X7016Y3873D01*
X7005Y3790D01*
X7016Y3707D01*
X7048Y3629D01*
X7099Y3563D01*
X7166Y3512D01*
X7243Y3480D01*
X7326Y3469D01*
X7409Y3480D01*
X7486Y3512D01*
X7553Y3563D01*
X7604Y3629D01*
X7636Y3707D01*
X7647Y3790D01*
X7636Y3873D01*
X7604Y3950D01*
X7553Y4017D01*
X7486Y4068D01*
X7409Y4100D01*
X7326Y4111D01*
D02*
G37*
G36*
X25573Y3131D02*
X25490Y3120D01*
X25412Y3088D01*
X25346Y3037D01*
X25295Y2971D01*
X25263Y2893D01*
X25252Y2810D01*
X25263Y2727D01*
X25295Y2650D01*
X25346Y2583D01*
X25412Y2532D01*
X25490Y2500D01*
X25573Y2489D01*
X25656Y2500D01*
X25733Y2532D01*
X25800Y2583D01*
X25851Y2650D01*
X25883Y2727D01*
X25894Y2810D01*
X25883Y2893D01*
X25851Y2971D01*
X25800Y3037D01*
X25733Y3088D01*
X25656Y3120D01*
X25573Y3131D01*
D02*
G37*
G36*
X18266Y1996D02*
X18183Y1985D01*
X18106Y1953D01*
X18039Y1902D01*
X17988Y1835D01*
X17956Y1758D01*
X17945Y1675D01*
X17956Y1592D01*
X17988Y1514D01*
X18039Y1448D01*
X18106Y1397D01*
X18183Y1365D01*
X18266Y1354D01*
X18349Y1365D01*
X18426Y1397D01*
X18493Y1448D01*
X18544Y1514D01*
X18576Y1592D01*
X18587Y1675D01*
X18576Y1758D01*
X18544Y1835D01*
X18493Y1902D01*
X18426Y1953D01*
X18349Y1985D01*
X18266Y1996D01*
D02*
G37*
G36*
X32524Y1796D02*
X32441Y1785D01*
X32363Y1753D01*
X32297Y1702D01*
X32246Y1636D01*
X32214Y1558D01*
X32203Y1475D01*
X32214Y1392D01*
X32246Y1315D01*
X32297Y1248D01*
X32363Y1197D01*
X32441Y1165D01*
X32524Y1154D01*
X32607Y1165D01*
X32684Y1197D01*
X32751Y1248D01*
X32802Y1315D01*
X32834Y1392D01*
X32845Y1475D01*
X32834Y1558D01*
X32802Y1636D01*
X32751Y1702D01*
X32684Y1753D01*
X32607Y1785D01*
X32524Y1796D01*
D02*
G37*
G36*
X26224D02*
X26141Y1785D01*
X26064Y1753D01*
X25998Y1702D01*
X25947Y1636D01*
X25915Y1558D01*
X25904Y1475D01*
X25915Y1392D01*
X25947Y1315D01*
X25998Y1248D01*
X26064Y1197D01*
X26141Y1165D01*
X26224Y1154D01*
X26308Y1165D01*
X26385Y1197D01*
X26451Y1248D01*
X26502Y1315D01*
X26534Y1392D01*
X26545Y1475D01*
X26534Y1558D01*
X26502Y1636D01*
X26451Y1702D01*
X26385Y1753D01*
X26308Y1785D01*
X26224Y1796D01*
D02*
G37*
G36*
X13626D02*
X13543Y1785D01*
X13466Y1753D01*
X13399Y1702D01*
X13348Y1636D01*
X13316Y1558D01*
X13305Y1475D01*
X13316Y1392D01*
X13348Y1315D01*
X13399Y1248D01*
X13466Y1197D01*
X13543Y1165D01*
X13626Y1154D01*
X13709Y1165D01*
X13786Y1197D01*
X13853Y1248D01*
X13904Y1315D01*
X13936Y1392D01*
X13947Y1475D01*
X13936Y1558D01*
X13904Y1636D01*
X13853Y1702D01*
X13786Y1753D01*
X13709Y1785D01*
X13626Y1796D01*
D02*
G37*
G36*
X7327D02*
X7244Y1785D01*
X7166Y1753D01*
X7100Y1702D01*
X7049Y1636D01*
X7017Y1558D01*
X7006Y1475D01*
X7017Y1392D01*
X7049Y1315D01*
X7100Y1248D01*
X7166Y1197D01*
X7244Y1165D01*
X7327Y1154D01*
X7410Y1165D01*
X7487Y1197D01*
X7554Y1248D01*
X7605Y1315D01*
X7637Y1392D01*
X7648Y1475D01*
X7637Y1558D01*
X7605Y1636D01*
X7554Y1702D01*
X7487Y1753D01*
X7410Y1785D01*
X7327Y1796D01*
D02*
G37*
%LPD*%
D12*
X0Y0D02*
X43307D01*
X0D02*
Y33465D01*
X43307D01*
Y0D02*
Y33465D01*
D13*
X24550Y13368D02*
D03*
Y13033D02*
D03*
X27450Y13318D02*
D03*
Y12983D02*
D03*
Y11885D02*
D03*
Y11550D02*
D03*
X28245Y15560D02*
D03*
Y15895D02*
D03*
X38200Y18938D02*
D03*
Y19273D02*
D03*
D14*
X25343Y8450D02*
D03*
X25008D02*
D03*
X25343Y9000D02*
D03*
X25008D02*
D03*
X25118Y11550D02*
D03*
X24783D02*
D03*
D17*
X21861Y15700D02*
D03*
X22239D02*
D03*
D18*
X20200Y15378D02*
D03*
Y15000D02*
D03*
D19*
X25550Y12450D02*
D03*
X40700Y16550D02*
D03*
X41300Y12950D02*
D03*
D20*
X28250Y17083D02*
D03*
Y16472D02*
D03*
D21*
X28080Y12450D02*
D03*
X27450D02*
D03*
Y9600D02*
D03*
X28080D02*
D03*
X25885Y10008D02*
D03*
X26515D02*
D03*
X25885Y10993D02*
D03*
X26515D02*
D03*
X39500Y15850D02*
D03*
X38870D02*
D03*
X40315Y13300D02*
D03*
X39685D02*
D03*
Y12600D02*
D03*
X40315D02*
D03*
D22*
X28245Y15043D02*
D03*
Y14413D02*
D03*
X39500Y15115D02*
D03*
Y14485D02*
D03*
D24*
X8300Y17270D02*
D03*
Y16562D02*
D03*
X4550Y20950D02*
D03*
Y20242D02*
D03*
X4546Y17350D02*
D03*
Y16642D02*
D03*
Y13450D02*
D03*
Y12742D02*
D03*
D62*
X37762Y17139D02*
X38201D01*
Y17139D01*
Y16701D02*
Y17139D01*
X40700Y15111D02*
Y15550D01*
X39501Y14047D02*
Y14485D01*
X38432Y15850D02*
X38870D01*
X39062Y14485D02*
X39500D01*
X29550Y16692D02*
X29989D01*
X29112Y16691D02*
X29550D01*
X28245Y14413D02*
X28684D01*
X39247Y13300D02*
X39685D01*
X39247Y12600D02*
X39685D01*
X28080Y9601D02*
X28519D01*
X28080Y12451D02*
X28515Y12016D01*
X26515Y10993D02*
Y11431D01*
X26516Y9570D02*
Y10008D01*
X25118Y11551D02*
X25556D01*
X26508Y9001D02*
X26946D01*
X26508Y8451D02*
X26946D01*
X19762Y15378D02*
X20200D01*
X5254Y22450D02*
Y22889D01*
X5314Y22451D02*
X5693D01*
X5255D02*
X5314D01*
Y22012D02*
Y22451D01*
X28515Y12016D02*
X28530D01*
X22239Y15700D02*
Y16139D01*
X8000Y12589D02*
Y13028D01*
X29550Y16692D02*
Y17131D01*
X40700Y15111D02*
X40700D01*
D63*
X13325Y8463D02*
X13912D01*
X14525Y9076D02*
X17709D01*
X13912Y8463D02*
X14525Y9076D01*
X14433Y4491D02*
X17551Y7609D01*
X13077Y4106D02*
X13462Y4491D01*
X14433D01*
X12615Y4106D02*
X13077D01*
X17701Y5560D02*
X18475D01*
X14886Y2745D02*
X17701Y5560D01*
X14418Y2745D02*
X14886D01*
X14229Y3182D02*
X14786D01*
X16570Y4967D02*
Y4967D01*
X14786Y3182D02*
X16570Y4967D01*
Y4967D02*
X17586Y5983D01*
X14616Y3579D02*
X17460Y6423D01*
X14030Y3579D02*
X14616D01*
X14589Y4005D02*
X17408Y6824D01*
X13836Y4005D02*
X14589D01*
X20554Y4865D02*
Y7609D01*
X19788Y4100D02*
X20554Y4865D01*
X20357Y5300D02*
Y7609D01*
X18109Y3392D02*
X18127Y3411D01*
X18468D01*
X20357Y5300D01*
X20327Y1407D02*
Y3743D01*
X21144Y4559D02*
Y7609D01*
X20327Y3743D02*
X21144Y4559D01*
X20827Y1407D02*
Y3565D01*
X21341Y4078D01*
Y7609D01*
X21327Y1407D02*
Y3564D01*
X21538Y3774D02*
Y7609D01*
X21327Y3564D02*
X21538Y3774D01*
X21837Y1416D02*
Y4740D01*
X21735Y4843D02*
Y7609D01*
Y4843D02*
X21837Y4740D01*
X22327Y1407D02*
Y4776D01*
X21932Y5172D02*
Y7609D01*
Y5172D02*
X22327Y4776D01*
X20160Y5710D02*
Y7609D01*
X18400Y3950D02*
X20160Y5710D01*
X19963Y5985D02*
Y7609D01*
X18109Y4392D02*
X18167Y4450D01*
X18428D01*
X19963Y5985D01*
X19766Y6311D02*
Y7609D01*
X18109Y4892D02*
X18167Y4950D01*
X18405D01*
X19766Y6311D01*
X19176Y6261D02*
Y7609D01*
X18475Y5560D02*
X19176Y6261D01*
X12615Y2606D02*
X13653D01*
X14229Y3182D01*
X12615Y3106D02*
X13558D01*
X14030Y3579D01*
X13780Y2106D02*
X14418Y2745D01*
X12615Y2106D02*
X13780D01*
X12615Y3606D02*
X13437D01*
X13836Y4005D01*
X18387Y5983D02*
X18979Y6574D01*
X17586Y5983D02*
X18387D01*
X18447Y6423D02*
X18782Y6758D01*
X17460Y6423D02*
X18447D01*
X18312Y6824D02*
X18585Y7097D01*
X17408Y6824D02*
X18312D01*
X18782Y6758D02*
Y7609D01*
X18585Y7097D02*
Y7609D01*
X18979Y6574D02*
Y7609D01*
X17551D02*
X18388D01*
X22916Y7060D02*
Y7609D01*
X23134Y6842D02*
Y6842D01*
X22916Y7060D02*
X23134Y6842D01*
Y6842D02*
X23381Y6595D01*
X13325Y7963D02*
X14058D01*
X14974Y8879D02*
X17709D01*
X14058Y7963D02*
X14974Y8879D01*
X16585Y8288D02*
X17709D01*
X13325Y6463D02*
X14760D01*
X16585Y8288D01*
X13325Y6963D02*
X14466D01*
X15988Y8485D02*
X17709D01*
X14466Y6963D02*
X15988Y8485D01*
X13325Y7463D02*
X14349D01*
X15568Y8682D01*
X17709D01*
X22522Y6421D02*
X23588Y5355D01*
X22522Y6421D02*
Y7609D01*
X22325Y5891D02*
Y7609D01*
Y5891D02*
X22646Y5571D01*
X23489Y5950D02*
X24339D01*
X22719Y6720D02*
Y7609D01*
Y6720D02*
X23489Y5950D01*
X23381Y6595D02*
X25134D01*
X23114Y7626D02*
X25160D01*
X23113Y7609D02*
Y7625D01*
X23114Y7626D01*
X12306Y10074D02*
X16077D01*
X16485Y9666D02*
X17709D01*
X16077Y10074D02*
X16485Y9666D01*
X12301Y10079D02*
X12306Y10074D01*
X16298Y10502D02*
X16937Y9863D01*
X16380Y10930D02*
X17250Y10060D01*
X21827Y1407D02*
X21837Y1416D01*
X14874Y12150D02*
X15071Y11953D01*
X16122D02*
X16591Y12422D01*
X15071Y11953D02*
X16122D01*
X14874Y12150D02*
Y12448D01*
X16591Y12422D02*
X17709D01*
X15444Y9469D02*
X17709D01*
X14874Y12948D02*
X16267D01*
X16596Y12619D02*
X17709D01*
X16267Y12948D02*
X16596Y12619D01*
X14874Y13448D02*
X16499D01*
X17130Y12816D02*
X17709D01*
X16499Y13448D02*
X17130Y12816D01*
X16548Y13948D02*
X17483Y13013D01*
X14874Y13948D02*
X16548D01*
X17483Y13013D02*
X17709D01*
X14874Y14448D02*
X14885Y14459D01*
X16524D01*
X17291Y13692D02*
X18388D01*
X16524Y14459D02*
X17291Y13692D01*
X17534Y16128D02*
Y16402D01*
Y16128D02*
X18979Y14683D01*
X17034Y16144D02*
X18782Y14396D01*
X17034Y16144D02*
Y16402D01*
X16534Y15986D02*
X17586Y14934D01*
X17766D01*
X16534Y15986D02*
Y16402D01*
X18585Y13692D02*
Y14115D01*
X17766Y14934D02*
X18585Y14115D01*
X18782Y13692D02*
Y14396D01*
X18979Y13692D02*
Y14683D01*
X18034Y16256D02*
X19176Y15115D01*
X18034Y16256D02*
Y16402D01*
X19176Y13692D02*
Y15115D01*
X18534Y16402D02*
X18975D01*
X19372Y13692D02*
Y16005D01*
X18975Y16402D02*
X19372Y16005D01*
X21144Y14432D02*
X21338Y14626D01*
X21144Y13692D02*
Y14432D01*
X21338Y14626D02*
X21556D01*
X21341Y13692D02*
Y14234D01*
X21523Y14416D02*
X21666D01*
X21341Y14234D02*
X21523Y14416D01*
X21538Y14091D02*
X21607Y14161D01*
X21538Y13692D02*
Y14091D01*
X21607Y14161D02*
X21711D01*
X22947Y15397D02*
X23973D01*
X21711Y14161D02*
X22947Y15397D01*
X21666Y14416D02*
X23159Y15909D01*
X21556Y14626D02*
X21861Y14931D01*
X17009Y11438D02*
X17709D01*
X24056Y13692D02*
X24215Y13851D01*
X27450D01*
X28874Y12428D01*
X27640Y15637D02*
Y16765D01*
X27958Y17083D01*
X28250D01*
X25600Y14930D02*
X26933D01*
X27640Y15637D01*
X27241Y14481D02*
X27810Y15050D01*
X22751Y14481D02*
X27241D01*
X22719Y13290D02*
Y13692D01*
Y13290D02*
X22955Y13054D01*
X32097Y13063D02*
X32105D01*
X31834Y12800D02*
X32097Y13063D01*
X29088Y12800D02*
X31834D01*
X27707Y14181D02*
X29088Y12800D01*
X22985Y14181D02*
X27707D01*
X22916Y13692D02*
Y14112D01*
X22985Y14181D01*
X21932Y14066D02*
X22910Y15044D01*
X25127D01*
X25444Y15362D01*
X23973Y15397D02*
X24644Y16068D01*
X33105Y13021D02*
Y14395D01*
X32511Y12428D02*
X33105Y13021D01*
X28874Y12428D02*
X32511D01*
X32100Y15400D02*
X33105Y14395D01*
X23113Y13692D02*
X24056D01*
X24550Y13368D02*
X24553Y13371D01*
X25053D01*
X25057Y13374D01*
X24868Y16068D02*
X24950Y16150D01*
X24644Y16068D02*
X24868D01*
X23159Y15909D02*
X23856D01*
X21500Y11845D02*
X21500D01*
X22056Y11290D02*
X23011D01*
X21500Y11845D02*
X22056Y11290D01*
X21735Y13050D02*
Y13692D01*
X21932D02*
Y14066D01*
X25444Y15644D02*
X25450Y15650D01*
X25444Y15362D02*
Y15644D01*
X22325Y14055D02*
X22751Y14481D01*
X22318Y12400D02*
X22522Y12603D01*
Y13692D01*
X22128Y12895D02*
Y13692D01*
X21663Y12430D02*
X22128Y12895D01*
X21659Y12430D02*
X21663D01*
X28713Y11061D02*
X29251D01*
X27890Y11885D02*
X28713Y11061D01*
X27450Y11885D02*
X27890D01*
X27450D02*
Y12450D01*
X22663Y10257D02*
X23792D01*
X22480Y10720D02*
X22488Y10712D01*
Y10431D02*
Y10712D01*
Y10431D02*
X22663Y10257D01*
X22351Y9713D02*
X22959D01*
X23307Y10060D02*
X23792D01*
X22959Y9713D02*
X23307Y10060D01*
X23256Y11044D02*
X23792D01*
X23011Y11290D02*
X23256Y11044D01*
X23792Y11438D02*
X24188D01*
X24501Y11751D02*
Y12079D01*
X24188Y11438D02*
X24501Y11751D01*
X24500Y12080D02*
X24501Y12079D01*
X23792Y11241D02*
X24474D01*
X24724Y11501D02*
X24773Y11550D01*
X24783D01*
X24724Y11491D02*
Y11501D01*
X24474Y11241D02*
X24724Y11491D01*
X20750Y7609D02*
Y8593D01*
X20540Y8804D02*
X20750Y8593D01*
X20540Y8804D02*
Y8880D01*
X22480Y10720D02*
X22556D01*
X22684Y10847D01*
X23792D01*
X16937Y9863D02*
X17709D01*
X21861Y14931D02*
Y15700D01*
X22325Y13692D02*
Y14055D01*
X28226Y15043D02*
X28245D01*
X17250Y10060D02*
X17709D01*
X20794Y14556D02*
X20947Y14403D01*
Y13692D02*
Y14403D01*
X20794Y14556D02*
Y15016D01*
X21306Y15685D02*
X21322Y15700D01*
X21861D01*
X20200Y15000D02*
X20779D01*
X20794Y15016D01*
X24893Y10993D02*
X25050D01*
X24551Y10650D02*
X24893Y10993D01*
X23792Y10650D02*
X24551D01*
X24893Y10008D02*
X25050D01*
X24448Y10454D02*
X24893Y10008D01*
X23792Y10454D02*
X24448D01*
X25050Y10993D02*
X25885D01*
X25050Y10008D02*
X25885D01*
X24998Y9000D02*
X25008D01*
X24530Y9469D02*
X24998Y9000D01*
X23792Y9469D02*
X24530D01*
X24998Y8450D02*
X25008D01*
X24930Y8519D02*
X24998Y8450D01*
X24930Y8519D02*
Y8529D01*
X24186Y9272D02*
X24930Y8529D01*
X23792Y9272D02*
X24186D01*
X25343Y9000D02*
X25878D01*
X25343Y8450D02*
X25878D01*
X18325Y11670D02*
X18370D01*
X18164Y11832D02*
X18325Y11670D01*
X17709Y11832D02*
X18164D01*
X18336Y12210D02*
X18340D01*
X18154Y12028D02*
X18336Y12210D01*
X17709Y12028D02*
X18154D01*
X18327Y10847D02*
X18940Y11460D01*
X17709Y10847D02*
X18327D01*
X18336Y10454D02*
X18550Y10240D01*
X17709Y10454D02*
X18336D01*
X18550Y9881D02*
Y10240D01*
X18535Y9866D02*
X18550Y9881D01*
X20947Y7609D02*
Y8197D01*
X25590Y14940D02*
X25600Y14930D01*
X19250Y10650D02*
X19550Y10950D01*
X17709Y10650D02*
X19250D01*
X20440Y14370D02*
X20750Y14060D01*
Y13692D02*
Y14060D01*
X19960Y14370D02*
X20440D01*
X19762Y14568D02*
X19960Y14370D01*
X19762Y14568D02*
Y15378D01*
X27810Y15050D02*
X28238D01*
X28245Y15043D01*
X20947Y8197D02*
X21250Y8500D01*
X21600D01*
X24540Y13023D02*
X24550Y13033D01*
X23802Y13023D02*
X24540D01*
X23792Y13013D02*
X23802Y13023D01*
X20485Y12466D02*
Y12531D01*
X20554Y12599D01*
Y13692D01*
D64*
X18109Y2892D02*
X18174D01*
X18864Y2203D01*
X19300D01*
X19788Y2690D01*
Y4100D01*
X18109Y3892D02*
X18167Y3950D01*
X18400D01*
X12161Y9469D02*
X15444D01*
X10000Y11630D02*
X12161Y9469D01*
X12528Y10502D02*
X16298D01*
X11000Y12030D02*
X12528Y10502D01*
X11500Y12140D02*
X12710Y10930D01*
X16380D01*
X10500Y11880D02*
X12301Y10079D01*
X10000Y11630D02*
Y13028D01*
X10500Y11880D02*
Y13028D01*
X11000Y12030D02*
Y13028D01*
X11500Y12140D02*
Y13028D01*
X27450Y11015D02*
Y11550D01*
Y12450D02*
Y12983D01*
X28245Y15043D02*
Y15560D01*
X29550Y13463D02*
Y14350D01*
X28245Y15043D02*
X28857D01*
X29550Y14350D01*
X38200Y18261D02*
Y18938D01*
Y19273D02*
X39126D01*
D67*
X14874Y12448D02*
D03*
X13325Y6463D02*
D03*
X12615Y2106D02*
D03*
X18109Y2892D02*
D03*
D68*
X14874Y12948D02*
D03*
Y13948D02*
D03*
X13325Y7963D02*
D03*
Y6963D02*
D03*
X12615Y3606D02*
D03*
Y2606D02*
D03*
X18109Y4392D02*
D03*
Y3392D02*
D03*
D69*
X14874Y13448D02*
D03*
Y14448D02*
D03*
X13325Y8463D02*
D03*
Y7463D02*
D03*
X12615Y4106D02*
D03*
Y3106D02*
D03*
X18109Y4892D02*
D03*
Y3892D02*
D03*
D70*
X20327Y1407D02*
D03*
X16534Y16402D02*
D03*
D71*
X20827Y1407D02*
D03*
X21827D02*
D03*
X18034Y16402D02*
D03*
X17034D02*
D03*
D72*
X21327Y1407D02*
D03*
X22327D02*
D03*
X18534Y16402D02*
D03*
X17534D02*
D03*
D73*
X40400Y26144D02*
D03*
X2756Y14567D02*
D03*
Y10630D02*
D03*
Y22441D02*
D03*
Y18504D02*
D03*
D74*
X40400Y25357D02*
D03*
X2756Y15355D02*
D03*
Y11418D02*
D03*
Y23229D02*
D03*
Y19292D02*
D03*
D75*
X23100Y17150D02*
D03*
X22100D02*
D03*
X21100D02*
D03*
D76*
X20100D02*
D03*
D77*
X12205Y20043D02*
D03*
Y24846D02*
D03*
X7481Y20043D02*
D03*
Y24846D02*
D03*
X20079Y20043D02*
D03*
Y24846D02*
D03*
X15355Y20043D02*
D03*
Y24846D02*
D03*
X23229D02*
D03*
Y20043D02*
D03*
X27953Y24846D02*
D03*
Y20043D02*
D03*
X35827D02*
D03*
Y24846D02*
D03*
X31103Y20043D02*
D03*
Y24846D02*
D03*
D78*
X9843Y19255D02*
D03*
X17717D02*
D03*
X25591D02*
D03*
X33465D02*
D03*
D79*
X24950Y16150D02*
D03*
D80*
X25450D02*
D03*
X25950D02*
D03*
X26450D02*
D03*
X26950D02*
D03*
X24950Y15650D02*
D03*
X25450D02*
D03*
X25950D02*
D03*
X26450D02*
D03*
X26950D02*
D03*
D81*
X7874Y30303D02*
D03*
X9843D02*
D03*
X17717D02*
D03*
X15748D02*
D03*
X23622D02*
D03*
X25591D02*
D03*
X31496D02*
D03*
X33465D02*
D03*
D82*
X11811D02*
D03*
X19685D02*
D03*
X27559D02*
D03*
X35433D02*
D03*
D83*
X3150Y30709D02*
D03*
X40158D02*
D03*
Y3150D02*
D03*
X3150D02*
D03*
D84*
X12059Y4963D02*
D03*
X18266Y767D02*
D03*
Y1675D02*
D03*
X25573Y1790D02*
D03*
Y2810D02*
D03*
X32524Y1475D02*
D03*
X32523Y3790D02*
D03*
X31377Y885D02*
D03*
Y4381D02*
D03*
X26224Y3790D02*
D03*
X25668D02*
D03*
X25078Y885D02*
D03*
X26224Y1475D02*
D03*
X13626D02*
D03*
X12479Y885D02*
D03*
X7327Y1475D02*
D03*
X6180Y885D02*
D03*
Y4381D02*
D03*
X7326Y3790D02*
D03*
X23588Y5355D02*
D03*
X22646Y5571D02*
D03*
X24339Y5950D02*
D03*
X25134Y6595D02*
D03*
X25160Y7626D02*
D03*
X22254Y18353D02*
D03*
X22955Y13054D02*
D03*
X23856Y15909D02*
D03*
X21500Y11845D02*
D03*
X25057Y13374D02*
D03*
X25174Y12116D02*
D03*
X22318Y12400D02*
D03*
X21659Y12430D02*
D03*
X28530Y12016D02*
D03*
X22239Y16139D02*
D03*
X22351Y9713D02*
D03*
X24500Y12080D02*
D03*
X22480Y10720D02*
D03*
X20540Y8880D02*
D03*
X2769Y26570D02*
D03*
X2770Y25031D02*
D03*
X2000Y25800D02*
D03*
X8000Y12589D02*
D03*
X27810Y15050D02*
D03*
X25590Y14940D02*
D03*
X29251Y11061D02*
D03*
X20485Y12466D02*
D03*
X18940Y11460D02*
D03*
X18535Y9866D02*
D03*
X18340Y12210D02*
D03*
X18370Y11670D02*
D03*
X17009Y11438D02*
D03*
X21735Y13050D02*
D03*
X32105Y13063D02*
D03*
X32100Y15400D02*
D03*
X33849Y32000D02*
D03*
X33080Y32001D02*
D03*
X33465Y32444D02*
D03*
X25975Y32000D02*
D03*
X25206Y32001D02*
D03*
X25591Y32444D02*
D03*
X18101Y32000D02*
D03*
X17332Y32001D02*
D03*
X17717Y32444D02*
D03*
X10235Y32005D02*
D03*
X9466Y32005D02*
D03*
X9851Y32449D02*
D03*
X41576Y21125D02*
D03*
X41576Y20376D02*
D03*
X39525Y20366D02*
D03*
X39525Y21125D02*
D03*
X5314Y22012D02*
D03*
X5693Y22451D02*
D03*
X5254Y22889D02*
D03*
X19762Y15378D02*
D03*
X25556Y11551D02*
D03*
X26515Y11431D02*
D03*
X26516Y9570D02*
D03*
X26946Y9001D02*
D03*
Y8451D02*
D03*
X28519Y9601D02*
D03*
X28684Y14413D02*
D03*
X29550Y17131D02*
D03*
X29989Y16692D02*
D03*
X29112Y16691D02*
D03*
X37762Y17139D02*
D03*
X38201Y16701D02*
D03*
X38432Y15850D02*
D03*
X39247Y12600D02*
D03*
Y13300D02*
D03*
X39501Y14047D02*
D03*
X39062Y14485D02*
D03*
X40700Y15550D02*
D03*
X21952Y19150D02*
D03*
X19000Y2819D02*
D03*
X15417Y6197D02*
D03*
X28015D02*
D03*
X34315D02*
D03*
X34740Y8739D02*
D03*
X34795Y10926D02*
D03*
X34790Y13063D02*
D03*
Y15400D02*
D03*
X35818Y32015D02*
D03*
X35049Y32016D02*
D03*
X35434Y32385D02*
D03*
X27560Y32385D02*
D03*
X27175Y32001D02*
D03*
X27944Y32000D02*
D03*
X19686Y32385D02*
D03*
X20070Y32000D02*
D03*
X19301Y32001D02*
D03*
X11801Y32444D02*
D03*
X11416Y32001D02*
D03*
X12185Y32000D02*
D03*
X9118Y6197D02*
D03*
X21600Y8500D02*
D03*
X19550Y10250D02*
D03*
Y10950D02*
D03*
D85*
X5595Y18080D02*
D03*
X4886D02*
D03*
X5593Y14225D02*
D03*
X4884D02*
D03*
X4546Y22450D02*
D03*
X5255D02*
D03*
D86*
X23792Y13013D02*
D03*
Y12816D02*
D03*
Y12619D02*
D03*
Y12422D02*
D03*
Y12225D02*
D03*
Y12028D02*
D03*
Y11832D02*
D03*
Y11635D02*
D03*
Y11438D02*
D03*
Y11241D02*
D03*
Y11044D02*
D03*
Y10847D02*
D03*
Y10650D02*
D03*
Y10454D02*
D03*
Y10257D02*
D03*
Y10060D02*
D03*
Y9863D02*
D03*
Y9666D02*
D03*
Y9469D02*
D03*
Y9272D02*
D03*
Y9076D02*
D03*
Y8879D02*
D03*
Y8682D02*
D03*
Y8485D02*
D03*
Y8288D02*
D03*
X17709D02*
D03*
Y8485D02*
D03*
Y8682D02*
D03*
Y8879D02*
D03*
Y9076D02*
D03*
Y9272D02*
D03*
Y9469D02*
D03*
Y9666D02*
D03*
Y9863D02*
D03*
Y10060D02*
D03*
Y10257D02*
D03*
Y10454D02*
D03*
Y10650D02*
D03*
Y10847D02*
D03*
Y11044D02*
D03*
Y11241D02*
D03*
Y11438D02*
D03*
Y11635D02*
D03*
Y11832D02*
D03*
Y12028D02*
D03*
Y12225D02*
D03*
Y12422D02*
D03*
Y12619D02*
D03*
Y12816D02*
D03*
Y13013D02*
D03*
D87*
X23113Y7609D02*
D03*
X22916D02*
D03*
X22719D02*
D03*
X22522D02*
D03*
X22325D02*
D03*
X22128D02*
D03*
X21932D02*
D03*
X21735D02*
D03*
X21538D02*
D03*
X21341D02*
D03*
X21144D02*
D03*
X20947D02*
D03*
X20750D02*
D03*
X20554D02*
D03*
X20357D02*
D03*
X20160D02*
D03*
X19963D02*
D03*
X19766D02*
D03*
X19569D02*
D03*
X19372D02*
D03*
X19176D02*
D03*
X18979D02*
D03*
X18782D02*
D03*
X18585D02*
D03*
X18388D02*
D03*
Y13692D02*
D03*
X18585D02*
D03*
X18782D02*
D03*
X18979D02*
D03*
X19176D02*
D03*
X19372D02*
D03*
X19569D02*
D03*
X19766D02*
D03*
X19963D02*
D03*
X20160D02*
D03*
X20357D02*
D03*
X20554D02*
D03*
X20750D02*
D03*
X20947D02*
D03*
X21144D02*
D03*
X21341D02*
D03*
X21538D02*
D03*
X21735D02*
D03*
X21932D02*
D03*
X22128D02*
D03*
X22325D02*
D03*
X22522D02*
D03*
X22719D02*
D03*
X22916D02*
D03*
X23113D02*
D03*
D88*
X25050Y10008D02*
D03*
Y10993D02*
D03*
D89*
X20794Y15016D02*
D03*
X21306D02*
D03*
X20794Y15685D02*
D03*
X21306D02*
D03*
D90*
X27450Y10286D02*
D03*
Y11015D02*
D03*
D91*
X26508Y8450D02*
D03*
X25878D02*
D03*
X26508Y9000D02*
D03*
X25878D02*
D03*
D92*
X39500Y18328D02*
D03*
X39874Y19273D02*
D03*
X39126D02*
D03*
D93*
X40326Y13989D02*
D03*
X41074D02*
D03*
Y15111D02*
D03*
X40700D02*
D03*
X40326D02*
D03*
D94*
X11500Y13028D02*
D03*
X11000D02*
D03*
X10500D02*
D03*
X10000D02*
D03*
X9500D02*
D03*
X9000D02*
D03*
X8500D02*
D03*
X8000D02*
D03*
X11500Y15173D02*
D03*
X11000D02*
D03*
X10500D02*
D03*
X10000D02*
D03*
X9500D02*
D03*
X9000D02*
D03*
X8500D02*
D03*
X8000D02*
D03*
D95*
X29550Y16692D02*
D03*
Y13463D02*
D03*
D96*
X38200Y17139D02*
D03*
Y18261D02*
D03*
D97*
X39500Y17504D02*
D03*
Y16697D02*
D03*
D98*
X6638Y15055D02*
X7760Y13934D01*
X6638Y19200D02*
X7481Y20043D01*
X6638Y15055D02*
Y19200D01*
X7760Y13934D02*
X11974D01*
X8227Y16182D02*
Y16489D01*
X8000Y15955D02*
X8227Y16182D01*
Y16489D02*
X8300Y16562D01*
X8000Y15173D02*
Y15955D01*
X8300Y17270D02*
Y19701D01*
X7959Y20043D02*
X8300Y19701D01*
X7481Y20043D02*
X7959D01*
X11974Y13934D02*
X15355Y17315D01*
X26219Y20043D02*
X27059Y19202D01*
X30262D02*
X31103Y20043D01*
X27059Y19202D02*
X30262D01*
X23229Y20043D02*
X26219D01*
X20569Y19109D02*
X21503Y20043D01*
X15355D02*
X18396D01*
X19329Y19109D01*
X20569D01*
X10500Y18213D02*
X10796Y18508D01*
Y21286D02*
X11440Y21930D01*
X10796Y18508D02*
Y21286D01*
X10500Y15173D02*
Y18213D01*
X11000Y17457D02*
X11449Y17906D01*
Y20679D02*
X11920Y21150D01*
X11449Y17906D02*
Y20679D01*
X11000Y15173D02*
Y17457D01*
X15355Y17315D02*
Y20043D01*
X31103D02*
X31103D01*
X21503D02*
X23229D01*
X11920Y21150D02*
X18972D01*
X20079Y20043D02*
X20079D01*
X18972Y21150D02*
X20079Y20043D01*
X8990Y17670D02*
X10000Y16660D01*
X8990Y20790D02*
X10820Y22620D01*
X8990Y17670D02*
Y20790D01*
X33250Y22620D02*
X35827Y20043D01*
X10820Y22620D02*
X33250D01*
X10000Y15173D02*
Y16660D01*
X26066Y21930D02*
X27953Y20043D01*
X11440Y21930D02*
X26066D01*
X11500Y15173D02*
Y15341D01*
X12205Y16045D01*
Y20043D01*
X26418Y13318D02*
X27450D01*
X25550Y12450D02*
X26418Y13318D01*
D99*
X22254Y18353D02*
X33957D01*
X37195Y15115D01*
X25174Y12116D02*
X25216D01*
X25550Y12450D01*
X37195Y15115D02*
X39500D01*
M02*
