G04*
G04 #@! TF.GenerationSoftware,Altium Limited,Altium Designer,20.1.14 (287)*
G04*
G04 Layer_Physical_Order=1*
G04 Layer_Color=16711680*
%FSLAX24Y24*%
%MOIN*%
G70*
G04*
G04 #@! TF.SameCoordinates,AE778498-3035-4F09-A21B-3D1CA2DCCC63*
G04*
G04*
G04 #@! TF.FilePolarity,Positive*
G04*
G01*
G75*
%ADD12C,0.0060*%
%ADD13R,0.0217X0.0236*%
%ADD14R,0.0236X0.0217*%
%ADD15R,0.0512X0.0610*%
%ADD16R,0.0610X0.0512*%
%ADD17R,0.0236X0.0252*%
%ADD18R,0.0252X0.0236*%
%ADD19C,0.0500*%
%ADD20R,0.0354X0.0335*%
%ADD21R,0.0335X0.0374*%
%ADD22R,0.0374X0.0335*%
%ADD23R,0.0335X0.0157*%
%ADD24R,0.0531X0.0394*%
%ADD25R,0.0453X0.1280*%
%ADD26R,0.1248X0.0299*%
%ADD27R,0.0335X0.0354*%
%ADD28R,0.0354X0.0374*%
%ADD62C,0.0150*%
%ADD63C,0.0118*%
%ADD64C,0.0120*%
%ADD65C,0.0500*%
%ADD66C,0.0300*%
%ADD67R,0.0552X0.0422*%
%ADD68O,0.0552X0.0422*%
G04:AMPARAMS|DCode=69|XSize=55.2mil|YSize=42.2mil|CornerRadius=21.1mil|HoleSize=0mil|Usage=FLASHONLY|Rotation=0.000|XOffset=0mil|YOffset=0mil|HoleType=Round|Shape=RoundedRectangle|*
%AMROUNDEDRECTD69*
21,1,0.0552,0.0000,0,0,0.0*
21,1,0.0130,0.0422,0,0,0.0*
1,1,0.0422,0.0065,0.0000*
1,1,0.0422,-0.0065,0.0000*
1,1,0.0422,-0.0065,0.0000*
1,1,0.0422,0.0065,0.0000*
%
%ADD69ROUNDEDRECTD69*%
%ADD70R,0.0422X0.0552*%
%ADD71O,0.0422X0.0552*%
G04:AMPARAMS|DCode=72|XSize=55.2mil|YSize=42.2mil|CornerRadius=21.1mil|HoleSize=0mil|Usage=FLASHONLY|Rotation=270.000|XOffset=0mil|YOffset=0mil|HoleType=Round|Shape=RoundedRectangle|*
%AMROUNDEDRECTD72*
21,1,0.0552,0.0000,0,0,270.0*
21,1,0.0130,0.0422,0,0,270.0*
1,1,0.0422,0.0000,-0.0065*
1,1,0.0422,0.0000,0.0065*
1,1,0.0422,0.0000,0.0065*
1,1,0.0422,0.0000,-0.0065*
%
%ADD72ROUNDEDRECTD72*%
%ADD73R,0.0591X0.0591*%
%ADD74C,0.0591*%
%ADD75C,0.0658*%
%ADD76R,0.0658X0.0658*%
%ADD77C,0.0712*%
%ADD78R,0.0712X0.0712*%
%ADD79R,0.0396X0.0396*%
%ADD80C,0.0396*%
%ADD81C,0.0650*%
%ADD82R,0.0650X0.0650*%
%ADD83C,0.2441*%
%ADD84C,0.0400*%
G36*
X43307Y33414D02*
X43307Y0D01*
X0Y0D01*
X0Y33430D01*
X36Y33465D01*
X43307Y33414D01*
D02*
G37*
%LPC*%
G36*
X9851Y32769D02*
X9768Y32759D01*
X9690Y32726D01*
X9624Y32675D01*
X9573Y32609D01*
X9541Y32532D01*
X9530Y32449D01*
X9540Y32370D01*
X9538Y32355D01*
X9529Y32341D01*
X9505Y32321D01*
X9466Y32326D01*
X9383Y32315D01*
X9305Y32283D01*
X9239Y32232D01*
X9188Y32166D01*
X9156Y32088D01*
X9145Y32005D01*
X9156Y31922D01*
X9188Y31845D01*
X9207Y31820D01*
X9182Y31770D01*
X8950D01*
X8904Y31761D01*
X8865Y31735D01*
X8839Y31696D01*
X8830Y31650D01*
Y18600D01*
X8839Y18554D01*
X8865Y18515D01*
X8904Y18489D01*
X8950Y18480D01*
X10650D01*
X10696Y18489D01*
X10735Y18515D01*
X10761Y18554D01*
X10770Y18600D01*
Y31650D01*
X10761Y31696D01*
X10735Y31735D01*
X10696Y31761D01*
X10650Y31770D01*
X10519D01*
X10495Y31820D01*
X10513Y31844D01*
X10545Y31921D01*
X10556Y32005D01*
X10545Y32088D01*
X10513Y32165D01*
X10462Y32231D01*
X10395Y32282D01*
X10318Y32314D01*
X10235Y32325D01*
X10196Y32320D01*
X10176Y32336D01*
X10163Y32355D01*
X10161Y32370D01*
X10171Y32449D01*
X10161Y32532D01*
X10128Y32609D01*
X10077Y32675D01*
X10011Y32726D01*
X9934Y32759D01*
X9851Y32769D01*
D02*
G37*
G36*
X33465Y32765D02*
X33382Y32754D01*
X33305Y32722D01*
X33238Y32671D01*
X33187Y32605D01*
X33155Y32527D01*
X33144Y32444D01*
X33155Y32365D01*
X33153Y32350D01*
X33143Y32337D01*
X33120Y32316D01*
X33080Y32322D01*
X32997Y32311D01*
X32920Y32279D01*
X32853Y32228D01*
X32802Y32161D01*
X32770Y32084D01*
X32759Y32001D01*
X32770Y31918D01*
X32802Y31840D01*
X32818Y31820D01*
X32793Y31770D01*
X32572D01*
X32526Y31761D01*
X32487Y31735D01*
X32461Y31696D01*
X32452Y31650D01*
Y18600D01*
X32461Y18554D01*
X32487Y18515D01*
X32526Y18489D01*
X32572Y18480D01*
X34272D01*
X34318Y18489D01*
X34357Y18515D01*
X34383Y18554D01*
X34392Y18600D01*
Y31650D01*
X34383Y31696D01*
X34357Y31735D01*
X34318Y31761D01*
X34272Y31770D01*
X34137D01*
X34112Y31820D01*
X34127Y31840D01*
X34159Y31917D01*
X34170Y32000D01*
X34159Y32083D01*
X34127Y32161D01*
X34076Y32227D01*
X34010Y32278D01*
X33932Y32310D01*
X33849Y32321D01*
X33810Y32316D01*
X33790Y32331D01*
X33778Y32350D01*
X33776Y32365D01*
X33786Y32444D01*
X33775Y32527D01*
X33743Y32605D01*
X33692Y32671D01*
X33626Y32722D01*
X33548Y32754D01*
X33465Y32765D01*
D02*
G37*
G36*
X25591D02*
X25508Y32754D01*
X25431Y32722D01*
X25364Y32671D01*
X25313Y32605D01*
X25281Y32527D01*
X25270Y32444D01*
X25281Y32365D01*
X25279Y32350D01*
X25269Y32337D01*
X25246Y32316D01*
X25206Y32322D01*
X25123Y32311D01*
X25046Y32279D01*
X24979Y32228D01*
X24928Y32161D01*
X24896Y32084D01*
X24885Y32001D01*
X24896Y31918D01*
X24928Y31840D01*
X24944Y31820D01*
X24919Y31770D01*
X24698D01*
X24652Y31761D01*
X24613Y31735D01*
X24587Y31696D01*
X24578Y31650D01*
Y18600D01*
X24587Y18554D01*
X24613Y18515D01*
X24652Y18489D01*
X24698Y18480D01*
X26398D01*
X26444Y18489D01*
X26483Y18515D01*
X26509Y18554D01*
X26518Y18600D01*
Y31650D01*
X26509Y31696D01*
X26483Y31735D01*
X26444Y31761D01*
X26398Y31770D01*
X26263D01*
X26238Y31820D01*
X26253Y31840D01*
X26285Y31917D01*
X26296Y32000D01*
X26285Y32083D01*
X26253Y32161D01*
X26202Y32227D01*
X26136Y32278D01*
X26058Y32310D01*
X25975Y32321D01*
X25936Y32316D01*
X25916Y32331D01*
X25904Y32350D01*
X25902Y32365D01*
X25912Y32444D01*
X25901Y32527D01*
X25869Y32605D01*
X25818Y32671D01*
X25752Y32722D01*
X25674Y32754D01*
X25591Y32765D01*
D02*
G37*
G36*
X17717D02*
X17634Y32754D01*
X17557Y32722D01*
X17490Y32671D01*
X17439Y32605D01*
X17407Y32527D01*
X17396Y32444D01*
X17407Y32365D01*
X17405Y32350D01*
X17395Y32337D01*
X17372Y32316D01*
X17332Y32322D01*
X17249Y32311D01*
X17172Y32279D01*
X17105Y32228D01*
X17054Y32161D01*
X17022Y32084D01*
X17011Y32001D01*
X17022Y31918D01*
X17054Y31840D01*
X17070Y31820D01*
X17045Y31770D01*
X16824D01*
X16778Y31761D01*
X16739Y31735D01*
X16713Y31696D01*
X16704Y31650D01*
Y18600D01*
X16713Y18554D01*
X16739Y18515D01*
X16778Y18489D01*
X16824Y18480D01*
X18524D01*
X18570Y18489D01*
X18609Y18515D01*
X18635Y18554D01*
X18644Y18600D01*
Y31650D01*
X18635Y31696D01*
X18609Y31735D01*
X18570Y31761D01*
X18524Y31770D01*
X18389D01*
X18364Y31820D01*
X18379Y31840D01*
X18411Y31917D01*
X18422Y32000D01*
X18411Y32083D01*
X18379Y32161D01*
X18328Y32227D01*
X18262Y32278D01*
X18184Y32310D01*
X18101Y32321D01*
X18062Y32316D01*
X18042Y32331D01*
X18030Y32350D01*
X18028Y32365D01*
X18038Y32444D01*
X18027Y32527D01*
X17995Y32605D01*
X17944Y32671D01*
X17878Y32722D01*
X17800Y32754D01*
X17717Y32765D01*
D02*
G37*
G36*
X40158Y32052D02*
X39948Y32035D01*
X39743Y31986D01*
X39548Y31905D01*
X39369Y31795D01*
X39208Y31658D01*
X39072Y31498D01*
X38962Y31319D01*
X38881Y31124D01*
X38832Y30919D01*
X38815Y30709D01*
X38832Y30499D01*
X38881Y30294D01*
X38962Y30099D01*
X39072Y29920D01*
X39208Y29760D01*
X39369Y29623D01*
X39548Y29513D01*
X39743Y29432D01*
X39948Y29383D01*
X40158Y29366D01*
X40368Y29383D01*
X40573Y29432D01*
X40767Y29513D01*
X40947Y29623D01*
X41107Y29760D01*
X41244Y29920D01*
X41354Y30099D01*
X41435Y30294D01*
X41484Y30499D01*
X41501Y30709D01*
X41484Y30919D01*
X41435Y31124D01*
X41354Y31319D01*
X41244Y31498D01*
X41107Y31658D01*
X40947Y31795D01*
X40767Y31905D01*
X40573Y31986D01*
X40368Y32035D01*
X40158Y32052D01*
D02*
G37*
G36*
X3150D02*
X2940Y32035D01*
X2735Y31986D01*
X2540Y31905D01*
X2361Y31795D01*
X2201Y31658D01*
X2064Y31498D01*
X1954Y31319D01*
X1873Y31124D01*
X1824Y30919D01*
X1807Y30709D01*
X1824Y30499D01*
X1873Y30294D01*
X1954Y30099D01*
X2064Y29920D01*
X2201Y29760D01*
X2361Y29623D01*
X2540Y29513D01*
X2735Y29432D01*
X2940Y29383D01*
X3150Y29366D01*
X3360Y29383D01*
X3565Y29432D01*
X3760Y29513D01*
X3939Y29623D01*
X4099Y29760D01*
X4236Y29920D01*
X4346Y30099D01*
X4427Y30294D01*
X4476Y30499D01*
X4493Y30709D01*
X4476Y30919D01*
X4427Y31124D01*
X4346Y31319D01*
X4236Y31498D01*
X4099Y31658D01*
X3939Y31795D01*
X3760Y31905D01*
X3565Y31986D01*
X3360Y32035D01*
X3150Y32052D01*
D02*
G37*
G36*
X2769Y26941D02*
X2673Y26928D01*
X2584Y26891D01*
X2507Y26832D01*
X2448Y26755D01*
X2411Y26666D01*
X2398Y26570D01*
Y26172D01*
X2000D01*
X1904Y26159D01*
X1814Y26122D01*
X1737Y26063D01*
X1678Y25986D01*
X1641Y25896D01*
X1629Y25800D01*
Y25800D01*
X1641Y25704D01*
X1678Y25614D01*
X1737Y25537D01*
X1814Y25478D01*
X1904Y25441D01*
X2000Y25429D01*
X2003Y25429D01*
X2398D01*
Y25031D01*
X2411Y24935D01*
X2448Y24845D01*
X2507Y24769D01*
X2584Y24710D01*
X2673Y24672D01*
X2769Y24660D01*
X2865Y24672D01*
X2955Y24710D01*
X3032Y24769D01*
X3091Y24845D01*
X3128Y24935D01*
X3141Y25031D01*
Y25800D01*
Y26570D01*
X3128Y26666D01*
X3091Y26755D01*
X3032Y26832D01*
X2955Y26891D01*
X2865Y26928D01*
X2769Y26941D01*
D02*
G37*
G36*
X36549Y31766D02*
X34749D01*
X34703Y31757D01*
X34664Y31731D01*
X34638Y31692D01*
X34628Y31646D01*
X34628Y23996D01*
X34638Y23950D01*
X34664Y23911D01*
X34703Y23885D01*
X34749Y23876D01*
X36549D01*
X36595Y23885D01*
X36634Y23911D01*
X36660Y23950D01*
X36669Y23996D01*
X36669Y31646D01*
X36660Y31692D01*
X36634Y31731D01*
X36595Y31757D01*
X36549Y31766D01*
D02*
G37*
G36*
X28675D02*
X26875D01*
X26829Y31757D01*
X26790Y31731D01*
X26764Y31692D01*
X26754Y31646D01*
X26754Y23996D01*
X26764Y23950D01*
X26790Y23911D01*
X26829Y23885D01*
X26875Y23876D01*
X28675D01*
X28721Y23885D01*
X28760Y23911D01*
X28786Y23950D01*
X28795Y23996D01*
X28795Y31646D01*
X28786Y31692D01*
X28760Y31731D01*
X28721Y31757D01*
X28675Y31766D01*
D02*
G37*
G36*
X20801D02*
X19001D01*
X18955Y31757D01*
X18916Y31731D01*
X18890Y31692D01*
X18880Y31646D01*
X18880Y23996D01*
X18890Y23950D01*
X18916Y23911D01*
X18955Y23885D01*
X19001Y23876D01*
X20801D01*
X20847Y23885D01*
X20886Y23911D01*
X20912Y23950D01*
X20921Y23996D01*
X20921Y31646D01*
X20912Y31692D01*
X20886Y31731D01*
X20847Y31757D01*
X20801Y31766D01*
D02*
G37*
G36*
X12927D02*
X11127D01*
X11081Y31757D01*
X11042Y31731D01*
X11016Y31692D01*
X11006Y31646D01*
X11006Y23996D01*
X11016Y23950D01*
X11042Y23911D01*
X11081Y23885D01*
X11127Y23876D01*
X12927D01*
X12973Y23885D01*
X13012Y23911D01*
X13038Y23950D01*
X13047Y23996D01*
X13047Y31646D01*
X13038Y31692D01*
X13012Y31731D01*
X12973Y31757D01*
X12927Y31766D01*
D02*
G37*
G36*
X32072Y31720D02*
X30272D01*
X30226Y31711D01*
X30187Y31685D01*
X30161Y31646D01*
X30152Y31600D01*
X30152Y23950D01*
X30161Y23904D01*
X30187Y23865D01*
X30226Y23839D01*
X30272Y23830D01*
X32072D01*
X32118Y23839D01*
X32157Y23865D01*
X32183Y23904D01*
X32192Y23950D01*
X32192Y31600D01*
X32183Y31646D01*
X32157Y31685D01*
X32118Y31711D01*
X32072Y31720D01*
D02*
G37*
G36*
X24198D02*
X22398D01*
X22352Y31711D01*
X22313Y31685D01*
X22287Y31646D01*
X22278Y31600D01*
X22278Y23950D01*
X22287Y23904D01*
X22313Y23865D01*
X22352Y23839D01*
X22398Y23830D01*
X24198D01*
X24244Y23839D01*
X24283Y23865D01*
X24309Y23904D01*
X24318Y23950D01*
X24318Y31600D01*
X24309Y31646D01*
X24283Y31685D01*
X24244Y31711D01*
X24198Y31720D01*
D02*
G37*
G36*
X16324D02*
X14524D01*
X14478Y31711D01*
X14439Y31685D01*
X14413Y31646D01*
X14404Y31600D01*
X14404Y23950D01*
X14413Y23904D01*
X14439Y23865D01*
X14478Y23839D01*
X14524Y23830D01*
X16324D01*
X16370Y23839D01*
X16409Y23865D01*
X16435Y23904D01*
X16444Y23950D01*
X16444Y31600D01*
X16435Y31646D01*
X16409Y31685D01*
X16370Y31711D01*
X16324Y31720D01*
D02*
G37*
G36*
X8450D02*
X6650D01*
X6604Y31711D01*
X6565Y31685D01*
X6539Y31646D01*
X6530Y31600D01*
X6530Y23950D01*
X6539Y23904D01*
X6565Y23865D01*
X6604Y23839D01*
X6650Y23830D01*
X8450D01*
X8496Y23839D01*
X8535Y23865D01*
X8561Y23904D01*
X8570Y23950D01*
X8570Y31600D01*
X8561Y31646D01*
X8535Y31685D01*
X8496Y31711D01*
X8450Y31720D01*
D02*
G37*
G36*
X40814Y26557D02*
X39987D01*
Y25820D01*
X38450D01*
X38404Y25811D01*
X38365Y25785D01*
X38339Y25746D01*
X38330Y25700D01*
Y22715D01*
X37572Y21958D01*
X37533Y21899D01*
X37519Y21830D01*
Y20539D01*
X33711Y16731D01*
X32100D01*
X32031Y16717D01*
X31972Y16678D01*
X29099Y13805D01*
X25307D01*
X25237Y13791D01*
X25179Y13752D01*
X25114Y13687D01*
X25057Y13695D01*
X24973Y13684D01*
X24896Y13652D01*
X24830Y13601D01*
X24779Y13534D01*
X24747Y13457D01*
X24736Y13374D01*
X24747Y13291D01*
X24779Y13213D01*
X24830Y13147D01*
X24833Y13144D01*
X24817Y13094D01*
X23270D01*
X23265Y13137D01*
X23233Y13214D01*
X23182Y13281D01*
X23115Y13332D01*
X23038Y13364D01*
X22975Y13372D01*
X22955Y13423D01*
X23438Y13906D01*
X27759D01*
X27828Y13920D01*
X27887Y13959D01*
X28435Y14507D01*
X28474Y14566D01*
X28488Y14635D01*
Y16123D01*
X28474Y16192D01*
X28435Y16250D01*
X27441Y17245D01*
X27382Y17284D01*
X27313Y17298D01*
X26497D01*
X26428Y17284D01*
X26369Y17245D01*
X25823Y16698D01*
X25784Y16640D01*
X25770Y16570D01*
Y16410D01*
X25725Y16376D01*
X25676D01*
X25631Y16410D01*
Y16660D01*
X25617Y16729D01*
X25578Y16788D01*
X25321Y17045D01*
X25263Y17084D01*
X25193Y17098D01*
X24189D01*
X24120Y17084D01*
X24061Y17045D01*
X23307Y16291D01*
X23268Y16233D01*
X23254Y16163D01*
Y16020D01*
X21622Y14388D01*
X21583Y14329D01*
X21569Y14260D01*
Y13324D01*
X21508Y13277D01*
X21457Y13210D01*
X21425Y13133D01*
X21414Y13050D01*
X21425Y12967D01*
X21457Y12890D01*
X21508Y12823D01*
X21556Y12786D01*
X21553Y12732D01*
X21551Y12730D01*
X21498Y12708D01*
X21432Y12657D01*
X21381Y12590D01*
X21349Y12513D01*
X21338Y12430D01*
X21349Y12347D01*
X21381Y12269D01*
X21429Y12207D01*
X21425Y12180D01*
X21414Y12154D01*
X21340Y12123D01*
X21274Y12072D01*
X21223Y12006D01*
X21190Y11928D01*
X21180Y11845D01*
X21190Y11762D01*
X21223Y11685D01*
X21230Y11676D01*
X21208Y11631D01*
X21195D01*
Y11060D01*
X21806D01*
Y11165D01*
X21895D01*
Y11060D01*
X22506D01*
Y11165D01*
X22605D01*
Y11060D01*
X23196D01*
Y11164D01*
X24404D01*
X24473Y11178D01*
X24532Y11217D01*
X25118Y11802D01*
X25174Y11795D01*
X25257Y11806D01*
X25335Y11838D01*
X25401Y11889D01*
X25452Y11955D01*
X25484Y12033D01*
X25495Y12116D01*
X25484Y12199D01*
X25452Y12276D01*
X25401Y12343D01*
X25386Y12354D01*
X25403Y12404D01*
X29601D01*
X32314Y9690D01*
Y9034D01*
X32209D01*
Y8444D01*
X32770D01*
X32780Y8444D01*
X32820D01*
X32830Y8444D01*
X33391D01*
Y8557D01*
X33450D01*
Y8434D01*
X34040D01*
Y9044D01*
X33450D01*
Y8921D01*
X33391D01*
Y9034D01*
X32830D01*
X32820Y9034D01*
X32780D01*
X32770Y9034D01*
X32676D01*
Y9765D01*
X32662Y9834D01*
X32623Y9893D01*
X29833Y12683D01*
X29853Y12733D01*
X30498D01*
X32265Y10966D01*
Y10631D01*
X32825D01*
X32835Y10631D01*
X32875D01*
X32885Y10631D01*
X33446D01*
Y10744D01*
X33505D01*
Y10621D01*
X34095D01*
Y11231D01*
X33505D01*
Y11108D01*
X33446D01*
Y11221D01*
X32885D01*
X32875Y11221D01*
X32835D01*
X32825Y11221D01*
X32520D01*
X30700Y13041D01*
X30642Y13080D01*
X30572Y13094D01*
X25297D01*
X25280Y13144D01*
X25283Y13147D01*
X25334Y13213D01*
X25366Y13291D01*
X25377Y13374D01*
X25374Y13396D01*
X25416Y13443D01*
X29174D01*
X29243Y13457D01*
X29302Y13496D01*
X32175Y16369D01*
X33786D01*
X33855Y16383D01*
X33914Y16422D01*
X37828Y20336D01*
X37867Y20395D01*
X37881Y20464D01*
Y21755D01*
X38299Y22173D01*
X38363Y22167D01*
X38365Y22165D01*
X38404Y22139D01*
X38450Y22130D01*
X42600D01*
X42646Y22139D01*
X42685Y22165D01*
X42711Y22204D01*
X42720Y22250D01*
Y25700D01*
X42711Y25746D01*
X42685Y25785D01*
X42646Y25811D01*
X42600Y25820D01*
X40814D01*
Y26557D01*
D02*
G37*
G36*
X2756Y23646D02*
X2648Y23631D01*
X2548Y23590D01*
X2461Y23524D01*
X2395Y23437D01*
X2354Y23337D01*
X2339Y23229D01*
X2354Y23121D01*
X2395Y23020D01*
X2461Y22934D01*
X2500Y22905D01*
X2483Y22855D01*
X2343D01*
Y22028D01*
X3170D01*
Y22855D01*
X3030D01*
X3013Y22905D01*
X3051Y22934D01*
X3117Y23020D01*
X3159Y23121D01*
X3173Y23229D01*
X3159Y23337D01*
X3117Y23437D01*
X3051Y23524D01*
X2965Y23590D01*
X2864Y23631D01*
X2756Y23646D01*
D02*
G37*
G36*
X41576Y21446D02*
X41493Y21435D01*
X41416Y21403D01*
X41349Y21352D01*
X41298Y21286D01*
X41266Y21208D01*
X41255Y21125D01*
X41263Y21068D01*
X41227Y21018D01*
X40834D01*
Y20483D01*
X41226D01*
X41262Y20433D01*
X41255Y20376D01*
X41266Y20293D01*
X41298Y20215D01*
X41349Y20149D01*
X41415Y20098D01*
X41493Y20066D01*
X41576Y20055D01*
X41659Y20066D01*
X41736Y20098D01*
X41803Y20149D01*
X41854Y20215D01*
X41886Y20293D01*
X41897Y20376D01*
X41889Y20433D01*
X41925Y20483D01*
X42318D01*
Y21018D01*
X41926D01*
X41890Y21068D01*
X41897Y21125D01*
X41886Y21208D01*
X41854Y21286D01*
X41803Y21352D01*
X41737Y21403D01*
X41659Y21435D01*
X41576Y21446D01*
D02*
G37*
G36*
X39525D02*
X39442Y21435D01*
X39365Y21403D01*
X39298Y21352D01*
X39247Y21286D01*
X39215Y21208D01*
X39204Y21125D01*
X39212Y21068D01*
X39176Y21018D01*
X38783D01*
Y20483D01*
X39181D01*
X39213Y20433D01*
X39204Y20366D01*
X39215Y20283D01*
X39247Y20206D01*
X39298Y20139D01*
X39364Y20088D01*
X39442Y20056D01*
X39525Y20045D01*
X39608Y20056D01*
X39685Y20088D01*
X39751Y20139D01*
X39802Y20206D01*
X39835Y20283D01*
X39845Y20366D01*
X39837Y20433D01*
X39868Y20483D01*
X40267D01*
Y21018D01*
X39874D01*
X39838Y21068D01*
X39846Y21125D01*
X39835Y21208D01*
X39803Y21286D01*
X39752Y21352D01*
X39685Y21403D01*
X39608Y21435D01*
X39525Y21446D01*
D02*
G37*
G36*
X35827Y20521D02*
X35703Y20504D01*
X35588Y20457D01*
X35489Y20381D01*
X35413Y20282D01*
X35365Y20166D01*
X35349Y20043D01*
X35365Y19919D01*
X35413Y19803D01*
X35489Y19704D01*
X35588Y19628D01*
X35703Y19581D01*
X35827Y19564D01*
X35951Y19581D01*
X36066Y19628D01*
X36165Y19704D01*
X36241Y19803D01*
X36289Y19919D01*
X36305Y20043D01*
X36289Y20166D01*
X36241Y20282D01*
X36165Y20381D01*
X36066Y20457D01*
X35951Y20504D01*
X35827Y20521D01*
D02*
G37*
G36*
X31103D02*
X30979Y20504D01*
X30864Y20457D01*
X30765Y20381D01*
X30689Y20282D01*
X30641Y20166D01*
X30625Y20043D01*
X30641Y19919D01*
X30689Y19803D01*
X30765Y19704D01*
X30864Y19628D01*
X30979Y19581D01*
X31103Y19564D01*
X31226Y19581D01*
X31342Y19628D01*
X31441Y19704D01*
X31517Y19803D01*
X31565Y19919D01*
X31581Y20043D01*
X31565Y20166D01*
X31517Y20282D01*
X31441Y20381D01*
X31342Y20457D01*
X31226Y20504D01*
X31103Y20521D01*
D02*
G37*
G36*
X27953D02*
X27829Y20504D01*
X27714Y20457D01*
X27615Y20381D01*
X27539Y20282D01*
X27491Y20166D01*
X27475Y20043D01*
X27491Y19919D01*
X27539Y19803D01*
X27615Y19704D01*
X27714Y19628D01*
X27829Y19581D01*
X27953Y19564D01*
X28077Y19581D01*
X28192Y19628D01*
X28291Y19704D01*
X28367Y19803D01*
X28415Y19919D01*
X28431Y20043D01*
X28415Y20166D01*
X28367Y20282D01*
X28291Y20381D01*
X28192Y20457D01*
X28077Y20504D01*
X27953Y20521D01*
D02*
G37*
G36*
X23229D02*
X23105Y20504D01*
X22990Y20457D01*
X22891Y20381D01*
X22815Y20282D01*
X22767Y20166D01*
X22751Y20043D01*
X22767Y19919D01*
X22815Y19803D01*
X22891Y19704D01*
X22990Y19628D01*
X23105Y19581D01*
X23229Y19564D01*
X23352Y19581D01*
X23468Y19628D01*
X23567Y19704D01*
X23643Y19803D01*
X23691Y19919D01*
X23707Y20043D01*
X23691Y20166D01*
X23643Y20282D01*
X23567Y20381D01*
X23468Y20457D01*
X23352Y20504D01*
X23229Y20521D01*
D02*
G37*
G36*
X20079D02*
X19955Y20504D01*
X19840Y20457D01*
X19741Y20381D01*
X19665Y20282D01*
X19617Y20166D01*
X19601Y20043D01*
X19617Y19919D01*
X19665Y19803D01*
X19741Y19704D01*
X19840Y19628D01*
X19955Y19581D01*
X20079Y19564D01*
X20203Y19581D01*
X20318Y19628D01*
X20417Y19704D01*
X20493Y19803D01*
X20541Y19919D01*
X20557Y20043D01*
X20541Y20166D01*
X20493Y20282D01*
X20417Y20381D01*
X20318Y20457D01*
X20203Y20504D01*
X20079Y20521D01*
D02*
G37*
G36*
X15355D02*
X15231Y20504D01*
X15116Y20457D01*
X15017Y20381D01*
X14941Y20282D01*
X14893Y20166D01*
X14877Y20043D01*
X14893Y19919D01*
X14941Y19803D01*
X15017Y19704D01*
X15116Y19628D01*
X15231Y19581D01*
X15355Y19564D01*
X15478Y19581D01*
X15594Y19628D01*
X15693Y19704D01*
X15769Y19803D01*
X15817Y19919D01*
X15833Y20043D01*
X15817Y20166D01*
X15769Y20282D01*
X15693Y20381D01*
X15594Y20457D01*
X15478Y20504D01*
X15355Y20521D01*
D02*
G37*
G36*
X12205D02*
X12081Y20504D01*
X11966Y20457D01*
X11867Y20381D01*
X11791Y20282D01*
X11743Y20166D01*
X11727Y20043D01*
X11743Y19919D01*
X11791Y19803D01*
X11867Y19704D01*
X11966Y19628D01*
X12081Y19581D01*
X12205Y19564D01*
X12329Y19581D01*
X12444Y19628D01*
X12543Y19704D01*
X12619Y19803D01*
X12667Y19919D01*
X12683Y20043D01*
X12667Y20166D01*
X12619Y20282D01*
X12543Y20381D01*
X12444Y20457D01*
X12329Y20504D01*
X12205Y20521D01*
D02*
G37*
G36*
X5476Y26558D02*
X4787D01*
Y25043D01*
X4861D01*
Y24439D01*
X4861Y24439D01*
X4866Y24404D01*
X4870Y24369D01*
X4897Y24303D01*
X4940Y24247D01*
X7210Y21977D01*
Y20433D01*
X7143Y20381D01*
X7067Y20282D01*
X7019Y20166D01*
X7003Y20043D01*
X7019Y19919D01*
X7067Y19803D01*
X7143Y19704D01*
X7242Y19628D01*
X7357Y19581D01*
X7481Y19564D01*
X7604Y19581D01*
X7720Y19628D01*
X7819Y19704D01*
X7895Y19803D01*
X7943Y19919D01*
X7959Y20043D01*
X7943Y20166D01*
X7895Y20282D01*
X7819Y20381D01*
X7751Y20433D01*
Y22089D01*
X7751Y22089D01*
X7742Y22159D01*
X7715Y22225D01*
X7672Y22281D01*
X5402Y24551D01*
Y25043D01*
X5476D01*
Y26558D01*
D02*
G37*
G36*
X21469Y19377D02*
X20997D01*
Y18924D01*
X21051D01*
Y18747D01*
X20915D01*
Y18732D01*
X20854D01*
Y18777D01*
X20047D01*
Y18741D01*
X19860D01*
X19791Y18727D01*
X19732Y18688D01*
X19079Y18034D01*
X19040Y17976D01*
X19026Y17907D01*
Y15945D01*
X17197Y14116D01*
X17158Y14057D01*
X17145Y13988D01*
Y11829D01*
X17067Y11751D01*
X17009Y11759D01*
X16926Y11748D01*
X16849Y11716D01*
X16782Y11665D01*
X16731Y11598D01*
X16699Y11521D01*
X16688Y11438D01*
X16699Y11355D01*
X16731Y11277D01*
X16782Y11211D01*
X16849Y11160D01*
X16926Y11128D01*
X17009Y11117D01*
X17092Y11128D01*
X17169Y11160D01*
X17236Y11211D01*
X17287Y11277D01*
X17319Y11355D01*
X17330Y11438D01*
X17322Y11496D01*
X17453Y11626D01*
X17492Y11685D01*
X17506Y11754D01*
Y13914D01*
X19334Y15742D01*
X19373Y15801D01*
X19387Y15870D01*
Y17832D01*
X19935Y18379D01*
X20047D01*
Y18324D01*
X20854D01*
Y18324D01*
X20865Y18331D01*
X20915Y18305D01*
Y17960D01*
X20969D01*
Y17580D01*
X20875Y17541D01*
X20781Y17469D01*
X20710Y17376D01*
X20665Y17267D01*
X20649Y17150D01*
X20665Y17034D01*
X20710Y16925D01*
X20781Y16831D01*
X20875Y16760D01*
X20984Y16715D01*
X21100Y16699D01*
X21217Y16715D01*
X21326Y16760D01*
X21419Y16831D01*
X21491Y16925D01*
X21536Y17034D01*
X21551Y17150D01*
X21536Y17267D01*
X21491Y17376D01*
X21419Y17469D01*
X21332Y17536D01*
Y17793D01*
X21378Y17812D01*
X21425Y17765D01*
X21484Y17726D01*
X21553Y17712D01*
X22341D01*
X22361Y17666D01*
X22262Y17568D01*
X22217Y17586D01*
X22100Y17601D01*
X21984Y17586D01*
X21875Y17541D01*
X21781Y17469D01*
X21710Y17376D01*
X21665Y17267D01*
X21649Y17150D01*
X21665Y17034D01*
X21683Y16989D01*
X20923Y16228D01*
X20883Y16169D01*
X20870Y16100D01*
Y15645D01*
X18212Y12988D01*
X18173Y12929D01*
X18159Y12860D01*
Y12472D01*
X18113Y12437D01*
X18062Y12370D01*
X18030Y12293D01*
X18019Y12210D01*
X18030Y12127D01*
X18062Y12050D01*
X18113Y11983D01*
X18143Y11960D01*
Y11897D01*
X18143Y11897D01*
X18092Y11830D01*
X18060Y11753D01*
X18049Y11670D01*
X18060Y11587D01*
X18092Y11510D01*
X18143Y11443D01*
X18210Y11392D01*
X18287Y11360D01*
X18370Y11349D01*
X18453Y11360D01*
X18518Y11387D01*
X18546Y11344D01*
X18489Y11287D01*
X18468Y11256D01*
X18250D01*
Y10645D01*
X18821D01*
Y11024D01*
X18825Y11043D01*
Y11066D01*
X18903Y11144D01*
X18940Y11139D01*
X19023Y11150D01*
X19100Y11182D01*
X19167Y11233D01*
X19218Y11300D01*
X19250Y11377D01*
X19252Y11389D01*
X20058Y12196D01*
X20214D01*
Y9056D01*
X20181Y8976D01*
X20169Y8880D01*
X20181Y8784D01*
X20218Y8694D01*
X20277Y8617D01*
X20300Y8600D01*
Y8195D01*
X20871D01*
Y8645D01*
X21567Y9341D01*
X25013D01*
X25109Y9354D01*
X25198Y9391D01*
X25275Y9450D01*
X26084Y10259D01*
X28819D01*
X28915Y10271D01*
X29005Y10308D01*
X29082Y10367D01*
X29513Y10799D01*
X29572Y10876D01*
X29609Y10965D01*
X29622Y11061D01*
X29609Y11158D01*
X29572Y11247D01*
X29546Y11281D01*
X29572Y11315D01*
X29609Y11404D01*
X29622Y11500D01*
X29609Y11596D01*
X29572Y11686D01*
X29513Y11763D01*
X29436Y11822D01*
X29346Y11859D01*
X29250Y11872D01*
X29154Y11859D01*
X29065Y11822D01*
X28988Y11763D01*
X28929Y11686D01*
X28892Y11596D01*
X28879Y11500D01*
X28892Y11404D01*
X28929Y11315D01*
X28951Y11286D01*
X28666Y11001D01*
X25930D01*
X25834Y10989D01*
X25744Y10952D01*
X25667Y10893D01*
X24859Y10084D01*
X23206D01*
Y10371D01*
X22595D01*
Y10084D01*
X21413D01*
X21317Y10071D01*
X21228Y10034D01*
X21151Y9975D01*
X21003Y9827D01*
X20957Y9847D01*
Y12365D01*
X20944Y12461D01*
X20907Y12551D01*
X20848Y12628D01*
X20771Y12705D01*
Y13156D01*
X20200D01*
Y12736D01*
X19946D01*
X19876Y12727D01*
X19811Y12700D01*
X19755Y12657D01*
X18869Y11772D01*
X18857Y11770D01*
X18780Y11738D01*
X18778Y11737D01*
X18723Y11757D01*
X18721Y11766D01*
X19653Y12698D01*
X19693Y12757D01*
X19706Y12826D01*
Y13074D01*
X21659Y15027D01*
X21900D01*
X21969Y15041D01*
X22028Y15080D01*
X23228Y16280D01*
X23267Y16339D01*
X23281Y16408D01*
Y16741D01*
X23326Y16760D01*
X23419Y16831D01*
X23491Y16925D01*
X23536Y17034D01*
X23537Y17043D01*
X23607D01*
X23676Y17057D01*
X23734Y17096D01*
X23902Y17264D01*
X23941Y17322D01*
X23955Y17392D01*
Y17729D01*
X24001D01*
Y18064D01*
Y18536D01*
X23548D01*
Y18483D01*
X23374D01*
Y18540D01*
X22921D01*
Y18485D01*
X22836D01*
X22767Y18471D01*
X22708Y18432D01*
X22621Y18344D01*
X22573Y18368D01*
X22564Y18436D01*
X22532Y18514D01*
X22481Y18580D01*
X22415Y18631D01*
X22337Y18663D01*
X22254Y18674D01*
X22171Y18663D01*
X22094Y18631D01*
X22027Y18580D01*
X22005Y18550D01*
X21584D01*
X21584Y18194D01*
Y18191D01*
D01*
X21584Y18188D01*
X21577Y18184D01*
X21534Y18167D01*
X21486Y18215D01*
X21486Y18354D01*
X21486Y18404D01*
Y18747D01*
X21415D01*
Y18924D01*
X21469D01*
Y19377D01*
D02*
G37*
G36*
X2756Y19709D02*
X2648Y19694D01*
X2548Y19653D01*
X2461Y19587D01*
X2395Y19500D01*
X2354Y19400D01*
X2339Y19292D01*
X2354Y19184D01*
X2395Y19083D01*
X2461Y18997D01*
X2500Y18968D01*
X2483Y18918D01*
X2343D01*
Y18091D01*
X3170D01*
Y18918D01*
X3030D01*
X3013Y18968D01*
X3051Y18997D01*
X3117Y19083D01*
X3159Y19184D01*
X3173Y19292D01*
X3159Y19400D01*
X3117Y19500D01*
X3051Y19587D01*
X2965Y19653D01*
X2864Y19694D01*
X2756Y19709D01*
D02*
G37*
G36*
X20530Y17580D02*
X20150D01*
Y17200D01*
X20530D01*
Y17580D01*
D02*
G37*
G36*
X20050D02*
X19671D01*
Y17200D01*
X20050D01*
Y17580D01*
D02*
G37*
G36*
X20530Y17100D02*
X20150D01*
Y16721D01*
X20530D01*
Y17100D01*
D02*
G37*
G36*
X20050D02*
X19671D01*
Y16721D01*
X20050D01*
Y17100D01*
D02*
G37*
G36*
X18534Y16799D02*
X18448Y16788D01*
X18368Y16755D01*
X18320Y16717D01*
X18284Y16706D01*
X18248Y16717D01*
X18200Y16755D01*
X18120Y16788D01*
X18034Y16799D01*
X17948Y16788D01*
X17868Y16755D01*
X17820Y16717D01*
X17784Y16706D01*
X17748Y16717D01*
X17700Y16755D01*
X17620Y16788D01*
X17534Y16799D01*
X17448Y16788D01*
X17368Y16755D01*
X17320Y16717D01*
X17284Y16706D01*
X17248Y16717D01*
X17200Y16755D01*
X17120Y16788D01*
X17034Y16799D01*
X16948Y16788D01*
X16913Y16773D01*
X16863Y16796D01*
Y16796D01*
X16205D01*
Y16008D01*
X16863D01*
Y16008D01*
X16913Y16031D01*
X16948Y16016D01*
X17034Y16005D01*
X17120Y16016D01*
X17200Y16050D01*
X17248Y16087D01*
X17284Y16098D01*
X17320Y16087D01*
X17368Y16050D01*
X17448Y16016D01*
X17534Y16005D01*
X17620Y16016D01*
X17700Y16050D01*
X17748Y16087D01*
X17784Y16098D01*
X17820Y16087D01*
X17868Y16050D01*
X17948Y16016D01*
X18034Y16005D01*
X18120Y16016D01*
X18200Y16050D01*
X18248Y16087D01*
X18284Y16098D01*
X18320Y16087D01*
X18368Y16050D01*
X18448Y16016D01*
X18534Y16005D01*
X18620Y16016D01*
X18700Y16050D01*
X18769Y16102D01*
X18821Y16171D01*
X18855Y16251D01*
X18866Y16337D01*
Y16467D01*
X18855Y16553D01*
X18821Y16633D01*
X18769Y16702D01*
X18700Y16755D01*
X18620Y16788D01*
X18534Y16799D01*
D02*
G37*
G36*
X32100Y15721D02*
X32017Y15710D01*
X31940Y15678D01*
X31873Y15627D01*
X31822Y15560D01*
X31790Y15483D01*
X31779Y15400D01*
X31790Y15317D01*
X31822Y15240D01*
X31873Y15173D01*
X31940Y15122D01*
X32017Y15090D01*
X32100Y15079D01*
X32183Y15090D01*
X32241Y15114D01*
X32254Y15105D01*
Y15105D01*
X32815D01*
X32825Y15105D01*
X32865D01*
X32875Y15105D01*
X33435D01*
Y15218D01*
X33500D01*
Y15095D01*
X34090D01*
Y15705D01*
X33500D01*
Y15582D01*
X33435D01*
Y15695D01*
X32875D01*
X32865Y15695D01*
X32825D01*
X32815Y15695D01*
X32254D01*
Y15695D01*
X32241Y15686D01*
X32183Y15710D01*
X32100Y15721D01*
D02*
G37*
G36*
X2756Y15772D02*
X2648Y15757D01*
X2548Y15716D01*
X2461Y15650D01*
X2395Y15563D01*
X2354Y15463D01*
X2339Y15355D01*
X2354Y15247D01*
X2395Y15146D01*
X2461Y15060D01*
X2500Y15031D01*
X2483Y14981D01*
X2343D01*
Y14154D01*
X3170D01*
Y14981D01*
X3030D01*
X3013Y15031D01*
X3051Y15060D01*
X3117Y15146D01*
X3159Y15247D01*
X3173Y15355D01*
X3159Y15463D01*
X3117Y15563D01*
X3051Y15650D01*
X2965Y15716D01*
X2864Y15757D01*
X2756Y15772D01*
D02*
G37*
G36*
X14939Y14780D02*
X14809D01*
X14723Y14768D01*
X14643Y14735D01*
X14574Y14682D01*
X14522Y14614D01*
X14489Y14534D01*
X14477Y14448D01*
X14489Y14362D01*
X14522Y14282D01*
X14574Y14213D01*
Y14182D01*
X14522Y14114D01*
X14489Y14034D01*
X14477Y13948D01*
X14489Y13862D01*
X14522Y13782D01*
X14574Y13713D01*
Y13682D01*
X14522Y13614D01*
X14489Y13534D01*
X14477Y13448D01*
X14489Y13362D01*
X14522Y13282D01*
X14574Y13213D01*
Y13182D01*
X14522Y13114D01*
X14489Y13034D01*
X14477Y12948D01*
X14489Y12862D01*
X14503Y12827D01*
X14480Y12777D01*
X14480D01*
Y12119D01*
X15268D01*
Y12777D01*
X15268D01*
X15245Y12827D01*
X15260Y12862D01*
X15271Y12948D01*
X15260Y13034D01*
X15227Y13114D01*
X15174Y13182D01*
Y13213D01*
X15227Y13282D01*
X15260Y13362D01*
X15271Y13448D01*
X15260Y13534D01*
X15227Y13614D01*
X15174Y13682D01*
Y13713D01*
X15227Y13782D01*
X15260Y13862D01*
X15271Y13948D01*
X15260Y14034D01*
X15227Y14114D01*
X15174Y14182D01*
Y14213D01*
X15227Y14282D01*
X15260Y14362D01*
X15271Y14448D01*
X15260Y14534D01*
X15227Y14614D01*
X15174Y14682D01*
X15105Y14735D01*
X15025Y14768D01*
X14939Y14780D01*
D02*
G37*
G36*
X32105Y13384D02*
X32022Y13373D01*
X31945Y13341D01*
X31878Y13290D01*
X31827Y13223D01*
X31795Y13146D01*
X31784Y13063D01*
X31795Y12980D01*
X31827Y12903D01*
X31878Y12836D01*
X31945Y12785D01*
X32022Y12753D01*
X32105Y12742D01*
X32188Y12753D01*
X32246Y12777D01*
X32259Y12768D01*
Y12768D01*
X32820D01*
X32830Y12768D01*
X32870D01*
X32880Y12768D01*
X33441D01*
Y12881D01*
X33500D01*
Y12758D01*
X34090D01*
Y13368D01*
X33500D01*
Y13245D01*
X33441D01*
Y13358D01*
X32880D01*
X32870Y13358D01*
X32830D01*
X32820Y13358D01*
X32259D01*
Y13358D01*
X32246Y13349D01*
X32188Y13373D01*
X32105Y13384D01*
D02*
G37*
G36*
X2756Y11835D02*
X2648Y11820D01*
X2548Y11779D01*
X2461Y11713D01*
X2395Y11626D01*
X2354Y11526D01*
X2339Y11418D01*
X2354Y11310D01*
X2395Y11209D01*
X2461Y11123D01*
X2523Y11076D01*
X2506Y11026D01*
X2361D01*
Y10680D01*
X2756D01*
X3152D01*
Y11026D01*
X3006D01*
X2989Y11076D01*
X3051Y11123D01*
X3117Y11209D01*
X3159Y11310D01*
X3173Y11418D01*
X3159Y11526D01*
X3117Y11626D01*
X3051Y11713D01*
X2965Y11779D01*
X2864Y11820D01*
X2756Y11835D01*
D02*
G37*
G36*
X3152Y10580D02*
X2806D01*
Y10235D01*
X3152D01*
Y10580D01*
D02*
G37*
G36*
X2706D02*
X2361D01*
Y10235D01*
X2706D01*
Y10580D01*
D02*
G37*
G36*
X18821Y10556D02*
X18250D01*
Y10009D01*
X18225Y9949D01*
X18214Y9866D01*
X18225Y9783D01*
X18257Y9705D01*
X18308Y9639D01*
X18375Y9588D01*
X18452Y9556D01*
X18535Y9545D01*
X18618Y9556D01*
X18695Y9588D01*
X18762Y9639D01*
X18813Y9705D01*
X18845Y9783D01*
X18856Y9866D01*
X18845Y9949D01*
X18821Y10007D01*
Y10556D01*
D02*
G37*
G36*
X28971Y7120D02*
X25478D01*
X25408Y7106D01*
X25349Y7067D01*
X25191Y6908D01*
X25134Y6916D01*
X25051Y6905D01*
X24974Y6873D01*
X24907Y6822D01*
X24856Y6755D01*
X24824Y6678D01*
X24813Y6595D01*
X24824Y6512D01*
X24856Y6434D01*
X24907Y6368D01*
X24974Y6317D01*
X25051Y6285D01*
X25134Y6274D01*
X25217Y6285D01*
X25294Y6317D01*
X25361Y6368D01*
X25412Y6434D01*
X25444Y6512D01*
X25455Y6595D01*
X25447Y6651D01*
X25553Y6757D01*
X28895D01*
X29051Y6601D01*
Y6479D01*
X29022Y6441D01*
X28550D01*
Y5953D01*
X29006D01*
Y5596D01*
X29051D01*
Y5138D01*
X28859D01*
Y4292D01*
X29051D01*
Y2008D01*
X28859D01*
Y1162D01*
X29051D01*
Y776D01*
X28632D01*
Y731D01*
X26450D01*
Y786D01*
X25998D01*
Y731D01*
X25894D01*
Y1121D01*
X25442D01*
Y1082D01*
X25328D01*
X25304Y1112D01*
X25238Y1163D01*
X25161Y1195D01*
X25078Y1206D01*
X24994Y1195D01*
X24917Y1163D01*
X24851Y1112D01*
X24800Y1045D01*
X24768Y968D01*
X24757Y885D01*
X24768Y802D01*
X24800Y725D01*
X24851Y658D01*
X24917Y607D01*
X24994Y575D01*
X25078Y564D01*
X25161Y575D01*
X25238Y607D01*
X25304Y658D01*
X25327Y688D01*
X25442D01*
Y314D01*
X25894D01*
Y369D01*
X25998D01*
Y314D01*
X26450D01*
Y369D01*
X28632D01*
Y324D01*
X29439D01*
Y776D01*
X29414D01*
Y1162D01*
X29607D01*
Y2008D01*
X29414D01*
Y4292D01*
X29607D01*
Y5138D01*
X29414D01*
Y5596D01*
X29459D01*
Y5931D01*
Y6404D01*
X29414D01*
Y6676D01*
X29400Y6746D01*
X29361Y6805D01*
X29099Y7067D01*
X29040Y7106D01*
X28971Y7120D01*
D02*
G37*
G36*
X13390Y8795D02*
X13260D01*
X13174Y8783D01*
X13094Y8750D01*
X13025Y8697D01*
X12973Y8629D01*
X12940Y8549D01*
X12928Y8463D01*
X12940Y8377D01*
X12973Y8297D01*
X13010Y8248D01*
X13021Y8213D01*
X13010Y8177D01*
X12973Y8129D01*
X12940Y8049D01*
X12928Y7963D01*
X12940Y7877D01*
X12973Y7797D01*
X13010Y7748D01*
X13021Y7713D01*
X13010Y7677D01*
X12973Y7629D01*
X12940Y7549D01*
X12928Y7463D01*
X12940Y7377D01*
X12973Y7297D01*
X13010Y7248D01*
X13021Y7213D01*
X13010Y7177D01*
X12973Y7129D01*
X12940Y7049D01*
X12928Y6963D01*
X12940Y6877D01*
X12954Y6842D01*
X12931Y6792D01*
X12931D01*
Y6134D01*
X13719D01*
Y6792D01*
X13719D01*
X13696Y6842D01*
X13711Y6877D01*
X13722Y6963D01*
X13711Y7049D01*
X13678Y7129D01*
X13641Y7177D01*
X13630Y7213D01*
X13641Y7248D01*
X13678Y7297D01*
X13711Y7377D01*
X13722Y7463D01*
X13711Y7549D01*
X13678Y7629D01*
X13641Y7677D01*
X13630Y7713D01*
X13641Y7748D01*
X13678Y7797D01*
X13711Y7877D01*
X13722Y7963D01*
X13711Y8049D01*
X13678Y8129D01*
X13641Y8177D01*
X13630Y8213D01*
X13641Y8248D01*
X13678Y8297D01*
X13711Y8377D01*
X13722Y8463D01*
X13711Y8549D01*
X13678Y8629D01*
X13625Y8697D01*
X13556Y8750D01*
X13476Y8783D01*
X13390Y8795D01*
D02*
G37*
G36*
X16424Y6441D02*
X15951D01*
Y5953D01*
X16408D01*
Y5596D01*
X16453D01*
Y5138D01*
X16260D01*
Y4292D01*
X16453D01*
Y2008D01*
X16260D01*
Y1162D01*
X16453D01*
Y776D01*
X16034D01*
Y731D01*
X13852D01*
Y786D01*
X13399D01*
Y731D01*
X13296D01*
Y1121D01*
X12843D01*
Y1082D01*
X12729D01*
X12706Y1112D01*
X12640Y1163D01*
X12562Y1195D01*
X12479Y1206D01*
X12396Y1195D01*
X12319Y1163D01*
X12252Y1112D01*
X12201Y1045D01*
X12169Y968D01*
X12158Y885D01*
X12169Y802D01*
X12201Y725D01*
X12252Y658D01*
X12319Y607D01*
X12396Y575D01*
X12479Y564D01*
X12562Y575D01*
X12640Y607D01*
X12706Y658D01*
X12729Y688D01*
X12843D01*
Y314D01*
X13296D01*
Y369D01*
X13399D01*
Y314D01*
X13852D01*
Y369D01*
X16034D01*
Y324D01*
X16841D01*
Y776D01*
X16816D01*
Y1162D01*
X17008D01*
Y2008D01*
X16816D01*
Y4292D01*
X17008D01*
Y5138D01*
X16816D01*
Y5596D01*
X16861D01*
Y5986D01*
X20015D01*
X20876Y5124D01*
X20935Y5085D01*
X21005Y5071D01*
X22328D01*
X22397Y5085D01*
X22456Y5124D01*
X22589Y5257D01*
X22646Y5250D01*
X22729Y5261D01*
X22806Y5293D01*
X22873Y5344D01*
X22924Y5410D01*
X22956Y5488D01*
X22967Y5571D01*
X22956Y5654D01*
X22924Y5731D01*
X22873Y5797D01*
X22806Y5848D01*
X22729Y5880D01*
X22646Y5891D01*
X22563Y5880D01*
X22485Y5848D01*
X22419Y5797D01*
X22368Y5731D01*
X22336Y5654D01*
X22325Y5571D01*
X22332Y5514D01*
X22253Y5434D01*
X21080D01*
X20218Y6296D01*
X20160Y6335D01*
X20090Y6349D01*
X16861D01*
Y6404D01*
X16424D01*
Y6441D01*
D02*
G37*
G36*
X22397Y7291D02*
X15502D01*
X15432Y7277D01*
X15373Y7238D01*
X14473Y6338D01*
X14473Y6338D01*
X13961Y5826D01*
X11501D01*
X11031Y6296D01*
X10972Y6335D01*
X10903Y6349D01*
X10561D01*
Y6404D01*
X10124D01*
Y6441D01*
X9652D01*
Y5953D01*
X10109D01*
Y5596D01*
X10153D01*
Y5138D01*
X9961D01*
Y4292D01*
X10153D01*
Y2008D01*
X9961D01*
Y1162D01*
X10153D01*
Y776D01*
X9735D01*
Y731D01*
X7553D01*
Y786D01*
X7100D01*
Y731D01*
X6997D01*
Y1121D01*
X6544D01*
Y1082D01*
X6430D01*
X6407Y1112D01*
X6340Y1163D01*
X6263Y1195D01*
X6180Y1206D01*
X6097Y1195D01*
X6019Y1163D01*
X5953Y1112D01*
X5902Y1045D01*
X5870Y968D01*
X5859Y885D01*
X5870Y802D01*
X5902Y725D01*
X5953Y658D01*
X6019Y607D01*
X6097Y575D01*
X6180Y564D01*
X6263Y575D01*
X6340Y607D01*
X6407Y658D01*
X6430Y688D01*
X6544D01*
Y314D01*
X6997D01*
Y369D01*
X7100D01*
Y314D01*
X7553D01*
Y369D01*
X9735D01*
Y324D01*
X10542D01*
Y776D01*
X10517D01*
Y1162D01*
X10709D01*
Y2008D01*
X10517D01*
Y4292D01*
X10709D01*
Y5138D01*
X10517D01*
Y5596D01*
X10561D01*
Y5986D01*
X10828D01*
X11298Y5516D01*
X11356Y5477D01*
X11426Y5463D01*
X14036D01*
X14106Y5477D01*
X14165Y5516D01*
X14730Y6081D01*
X14730Y6081D01*
X15577Y6928D01*
X22321D01*
X23406Y5843D01*
Y5617D01*
X23361Y5582D01*
X23310Y5516D01*
X23278Y5438D01*
X23267Y5355D01*
X23278Y5272D01*
X23310Y5195D01*
X23361Y5129D01*
X23427Y5078D01*
X23505Y5045D01*
X23588Y5035D01*
X23671Y5045D01*
X23748Y5078D01*
X23815Y5129D01*
X23866Y5195D01*
X23898Y5272D01*
X23909Y5355D01*
X23898Y5438D01*
X23866Y5516D01*
X23815Y5582D01*
X23769Y5617D01*
Y5918D01*
X23756Y5988D01*
X23716Y6047D01*
X22525Y7238D01*
X22466Y7277D01*
X22397Y7291D01*
D02*
G37*
G36*
X34134Y5138D02*
X33386D01*
Y4896D01*
X32750D01*
Y4951D01*
X32297D01*
Y4896D01*
X32194D01*
Y4951D01*
X31741D01*
Y4577D01*
X31627D01*
X31604Y4608D01*
X31537Y4659D01*
X31460Y4691D01*
X31377Y4702D01*
X31294Y4691D01*
X31216Y4659D01*
X31150Y4608D01*
X31099Y4541D01*
X31067Y4464D01*
X31056Y4381D01*
X31067Y4298D01*
X31099Y4220D01*
X31150Y4154D01*
X31216Y4103D01*
X31294Y4071D01*
X31377Y4060D01*
X31460Y4071D01*
X31537Y4103D01*
X31604Y4154D01*
X31626Y4184D01*
X31741D01*
Y4144D01*
X32194D01*
Y4534D01*
X32297D01*
Y4479D01*
X32750D01*
Y4534D01*
X33386D01*
Y4292D01*
X33580D01*
Y2008D01*
X33386D01*
Y1162D01*
X34134D01*
Y2008D01*
X33941D01*
Y4292D01*
X34134D01*
Y5138D01*
D02*
G37*
G36*
X27835D02*
X27087D01*
Y4896D01*
X26450D01*
Y4951D01*
X25998D01*
Y4896D01*
X25894D01*
Y4951D01*
X25442D01*
Y4479D01*
Y4144D01*
X25471D01*
Y4040D01*
X25441Y4017D01*
X25390Y3950D01*
X25358Y3873D01*
X25347Y3790D01*
X25358Y3707D01*
X25390Y3629D01*
X25441Y3563D01*
X25507Y3512D01*
X25585Y3480D01*
X25668Y3469D01*
X25751Y3480D01*
X25828Y3512D01*
X25895Y3563D01*
X25946Y3629D01*
X25978Y3707D01*
X25989Y3790D01*
X25978Y3873D01*
X25946Y3950D01*
X25895Y4017D01*
X25865Y4040D01*
Y4144D01*
X25894D01*
Y4534D01*
X25998D01*
Y4479D01*
X26450D01*
Y4534D01*
X27087D01*
Y4292D01*
X27280D01*
Y2008D01*
X27087D01*
Y1162D01*
X27835D01*
Y2008D01*
X27642D01*
Y4292D01*
X27835D01*
Y5138D01*
D02*
G37*
G36*
X8937D02*
X8189D01*
Y4896D01*
X7553D01*
Y4951D01*
X7100D01*
Y4896D01*
X6997D01*
Y4951D01*
X6544D01*
Y4577D01*
X6430D01*
X6407Y4608D01*
X6340Y4659D01*
X6263Y4691D01*
X6180Y4702D01*
X6097Y4691D01*
X6019Y4659D01*
X5953Y4608D01*
X5902Y4541D01*
X5870Y4464D01*
X5859Y4381D01*
X5870Y4298D01*
X5902Y4220D01*
X5953Y4154D01*
X6019Y4103D01*
X6097Y4071D01*
X6180Y4060D01*
X6263Y4071D01*
X6340Y4103D01*
X6407Y4154D01*
X6430Y4184D01*
X6544D01*
Y4144D01*
X6997D01*
Y4534D01*
X7100D01*
Y4479D01*
X7553D01*
Y4534D01*
X8189D01*
Y4292D01*
X8383D01*
Y2008D01*
X8189D01*
Y1162D01*
X8937D01*
Y2008D01*
X8744D01*
Y4292D01*
X8937D01*
Y5138D01*
D02*
G37*
G36*
X18174Y5224D02*
X18044D01*
X17958Y5213D01*
X17878Y5180D01*
X17809Y5127D01*
X17756Y5058D01*
X17723Y4978D01*
X17712Y4892D01*
X17723Y4806D01*
X17756Y4726D01*
X17793Y4678D01*
X17804Y4642D01*
X17793Y4607D01*
X17756Y4558D01*
X17723Y4478D01*
X17712Y4392D01*
X17723Y4306D01*
X17756Y4226D01*
X17809Y4158D01*
Y4127D01*
X17756Y4058D01*
X17723Y3978D01*
X17712Y3892D01*
X17723Y3806D01*
X17756Y3726D01*
X17809Y3658D01*
Y3627D01*
X17756Y3558D01*
X17723Y3478D01*
X17712Y3392D01*
X17723Y3306D01*
X17738Y3271D01*
X17715Y3221D01*
X17715D01*
Y2563D01*
X18503D01*
Y3221D01*
X18503D01*
X18480Y3271D01*
X18494Y3306D01*
X18506Y3392D01*
X18494Y3478D01*
X18461Y3558D01*
X18409Y3627D01*
Y3658D01*
X18461Y3726D01*
X18494Y3806D01*
X18506Y3892D01*
X18494Y3978D01*
X18461Y4058D01*
X18409Y4127D01*
Y4158D01*
X18461Y4226D01*
X18494Y4306D01*
X18506Y4392D01*
X18494Y4478D01*
X18461Y4558D01*
X18424Y4607D01*
X18413Y4642D01*
X18424Y4678D01*
X18461Y4726D01*
X18494Y4806D01*
X18506Y4892D01*
X18494Y4978D01*
X18461Y5058D01*
X18409Y5127D01*
X18340Y5180D01*
X18260Y5213D01*
X18174Y5224D01*
D02*
G37*
G36*
X24036Y2638D02*
X23189D01*
Y2445D01*
X20906D01*
Y2638D01*
X20059D01*
Y2445D01*
X19484D01*
X19415Y2431D01*
X19356Y2392D01*
X19063Y2099D01*
X19024Y2041D01*
X19011Y1972D01*
Y1901D01*
X18955D01*
Y1448D01*
X19011D01*
Y993D01*
X18620D01*
Y964D01*
X18516D01*
X18493Y994D01*
X18426Y1045D01*
X18349Y1077D01*
X18266Y1088D01*
X18183Y1077D01*
X18106Y1045D01*
X18039Y994D01*
X17988Y928D01*
X17956Y851D01*
X17945Y767D01*
X17956Y684D01*
X17988Y607D01*
X18039Y541D01*
X18106Y490D01*
X18183Y458D01*
X18266Y447D01*
X18349Y458D01*
X18426Y490D01*
X18493Y541D01*
X18516Y570D01*
X18620D01*
Y541D01*
X19427D01*
Y993D01*
X19372D01*
Y1448D01*
X19427D01*
Y1901D01*
X19427D01*
X19412Y1937D01*
X19558Y2084D01*
X20059D01*
Y1890D01*
X20906D01*
Y2084D01*
X23189D01*
Y1890D01*
X24036D01*
Y2638D01*
D02*
G37*
G36*
X12680Y4438D02*
X12550D01*
X12464Y4427D01*
X12384Y4394D01*
X12315Y4341D01*
X12262Y4272D01*
X12229Y4192D01*
X12218Y4106D01*
X12229Y4020D01*
X12262Y3940D01*
X12299Y3892D01*
X12310Y3856D01*
X12299Y3821D01*
X12262Y3772D01*
X12229Y3692D01*
X12218Y3606D01*
X12229Y3520D01*
X12262Y3440D01*
X12299Y3392D01*
X12310Y3356D01*
X12299Y3321D01*
X12262Y3272D01*
X12229Y3192D01*
X12218Y3106D01*
X12229Y3020D01*
X12262Y2940D01*
X12299Y2892D01*
X12310Y2856D01*
X12299Y2821D01*
X12262Y2772D01*
X12229Y2692D01*
X12218Y2606D01*
X12229Y2520D01*
X12243Y2485D01*
X12221Y2435D01*
X12221D01*
Y1777D01*
X13009D01*
Y2435D01*
X13009D01*
X12986Y2485D01*
X13000Y2520D01*
X13012Y2606D01*
X13000Y2692D01*
X12967Y2772D01*
X12930Y2821D01*
X12919Y2856D01*
X12930Y2892D01*
X12967Y2940D01*
X13000Y3020D01*
X13012Y3106D01*
X13000Y3192D01*
X12967Y3272D01*
X12930Y3321D01*
X12919Y3356D01*
X12930Y3392D01*
X12967Y3440D01*
X13000Y3520D01*
X13012Y3606D01*
X13000Y3692D01*
X12967Y3772D01*
X12930Y3821D01*
X12919Y3856D01*
X12930Y3892D01*
X12967Y3940D01*
X13000Y4020D01*
X13012Y4106D01*
X13000Y4192D01*
X12967Y4272D01*
X12914Y4341D01*
X12846Y4394D01*
X12766Y4427D01*
X12680Y4438D01*
D02*
G37*
G36*
X40158Y4493D02*
X39948Y4476D01*
X39743Y4427D01*
X39548Y4346D01*
X39369Y4236D01*
X39208Y4099D01*
X39072Y3939D01*
X38962Y3760D01*
X38881Y3565D01*
X38832Y3360D01*
X38815Y3150D01*
X38832Y2940D01*
X38881Y2735D01*
X38962Y2540D01*
X39072Y2361D01*
X39208Y2201D01*
X39369Y2064D01*
X39548Y1954D01*
X39743Y1873D01*
X39948Y1824D01*
X40158Y1807D01*
X40368Y1824D01*
X40573Y1873D01*
X40767Y1954D01*
X40947Y2064D01*
X41107Y2201D01*
X41244Y2361D01*
X41354Y2540D01*
X41435Y2735D01*
X41484Y2940D01*
X41501Y3150D01*
X41484Y3360D01*
X41435Y3565D01*
X41354Y3760D01*
X41244Y3939D01*
X41107Y4099D01*
X40947Y4236D01*
X40767Y4346D01*
X40573Y4427D01*
X40368Y4476D01*
X40158Y4493D01*
D02*
G37*
G36*
X3150D02*
X2940Y4476D01*
X2735Y4427D01*
X2540Y4346D01*
X2361Y4236D01*
X2201Y4099D01*
X2064Y3939D01*
X1954Y3760D01*
X1873Y3565D01*
X1824Y3360D01*
X1807Y3150D01*
X1824Y2940D01*
X1873Y2735D01*
X1954Y2540D01*
X2064Y2361D01*
X2201Y2201D01*
X2361Y2064D01*
X2540Y1954D01*
X2735Y1873D01*
X2940Y1824D01*
X3150Y1807D01*
X3360Y1824D01*
X3565Y1873D01*
X3760Y1954D01*
X3939Y2064D01*
X4099Y2201D01*
X4236Y2361D01*
X4346Y2540D01*
X4427Y2735D01*
X4476Y2940D01*
X4493Y3150D01*
X4476Y3360D01*
X4427Y3565D01*
X4346Y3760D01*
X4236Y3939D01*
X4099Y4099D01*
X3939Y4236D01*
X3760Y4346D01*
X3565Y4427D01*
X3360Y4476D01*
X3150Y4493D01*
D02*
G37*
G36*
X22327Y1804D02*
X22242Y1792D01*
X22162Y1759D01*
X22093Y1706D01*
X22062D01*
X21993Y1759D01*
X21913Y1792D01*
X21827Y1804D01*
X21742Y1792D01*
X21662Y1759D01*
X21593Y1706D01*
X21562D01*
X21493Y1759D01*
X21413Y1792D01*
X21327Y1804D01*
X21242Y1792D01*
X21162Y1759D01*
X21093Y1706D01*
X21062D01*
X20993Y1759D01*
X20913Y1792D01*
X20827Y1804D01*
X20742Y1792D01*
X20707Y1778D01*
X20657Y1801D01*
Y1801D01*
X19998D01*
Y1013D01*
X20657D01*
Y1013D01*
X20707Y1036D01*
X20742Y1021D01*
X20827Y1010D01*
X20913Y1021D01*
X20993Y1054D01*
X21062Y1107D01*
X21093D01*
X21162Y1054D01*
X21242Y1021D01*
X21327Y1010D01*
X21413Y1021D01*
X21493Y1054D01*
X21562Y1107D01*
X21593D01*
X21662Y1054D01*
X21742Y1021D01*
X21827Y1010D01*
X21913Y1021D01*
X21993Y1054D01*
X22062Y1107D01*
X22093D01*
X22162Y1054D01*
X22242Y1021D01*
X22327Y1010D01*
X22413Y1021D01*
X22493Y1054D01*
X22562Y1107D01*
X22615Y1176D01*
X22648Y1256D01*
X22659Y1342D01*
Y1472D01*
X22648Y1558D01*
X22615Y1638D01*
X22562Y1706D01*
X22493Y1759D01*
X22413Y1792D01*
X22327Y1804D01*
D02*
G37*
G36*
X24339Y6271D02*
X24256Y6260D01*
X24178Y6228D01*
X24112Y6177D01*
X24061Y6111D01*
X24029Y6033D01*
X24018Y5950D01*
X24029Y5867D01*
X24061Y5790D01*
X24112Y5723D01*
X24178Y5672D01*
X24256Y5640D01*
X24339Y5629D01*
X24348Y5630D01*
X24385Y5598D01*
Y5363D01*
X23980Y4958D01*
X19327D01*
X19258Y4944D01*
X19199Y4904D01*
X18902Y4607D01*
X18863Y4548D01*
X18849Y4479D01*
Y4262D01*
X18794D01*
Y3825D01*
X18757D01*
Y3353D01*
X19245D01*
Y3809D01*
X19601D01*
Y3854D01*
X20059D01*
Y3662D01*
X20906D01*
Y3854D01*
X23189D01*
Y3662D01*
X24036D01*
Y3854D01*
X24421D01*
Y3435D01*
X24467D01*
Y3037D01*
X24411D01*
Y2584D01*
X24467D01*
Y2017D01*
X24411D01*
Y1564D01*
X25219D01*
Y1593D01*
X25323D01*
X25346Y1563D01*
X25412Y1512D01*
X25490Y1480D01*
X25573Y1469D01*
X25656Y1480D01*
X25733Y1512D01*
X25800Y1563D01*
X25851Y1630D01*
X25883Y1707D01*
X25894Y1790D01*
X25883Y1873D01*
X25851Y1951D01*
X25800Y2017D01*
X25733Y2068D01*
X25656Y2100D01*
X25573Y2111D01*
X25490Y2100D01*
X25412Y2068D01*
X25346Y2017D01*
X25323Y1987D01*
X25219D01*
Y2017D01*
X24828D01*
Y2584D01*
X24884D01*
Y3037D01*
X24828D01*
Y3435D01*
X24874D01*
Y3770D01*
Y4243D01*
X24421D01*
Y4217D01*
X24036D01*
Y4410D01*
X23189D01*
Y4217D01*
X20906D01*
Y4410D01*
X20059D01*
Y4217D01*
X19601D01*
Y4262D01*
X19212D01*
Y4404D01*
X19403Y4594D01*
X24055D01*
X24125Y4608D01*
X24184Y4648D01*
X24695Y5159D01*
X24735Y5218D01*
X24749Y5288D01*
Y5722D01*
X24735Y5791D01*
X24695Y5850D01*
X24652Y5894D01*
X24660Y5950D01*
X24649Y6033D01*
X24617Y6111D01*
X24566Y6177D01*
X24499Y6228D01*
X24422Y6260D01*
X24339Y6271D01*
D02*
G37*
G36*
X12059Y5284D02*
X11976Y5273D01*
X11899Y5241D01*
X11833Y5190D01*
X11782Y5123D01*
X11750Y5046D01*
X11739Y4963D01*
X11750Y4880D01*
X11782Y4802D01*
X11833Y4736D01*
X11899Y4685D01*
X11976Y4653D01*
X12059Y4642D01*
X12143Y4653D01*
X12220Y4685D01*
X12286Y4736D01*
X12309Y4766D01*
X12374D01*
Y4736D01*
X13182D01*
Y4782D01*
X13313D01*
X13399Y4696D01*
Y4479D01*
X13852D01*
Y4534D01*
X14489D01*
Y4292D01*
X14682D01*
Y2008D01*
X14489D01*
Y1162D01*
X15237D01*
Y2008D01*
X15043D01*
Y4292D01*
X15237D01*
Y5138D01*
X14489D01*
Y4896D01*
X13852D01*
Y4951D01*
X13655D01*
X13516Y5090D01*
X13457Y5129D01*
X13388Y5143D01*
X13182D01*
Y5189D01*
X12374D01*
Y5159D01*
X12309D01*
X12286Y5190D01*
X12220Y5241D01*
X12143Y5273D01*
X12059Y5284D01*
D02*
G37*
G36*
X25160Y7947D02*
X25077Y7936D01*
X25000Y7904D01*
X24933Y7853D01*
X24882Y7786D01*
X24850Y7709D01*
X24839Y7626D01*
X24850Y7543D01*
X24882Y7465D01*
X24933Y7399D01*
X25000Y7348D01*
X25077Y7316D01*
X25160Y7305D01*
X25243Y7316D01*
X25320Y7348D01*
X25387Y7399D01*
X25435Y7462D01*
X34507D01*
X34903Y7066D01*
Y6441D01*
X34849D01*
Y5953D01*
X35306D01*
Y5596D01*
X35350D01*
Y5138D01*
X35158D01*
Y4292D01*
X35350D01*
Y2008D01*
X35158D01*
Y1162D01*
X35350D01*
Y776D01*
X34931D01*
Y731D01*
X32750D01*
Y786D01*
X32297D01*
Y731D01*
X32194D01*
Y1121D01*
X31741D01*
Y1082D01*
X31627D01*
X31604Y1112D01*
X31537Y1163D01*
X31460Y1195D01*
X31377Y1206D01*
X31294Y1195D01*
X31216Y1163D01*
X31150Y1112D01*
X31099Y1045D01*
X31067Y968D01*
X31056Y885D01*
X31067Y802D01*
X31099Y725D01*
X31150Y658D01*
X31216Y607D01*
X31294Y575D01*
X31377Y564D01*
X31460Y575D01*
X31537Y607D01*
X31604Y658D01*
X31626Y688D01*
X31741D01*
Y314D01*
X32194D01*
Y369D01*
X32297D01*
Y314D01*
X32750D01*
Y369D01*
X34931D01*
Y324D01*
X35739D01*
Y776D01*
X35713D01*
Y1162D01*
X35906D01*
Y2008D01*
X35713D01*
Y4292D01*
X35906D01*
Y5138D01*
X35713D01*
Y5596D01*
X35758D01*
Y5931D01*
Y6404D01*
X35321D01*
Y6441D01*
X35267D01*
Y7141D01*
X35253Y7211D01*
X35213Y7270D01*
X34711Y7772D01*
X34652Y7812D01*
X34582Y7826D01*
X25408D01*
X25387Y7853D01*
X25320Y7904D01*
X25243Y7936D01*
X25160Y7947D01*
D02*
G37*
%LPD*%
G36*
X10650Y18600D02*
X8950D01*
Y31650D01*
X10650D01*
Y18600D01*
D02*
G37*
%LPC*%
G36*
X9893Y30725D02*
Y30353D01*
X10265D01*
X10257Y30414D01*
X10214Y30517D01*
X10146Y30606D01*
X10057Y30674D01*
X9954Y30717D01*
X9893Y30725D01*
D02*
G37*
G36*
X9793D02*
X9732Y30717D01*
X9629Y30674D01*
X9540Y30606D01*
X9472Y30517D01*
X9429Y30414D01*
X9421Y30353D01*
X9793D01*
Y30725D01*
D02*
G37*
G36*
X10265Y30253D02*
X9893D01*
Y29881D01*
X9954Y29889D01*
X10057Y29932D01*
X10146Y30000D01*
X10214Y30089D01*
X10257Y30192D01*
X10265Y30253D01*
D02*
G37*
G36*
X9793D02*
X9421D01*
X9429Y30192D01*
X9472Y30089D01*
X9540Y30000D01*
X9629Y29932D01*
X9732Y29889D01*
X9793Y29881D01*
Y30253D01*
D02*
G37*
G36*
X10299Y19711D02*
X9893D01*
Y19305D01*
X10299D01*
Y19711D01*
D02*
G37*
G36*
X9793D02*
X9387D01*
Y19305D01*
X9793D01*
Y19711D01*
D02*
G37*
G36*
X10299Y19205D02*
X9893D01*
Y18799D01*
X10299D01*
Y19205D01*
D02*
G37*
G36*
X9793D02*
X9387D01*
Y18799D01*
X9793D01*
Y19205D01*
D02*
G37*
%LPD*%
G36*
X34272Y18600D02*
X32572D01*
Y31650D01*
X34272D01*
Y18600D01*
D02*
G37*
%LPC*%
G36*
X33515Y30725D02*
Y30353D01*
X33887D01*
X33879Y30414D01*
X33836Y30517D01*
X33768Y30606D01*
X33679Y30674D01*
X33576Y30717D01*
X33515Y30725D01*
D02*
G37*
G36*
X33415Y30725D02*
X33354Y30717D01*
X33251Y30674D01*
X33162Y30606D01*
X33094Y30517D01*
X33051Y30414D01*
X33043Y30353D01*
X33415D01*
Y30725D01*
D02*
G37*
G36*
X33887Y30253D02*
X33515D01*
Y29881D01*
X33576Y29889D01*
X33679Y29932D01*
X33768Y30000D01*
X33836Y30089D01*
X33879Y30192D01*
X33887Y30253D01*
D02*
G37*
G36*
X33415D02*
X33043D01*
X33051Y30192D01*
X33094Y30089D01*
X33162Y30000D01*
X33251Y29932D01*
X33354Y29889D01*
X33415Y29881D01*
Y30253D01*
D02*
G37*
G36*
X33921Y19711D02*
X33515D01*
Y19305D01*
X33921D01*
Y19711D01*
D02*
G37*
G36*
X33415D02*
X33009D01*
Y19305D01*
X33415D01*
Y19711D01*
D02*
G37*
G36*
X33921Y19205D02*
X33515D01*
Y18799D01*
X33921D01*
Y19205D01*
D02*
G37*
G36*
X33415D02*
X33009D01*
Y18799D01*
X33415D01*
Y19205D01*
D02*
G37*
%LPD*%
G36*
X26398Y18600D02*
X24698D01*
Y31650D01*
X26398D01*
Y18600D01*
D02*
G37*
%LPC*%
G36*
X25641Y30725D02*
Y30353D01*
X26013D01*
X26005Y30414D01*
X25962Y30517D01*
X25894Y30606D01*
X25805Y30674D01*
X25702Y30717D01*
X25641Y30725D01*
D02*
G37*
G36*
X25541Y30725D02*
X25480Y30717D01*
X25377Y30674D01*
X25288Y30606D01*
X25220Y30517D01*
X25177Y30414D01*
X25169Y30353D01*
X25541D01*
Y30725D01*
D02*
G37*
G36*
X26013Y30253D02*
X25641D01*
Y29881D01*
X25702Y29889D01*
X25805Y29932D01*
X25894Y30000D01*
X25962Y30089D01*
X26005Y30192D01*
X26013Y30253D01*
D02*
G37*
G36*
X25541D02*
X25169D01*
X25177Y30192D01*
X25220Y30089D01*
X25288Y30000D01*
X25377Y29932D01*
X25480Y29889D01*
X25541Y29881D01*
Y30253D01*
D02*
G37*
G36*
X26047Y19711D02*
X25641D01*
Y19305D01*
X26047D01*
Y19711D01*
D02*
G37*
G36*
X25541D02*
X25135D01*
Y19305D01*
X25541D01*
Y19711D01*
D02*
G37*
G36*
X26047Y19205D02*
X25641D01*
Y18799D01*
X26047D01*
Y19205D01*
D02*
G37*
G36*
X25541D02*
X25135D01*
Y18799D01*
X25541D01*
Y19205D01*
D02*
G37*
%LPD*%
G36*
X18524Y18600D02*
X16824D01*
Y31650D01*
X18524D01*
Y18600D01*
D02*
G37*
%LPC*%
G36*
X17767Y30725D02*
Y30353D01*
X18139D01*
X18131Y30414D01*
X18088Y30517D01*
X18020Y30606D01*
X17931Y30674D01*
X17828Y30717D01*
X17767Y30725D01*
D02*
G37*
G36*
X17667Y30725D02*
X17606Y30717D01*
X17503Y30674D01*
X17414Y30606D01*
X17346Y30517D01*
X17303Y30414D01*
X17295Y30353D01*
X17667D01*
Y30725D01*
D02*
G37*
G36*
Y30253D02*
X17295D01*
X17303Y30192D01*
X17346Y30089D01*
X17414Y30000D01*
X17503Y29932D01*
X17606Y29889D01*
X17667Y29881D01*
Y30253D01*
D02*
G37*
G36*
X18139D02*
X17767D01*
Y29881D01*
X17828Y29889D01*
X17931Y29932D01*
X18020Y30000D01*
X18088Y30089D01*
X18131Y30192D01*
X18139Y30253D01*
D02*
G37*
G36*
X18173Y19711D02*
X17767D01*
Y19305D01*
X18173D01*
Y19711D01*
D02*
G37*
G36*
X17667D02*
X17261D01*
Y19305D01*
X17667D01*
Y19711D01*
D02*
G37*
G36*
X18173Y19205D02*
X17767D01*
Y18799D01*
X18173D01*
Y19205D01*
D02*
G37*
G36*
X17667D02*
X17261D01*
Y18799D01*
X17667D01*
Y19205D01*
D02*
G37*
%LPD*%
G36*
X36549Y23996D02*
X34749D01*
X34749Y31646D01*
X36549D01*
X36549Y23996D01*
D02*
G37*
%LPC*%
G36*
X35858Y30728D02*
X35483D01*
Y30353D01*
X35858D01*
Y30728D01*
D02*
G37*
G36*
X35383D02*
X35009D01*
Y30353D01*
X35383D01*
Y30728D01*
D02*
G37*
G36*
X35858Y30253D02*
X35483D01*
Y29878D01*
X35858D01*
Y30253D01*
D02*
G37*
G36*
X35383D02*
X35009D01*
Y29878D01*
X35383D01*
Y30253D01*
D02*
G37*
G36*
X35877Y25299D02*
Y24896D01*
X36280D01*
X36271Y24965D01*
X36225Y25076D01*
X36152Y25171D01*
X36057Y25244D01*
X35946Y25290D01*
X35877Y25299D01*
D02*
G37*
G36*
X35777D02*
X35708Y25290D01*
X35597Y25244D01*
X35502Y25171D01*
X35429Y25076D01*
X35383Y24965D01*
X35374Y24896D01*
X35777D01*
Y25299D01*
D02*
G37*
G36*
Y24796D02*
X35374D01*
X35383Y24727D01*
X35429Y24616D01*
X35502Y24521D01*
X35597Y24447D01*
X35708Y24402D01*
X35777Y24392D01*
Y24796D01*
D02*
G37*
G36*
X36280D02*
X35877D01*
Y24392D01*
X35946Y24402D01*
X36057Y24447D01*
X36152Y24521D01*
X36225Y24616D01*
X36271Y24727D01*
X36280Y24796D01*
D02*
G37*
%LPD*%
G36*
X28675Y23996D02*
X26875D01*
X26875Y31646D01*
X28675D01*
X28675Y23996D01*
D02*
G37*
%LPC*%
G36*
X27984Y30728D02*
X27609D01*
Y30353D01*
X27984D01*
Y30728D01*
D02*
G37*
G36*
X27509D02*
X27135D01*
Y30353D01*
X27509D01*
Y30728D01*
D02*
G37*
G36*
X27984Y30253D02*
X27609D01*
Y29878D01*
X27984D01*
Y30253D01*
D02*
G37*
G36*
X27509D02*
X27135D01*
Y29878D01*
X27509D01*
Y30253D01*
D02*
G37*
G36*
X28003Y25299D02*
Y24896D01*
X28406D01*
X28397Y24965D01*
X28351Y25076D01*
X28278Y25171D01*
X28183Y25244D01*
X28072Y25290D01*
X28003Y25299D01*
D02*
G37*
G36*
X27903D02*
X27834Y25290D01*
X27723Y25244D01*
X27628Y25171D01*
X27555Y25076D01*
X27509Y24965D01*
X27500Y24896D01*
X27903D01*
Y25299D01*
D02*
G37*
G36*
X28406Y24796D02*
X28003D01*
Y24392D01*
X28072Y24402D01*
X28183Y24447D01*
X28278Y24521D01*
X28351Y24616D01*
X28397Y24727D01*
X28406Y24796D01*
D02*
G37*
G36*
X27903D02*
X27500D01*
X27509Y24727D01*
X27555Y24616D01*
X27628Y24521D01*
X27723Y24447D01*
X27834Y24402D01*
X27903Y24392D01*
Y24796D01*
D02*
G37*
%LPD*%
G36*
X20801Y23996D02*
X19001D01*
X19001Y31646D01*
X20801D01*
X20801Y23996D01*
D02*
G37*
%LPC*%
G36*
X20110Y30728D02*
X19735D01*
Y30353D01*
X20110D01*
Y30728D01*
D02*
G37*
G36*
X19635D02*
X19261D01*
Y30353D01*
X19635D01*
Y30728D01*
D02*
G37*
G36*
X20110Y30253D02*
X19735D01*
Y29878D01*
X20110D01*
Y30253D01*
D02*
G37*
G36*
X19635D02*
X19261D01*
Y29878D01*
X19635D01*
Y30253D01*
D02*
G37*
G36*
X20129Y25299D02*
Y24896D01*
X20532D01*
X20523Y24965D01*
X20477Y25076D01*
X20404Y25171D01*
X20309Y25244D01*
X20198Y25290D01*
X20129Y25299D01*
D02*
G37*
G36*
X20029D02*
X19960Y25290D01*
X19849Y25244D01*
X19754Y25171D01*
X19681Y25076D01*
X19635Y24965D01*
X19626Y24896D01*
X20029D01*
Y25299D01*
D02*
G37*
G36*
X20532Y24796D02*
X20129D01*
Y24392D01*
X20198Y24402D01*
X20309Y24447D01*
X20404Y24521D01*
X20477Y24616D01*
X20523Y24727D01*
X20532Y24796D01*
D02*
G37*
G36*
X20029D02*
X19626D01*
X19635Y24727D01*
X19681Y24616D01*
X19754Y24521D01*
X19849Y24447D01*
X19960Y24402D01*
X20029Y24392D01*
Y24796D01*
D02*
G37*
%LPD*%
G36*
X12927Y23996D02*
X11127D01*
X11127Y31646D01*
X12927D01*
X12927Y23996D01*
D02*
G37*
%LPC*%
G36*
X12236Y30728D02*
X11861D01*
Y30353D01*
X12236D01*
Y30728D01*
D02*
G37*
G36*
X11761D02*
X11387D01*
Y30353D01*
X11761D01*
Y30728D01*
D02*
G37*
G36*
X12236Y30253D02*
X11861D01*
Y29878D01*
X12236D01*
Y30253D01*
D02*
G37*
G36*
X11761D02*
X11387D01*
Y29878D01*
X11761D01*
Y30253D01*
D02*
G37*
G36*
X12255Y25299D02*
Y24896D01*
X12658D01*
X12649Y24965D01*
X12603Y25076D01*
X12530Y25171D01*
X12435Y25244D01*
X12324Y25290D01*
X12255Y25299D01*
D02*
G37*
G36*
X12155D02*
X12086Y25290D01*
X11975Y25244D01*
X11880Y25171D01*
X11807Y25076D01*
X11761Y24965D01*
X11752Y24896D01*
X12155D01*
Y25299D01*
D02*
G37*
G36*
X12658Y24796D02*
X12255D01*
Y24392D01*
X12324Y24402D01*
X12435Y24447D01*
X12530Y24521D01*
X12603Y24616D01*
X12649Y24727D01*
X12658Y24796D01*
D02*
G37*
G36*
X12155D02*
X11752D01*
X11761Y24727D01*
X11807Y24616D01*
X11880Y24521D01*
X11975Y24447D01*
X12086Y24402D01*
X12155Y24392D01*
Y24796D01*
D02*
G37*
%LPD*%
G36*
X32072Y23950D02*
X30272D01*
X30272Y31600D01*
X32072D01*
X32072Y23950D01*
D02*
G37*
%LPC*%
G36*
X31546Y30725D02*
Y30353D01*
X31918D01*
X31910Y30414D01*
X31868Y30517D01*
X31799Y30606D01*
X31711Y30674D01*
X31607Y30717D01*
X31546Y30725D01*
D02*
G37*
G36*
X31446Y30725D02*
X31386Y30717D01*
X31282Y30674D01*
X31193Y30606D01*
X31125Y30517D01*
X31083Y30414D01*
X31075Y30353D01*
X31446D01*
Y30725D01*
D02*
G37*
G36*
X31918Y30253D02*
X31546D01*
Y29881D01*
X31607Y29889D01*
X31711Y29932D01*
X31799Y30000D01*
X31868Y30089D01*
X31910Y30192D01*
X31918Y30253D01*
D02*
G37*
G36*
X31446D02*
X31075D01*
X31083Y30192D01*
X31125Y30089D01*
X31193Y30000D01*
X31282Y29932D01*
X31386Y29889D01*
X31446Y29881D01*
Y30253D01*
D02*
G37*
G36*
X31153Y25299D02*
Y24896D01*
X31556D01*
X31547Y24965D01*
X31501Y25076D01*
X31428Y25171D01*
X31333Y25244D01*
X31222Y25290D01*
X31153Y25299D01*
D02*
G37*
G36*
X31053D02*
X30984Y25290D01*
X30873Y25244D01*
X30778Y25171D01*
X30705Y25076D01*
X30659Y24965D01*
X30649Y24896D01*
X31053D01*
Y25299D01*
D02*
G37*
G36*
X31556Y24796D02*
X31153D01*
Y24392D01*
X31222Y24402D01*
X31333Y24447D01*
X31428Y24521D01*
X31501Y24616D01*
X31547Y24727D01*
X31556Y24796D01*
D02*
G37*
G36*
X31053D02*
X30649D01*
X30659Y24727D01*
X30705Y24616D01*
X30778Y24521D01*
X30873Y24447D01*
X30984Y24402D01*
X31053Y24392D01*
Y24796D01*
D02*
G37*
%LPD*%
G36*
X24198Y23950D02*
X22398D01*
X22398Y31600D01*
X24198D01*
X24198Y23950D01*
D02*
G37*
%LPC*%
G36*
X23672Y30725D02*
Y30353D01*
X24044D01*
X24036Y30414D01*
X23994Y30517D01*
X23925Y30606D01*
X23837Y30674D01*
X23733Y30717D01*
X23672Y30725D01*
D02*
G37*
G36*
X23572Y30725D02*
X23512Y30717D01*
X23408Y30674D01*
X23319Y30606D01*
X23251Y30517D01*
X23209Y30414D01*
X23201Y30353D01*
X23572D01*
Y30725D01*
D02*
G37*
G36*
X24044Y30253D02*
X23672D01*
Y29881D01*
X23733Y29889D01*
X23837Y29932D01*
X23925Y30000D01*
X23994Y30089D01*
X24036Y30192D01*
X24044Y30253D01*
D02*
G37*
G36*
X23572D02*
X23201D01*
X23209Y30192D01*
X23251Y30089D01*
X23319Y30000D01*
X23408Y29932D01*
X23512Y29889D01*
X23572Y29881D01*
Y30253D01*
D02*
G37*
G36*
X23279Y25299D02*
Y24896D01*
X23682D01*
X23673Y24965D01*
X23627Y25076D01*
X23554Y25171D01*
X23459Y25244D01*
X23348Y25290D01*
X23279Y25299D01*
D02*
G37*
G36*
X23179D02*
X23110Y25290D01*
X22999Y25244D01*
X22904Y25171D01*
X22831Y25076D01*
X22785Y24965D01*
X22775Y24896D01*
X23179D01*
Y25299D01*
D02*
G37*
G36*
X23682Y24796D02*
X23279D01*
Y24392D01*
X23348Y24402D01*
X23459Y24447D01*
X23554Y24521D01*
X23627Y24616D01*
X23673Y24727D01*
X23682Y24796D01*
D02*
G37*
G36*
X23179D02*
X22775D01*
X22785Y24727D01*
X22831Y24616D01*
X22904Y24521D01*
X22999Y24447D01*
X23110Y24402D01*
X23179Y24392D01*
Y24796D01*
D02*
G37*
%LPD*%
G36*
X16324Y23950D02*
X14524D01*
X14524Y31600D01*
X16324D01*
X16324Y23950D01*
D02*
G37*
%LPC*%
G36*
X15798Y30725D02*
Y30353D01*
X16170D01*
X16162Y30414D01*
X16119Y30517D01*
X16051Y30606D01*
X15963Y30674D01*
X15859Y30717D01*
X15798Y30725D01*
D02*
G37*
G36*
X15698Y30725D02*
X15638Y30717D01*
X15534Y30674D01*
X15445Y30606D01*
X15377Y30517D01*
X15335Y30414D01*
X15327Y30353D01*
X15698D01*
Y30725D01*
D02*
G37*
G36*
Y30253D02*
X15327D01*
X15335Y30192D01*
X15377Y30089D01*
X15445Y30000D01*
X15534Y29932D01*
X15638Y29889D01*
X15698Y29881D01*
Y30253D01*
D02*
G37*
G36*
X16170D02*
X15798D01*
Y29881D01*
X15859Y29889D01*
X15963Y29932D01*
X16051Y30000D01*
X16119Y30089D01*
X16162Y30192D01*
X16170Y30253D01*
D02*
G37*
G36*
X15405Y25299D02*
Y24896D01*
X15808D01*
X15799Y24965D01*
X15753Y25076D01*
X15680Y25171D01*
X15585Y25244D01*
X15474Y25290D01*
X15405Y25299D01*
D02*
G37*
G36*
X15305D02*
X15236Y25290D01*
X15125Y25244D01*
X15030Y25171D01*
X14956Y25076D01*
X14911Y24965D01*
X14901Y24896D01*
X15305D01*
Y25299D01*
D02*
G37*
G36*
Y24796D02*
X14901D01*
X14911Y24727D01*
X14956Y24616D01*
X15030Y24521D01*
X15125Y24447D01*
X15236Y24402D01*
X15305Y24392D01*
Y24796D01*
D02*
G37*
G36*
X15808D02*
X15405D01*
Y24392D01*
X15474Y24402D01*
X15585Y24447D01*
X15680Y24521D01*
X15753Y24616D01*
X15799Y24727D01*
X15808Y24796D01*
D02*
G37*
%LPD*%
G36*
X8450Y23950D02*
X6650D01*
X6650Y31600D01*
X8450D01*
X8450Y23950D01*
D02*
G37*
%LPC*%
G36*
X7924Y30725D02*
Y30353D01*
X8296D01*
X8288Y30414D01*
X8245Y30517D01*
X8177Y30606D01*
X8089Y30674D01*
X7985Y30717D01*
X7924Y30725D01*
D02*
G37*
G36*
X7824D02*
X7764Y30717D01*
X7660Y30674D01*
X7571Y30606D01*
X7503Y30517D01*
X7461Y30414D01*
X7453Y30353D01*
X7824D01*
Y30725D01*
D02*
G37*
G36*
X8296Y30253D02*
X7924D01*
Y29881D01*
X7985Y29889D01*
X8089Y29932D01*
X8177Y30000D01*
X8245Y30089D01*
X8288Y30192D01*
X8296Y30253D01*
D02*
G37*
G36*
X7824D02*
X7453D01*
X7461Y30192D01*
X7503Y30089D01*
X7571Y30000D01*
X7660Y29932D01*
X7764Y29889D01*
X7824Y29881D01*
Y30253D01*
D02*
G37*
G36*
X7531Y25299D02*
Y24896D01*
X7934D01*
X7925Y24965D01*
X7879Y25076D01*
X7806Y25171D01*
X7711Y25244D01*
X7600Y25290D01*
X7531Y25299D01*
D02*
G37*
G36*
X7431D02*
X7362Y25290D01*
X7251Y25244D01*
X7156Y25171D01*
X7082Y25076D01*
X7037Y24965D01*
X7027Y24896D01*
X7431D01*
Y25299D01*
D02*
G37*
G36*
X7934Y24796D02*
X7531D01*
Y24392D01*
X7600Y24402D01*
X7711Y24447D01*
X7806Y24521D01*
X7879Y24616D01*
X7925Y24727D01*
X7934Y24796D01*
D02*
G37*
G36*
X7431D02*
X7027D01*
X7037Y24727D01*
X7082Y24616D01*
X7156Y24521D01*
X7251Y24447D01*
X7362Y24402D01*
X7431Y24392D01*
Y24796D01*
D02*
G37*
%LPD*%
G36*
X42600Y22250D02*
X38450D01*
Y25700D01*
X40121D01*
X40137Y25653D01*
X40118Y25639D01*
X40055Y25556D01*
X40015Y25460D01*
X40008Y25407D01*
X40792D01*
X40785Y25460D01*
X40746Y25556D01*
X40682Y25639D01*
X40664Y25653D01*
X40680Y25700D01*
X42600D01*
Y22250D01*
D02*
G37*
G36*
X27629Y15928D02*
Y15312D01*
X27583Y15277D01*
X27532Y15210D01*
X27500Y15133D01*
X27489Y15050D01*
X27500Y14967D01*
X27532Y14890D01*
X27583Y14823D01*
X27650Y14772D01*
X27727Y14740D01*
X27810Y14729D01*
X27893Y14740D01*
X27970Y14772D01*
X28037Y14823D01*
X28077Y14875D01*
X28127Y14858D01*
Y14710D01*
X27684Y14267D01*
X26015D01*
X25999Y14317D01*
X26038Y14343D01*
X26259Y14564D01*
X26299Y14623D01*
X26312Y14692D01*
Y15340D01*
X26354Y15368D01*
X26373Y15360D01*
X26400Y15356D01*
Y15650D01*
X26500D01*
Y15356D01*
X26528Y15360D01*
X26601Y15390D01*
X26663Y15438D01*
X26675Y15454D01*
X26725D01*
X26738Y15438D01*
X26800Y15390D01*
X26873Y15360D01*
X26900Y15356D01*
Y15650D01*
X26950D01*
Y15700D01*
X27244D01*
X27241Y15728D01*
X27211Y15801D01*
X27163Y15863D01*
X27147Y15875D01*
Y15925D01*
X27163Y15938D01*
X27211Y16000D01*
X27241Y16073D01*
X27244Y16100D01*
X26950D01*
Y16200D01*
X27244D01*
X27241Y16228D01*
X27228Y16259D01*
X27270Y16287D01*
X27629Y15928D01*
D02*
G37*
%LPC*%
G36*
X40792Y25307D02*
X40450D01*
Y24965D01*
X40504Y24972D01*
X40600Y25011D01*
X40682Y25075D01*
X40746Y25157D01*
X40785Y25254D01*
X40792Y25307D01*
D02*
G37*
G36*
X40350D02*
X40008D01*
X40015Y25254D01*
X40055Y25157D01*
X40118Y25075D01*
X40201Y25011D01*
X40297Y24972D01*
X40350Y24965D01*
Y25307D01*
D02*
G37*
G36*
X27244Y15600D02*
X27000D01*
Y15356D01*
X27028Y15360D01*
X27101Y15390D01*
X27163Y15438D01*
X27211Y15500D01*
X27241Y15573D01*
X27244Y15600D01*
D02*
G37*
%LPD*%
G36*
X23548Y17729D02*
X23594D01*
Y17466D01*
X23532Y17405D01*
X23469D01*
X23419Y17469D01*
X23326Y17541D01*
X23217Y17586D01*
X23100Y17601D01*
X22984Y17586D01*
X22875Y17541D01*
X22781Y17469D01*
X22710Y17376D01*
X22665Y17267D01*
X22649Y17150D01*
X22665Y17034D01*
X22710Y16925D01*
X22781Y16831D01*
X22875Y16760D01*
X22920Y16741D01*
Y16483D01*
X21825Y15388D01*
X21584D01*
X21515Y15374D01*
X21457Y15335D01*
X19398Y13277D01*
X19359Y13218D01*
X19345Y13149D01*
Y12901D01*
X18700Y12256D01*
X18653Y12272D01*
X18650Y12293D01*
X18618Y12370D01*
X18567Y12437D01*
X18521Y12472D01*
Y12785D01*
X21178Y15443D01*
X21217Y15501D01*
X21231Y15570D01*
Y16026D01*
X21939Y16733D01*
X21984Y16715D01*
X22100Y16699D01*
X22217Y16715D01*
X22326Y16760D01*
X22419Y16831D01*
X22491Y16925D01*
X22536Y17034D01*
X22552Y17150D01*
X22536Y17267D01*
X22518Y17312D01*
X22939Y17733D01*
X23374D01*
Y18121D01*
X23548D01*
Y17729D01*
D02*
G37*
D12*
X0Y0D02*
X43307D01*
X0D02*
Y33465D01*
X43307D01*
Y0D02*
Y33465D01*
D13*
X26224Y550D02*
D03*
Y885D02*
D03*
X25668D02*
D03*
Y550D02*
D03*
X26224Y4380D02*
D03*
Y4715D02*
D03*
X25668D02*
D03*
Y4380D02*
D03*
X13626Y550D02*
D03*
Y885D02*
D03*
X13070D02*
D03*
Y550D02*
D03*
X13626Y4380D02*
D03*
Y4715D02*
D03*
X7326Y4380D02*
D03*
Y4715D02*
D03*
X6770D02*
D03*
Y4380D02*
D03*
X7326Y550D02*
D03*
Y885D02*
D03*
X6770D02*
D03*
Y550D02*
D03*
X32523Y4380D02*
D03*
Y4715D02*
D03*
X31967D02*
D03*
Y4380D02*
D03*
X35532Y6167D02*
D03*
Y5833D02*
D03*
X10335Y6167D02*
D03*
Y5833D02*
D03*
X16634Y6167D02*
D03*
Y5833D02*
D03*
X24648Y4006D02*
D03*
Y3672D02*
D03*
X29233Y6167D02*
D03*
Y5833D02*
D03*
X32523Y550D02*
D03*
Y885D02*
D03*
X31967D02*
D03*
Y550D02*
D03*
X23147Y17969D02*
D03*
Y18304D02*
D03*
X23774Y17965D02*
D03*
Y18300D02*
D03*
D14*
X24982Y1791D02*
D03*
X24648D02*
D03*
Y2810D02*
D03*
X24982D02*
D03*
X19191Y767D02*
D03*
X18857D02*
D03*
X12945Y4963D02*
D03*
X12611D02*
D03*
X35502Y550D02*
D03*
X35168D02*
D03*
X10306D02*
D03*
X9971D02*
D03*
X16605D02*
D03*
X16270D02*
D03*
X19030Y4036D02*
D03*
X19365D02*
D03*
X29203Y550D02*
D03*
X28869D02*
D03*
X18857Y1674D02*
D03*
X19191D02*
D03*
X20618Y18550D02*
D03*
X20283D02*
D03*
X21233Y19150D02*
D03*
X21568D02*
D03*
D15*
X35532Y4715D02*
D03*
X33760Y1585D02*
D03*
X35532D02*
D03*
X33760Y4715D02*
D03*
X10335D02*
D03*
X8563Y1585D02*
D03*
X10335D02*
D03*
X8563Y4715D02*
D03*
X14863D02*
D03*
X16634Y1585D02*
D03*
X14863D02*
D03*
X16634Y4715D02*
D03*
X27461D02*
D03*
X29233Y1585D02*
D03*
X27461D02*
D03*
X29233Y4715D02*
D03*
D16*
X20483Y4036D02*
D03*
X23613Y2264D02*
D03*
Y4036D02*
D03*
X20483Y2264D02*
D03*
D17*
X34707Y6197D02*
D03*
X35085D02*
D03*
X9510D02*
D03*
X9888D02*
D03*
X15809D02*
D03*
X16187D02*
D03*
X28408D02*
D03*
X28786D02*
D03*
D18*
X19001Y3211D02*
D03*
Y3589D02*
D03*
D19*
X29250Y11500D02*
D03*
D20*
X22900Y11956D02*
D03*
Y11345D02*
D03*
D21*
X21215Y8500D02*
D03*
X20585D02*
D03*
X18535Y10950D02*
D03*
X19165D02*
D03*
X18535Y10250D02*
D03*
X19165D02*
D03*
X21115Y12850D02*
D03*
X20485D02*
D03*
D22*
X22900Y10085D02*
D03*
Y10715D02*
D03*
X22200Y11345D02*
D03*
Y10715D02*
D03*
X21500D02*
D03*
Y11345D02*
D03*
D23*
X21870Y18354D02*
D03*
X21200Y18157D02*
D03*
Y18550D02*
D03*
D24*
X35433Y31292D02*
D03*
Y32000D02*
D03*
X33465D02*
D03*
Y31292D02*
D03*
X27559D02*
D03*
Y32000D02*
D03*
X25591D02*
D03*
Y31292D02*
D03*
X19685D02*
D03*
Y32000D02*
D03*
X17717D02*
D03*
Y31292D02*
D03*
X11800D02*
D03*
Y32000D02*
D03*
X9850Y32005D02*
D03*
Y31296D02*
D03*
D25*
X5131Y25800D02*
D03*
X2769D02*
D03*
D26*
X39525Y20750D02*
D03*
Y22750D02*
D03*
X41576D02*
D03*
Y20750D02*
D03*
D27*
X32540Y15400D02*
D03*
X33150D02*
D03*
X32545Y13063D02*
D03*
X33155D02*
D03*
X32550Y10926D02*
D03*
X33160D02*
D03*
X32495Y8739D02*
D03*
X33105D02*
D03*
D28*
X34405Y15400D02*
D03*
X33795D02*
D03*
X34405Y13063D02*
D03*
X33795D02*
D03*
X34410Y10926D02*
D03*
X33800D02*
D03*
X34355Y8739D02*
D03*
X33745D02*
D03*
D62*
X12059Y4963D02*
X12642D01*
X18266Y767D02*
X18848D01*
X18266Y1674D02*
X18848D01*
X24990Y1790D02*
X25573D01*
X24990Y2810D02*
X25573D01*
X32524Y893D02*
Y1475D01*
X32523Y3790D02*
Y4372D01*
X31377Y885D02*
X31959D01*
X31377Y4381D02*
X31959D01*
X26224Y3790D02*
Y4372D01*
X25668Y3790D02*
Y4372D01*
X25078Y885D02*
X25660D01*
X26224Y893D02*
Y1475D01*
X13626Y893D02*
Y1475D01*
X12479Y885D02*
X13062D01*
X7327Y893D02*
Y1475D01*
X6180Y885D02*
X6762D01*
X6180Y4381D02*
X6762D01*
X35049Y32016D02*
X35433D01*
X27560Y32000D02*
Y32385D01*
X7326Y3790D02*
Y4372D01*
X18628Y11043D02*
Y11148D01*
X18535Y10950D02*
X18628Y11043D01*
Y11148D02*
X18940Y11460D01*
X18940D01*
X20586Y8501D02*
Y8885D01*
X21870Y18353D02*
X22254D01*
X20485Y12466D02*
Y12850D01*
X18535Y9866D02*
Y10250D01*
X33465Y32000D02*
X33849D01*
X33081Y32001D02*
X33465D01*
X33465Y32060D02*
Y32444D01*
X25591Y32000D02*
X25975D01*
X25206Y32001D02*
X25591D01*
X25591Y32060D02*
Y32444D01*
X17717Y32000D02*
X18101D01*
X17332Y32001D02*
X17717D01*
X17717Y32060D02*
Y32444D01*
X9850Y32005D02*
X10235D01*
X9466Y32005D02*
X9850D01*
X9850Y32064D02*
Y32448D01*
X41576Y20741D02*
Y21125D01*
Y20376D02*
Y20760D01*
X39525Y20366D02*
Y20750D01*
Y20741D02*
Y21125D01*
X21568Y19150D02*
X21952D01*
X19001Y2819D02*
Y3203D01*
X15417Y6197D02*
X15801D01*
X28016D02*
X28400D01*
X34315D02*
X34699D01*
X34355Y8739D02*
X34740D01*
X34410Y10926D02*
X34795D01*
X34405Y13063D02*
X34790D01*
X34405Y15400D02*
X34790D01*
X35434Y32015D02*
X35818D01*
X35434Y32001D02*
Y32385D01*
X27175Y32000D02*
X27559D01*
X27560Y32000D02*
X27944D01*
X19685Y32001D02*
Y32385D01*
X19686Y32000D02*
X20070D01*
X19301Y32001D02*
X19685D01*
X11801Y32060D02*
Y32444D01*
X11416Y32000D02*
X11800D01*
X11801Y32000D02*
X12185D01*
X9118Y6197D02*
X9502D01*
X21216Y8500D02*
X21600D01*
X19166Y10250D02*
X19550D01*
X19166Y10950D02*
X19550D01*
X22516Y10716D02*
X22900D01*
D63*
X12945Y4963D02*
X13388D01*
X13626Y4725D01*
Y4715D02*
Y4725D01*
X19191Y767D02*
Y1674D01*
X19484Y2264D02*
X20483D01*
X19191Y1972D02*
X19484Y2264D01*
X19191Y1674D02*
Y1972D01*
X20483Y2264D02*
X23613D01*
X24648Y1791D02*
Y2810D01*
Y3672D01*
X7326Y4715D02*
X8563D01*
X6770D02*
X7326D01*
X6770Y550D02*
X7326D01*
X9971D01*
X8563Y1585D02*
Y4715D01*
X14863Y1585D02*
Y4715D01*
X13070Y550D02*
X13626D01*
X16270D01*
X13626Y4715D02*
X14863D01*
X27461Y1585D02*
Y4715D01*
X26224D02*
X27461D01*
X25668D02*
X26224D01*
X25668Y550D02*
X26224D01*
X28869D01*
X31967D02*
X32523D01*
X35168D01*
X32523Y4715D02*
X33760D01*
X31967D02*
X32523D01*
X33760Y1585D02*
Y4715D01*
X22425Y17893D02*
X22836Y18304D01*
X21553Y17893D02*
X22425D01*
X22836Y18304D02*
X23147D01*
X21200Y18157D02*
X21289D01*
X21553Y17893D01*
X23772Y18302D02*
X23774Y18300D01*
X23150Y18302D02*
X23772D01*
X23147Y18304D02*
X23150Y18302D01*
X22100Y17150D02*
X22919Y17969D01*
X23147D01*
X23774Y17392D02*
Y17965D01*
X23607Y17224D02*
X23774Y17392D01*
X23100Y17150D02*
X23174Y17224D01*
X23607D01*
X17325Y11754D02*
Y13988D01*
X19207Y15870D01*
Y17907D01*
X17009Y11438D02*
Y11438D01*
X17325Y11754D01*
X19207Y17907D02*
X19860Y18560D01*
X24562Y14471D02*
X25910D01*
X23856Y15176D02*
Y15909D01*
Y15176D02*
X24562Y14471D01*
X23435Y15945D02*
Y16163D01*
X24189Y16917D02*
X25193D01*
X23435Y16163D02*
X24189Y16917D01*
X25910Y14471D02*
X26132Y14692D01*
X25950Y15624D02*
X26132Y15442D01*
X25950Y15624D02*
Y15650D01*
X26132Y14692D02*
Y15442D01*
X22881Y10085D02*
X22900D01*
X22562Y9766D02*
X22881Y10085D01*
X22405Y9766D02*
X22562D01*
X22351Y9713D02*
X22405Y9766D01*
X22999Y13054D02*
X23140Y12913D01*
X22955Y13054D02*
X22999D01*
X23140Y12913D02*
X30572D01*
X32550Y10936D01*
X23935Y12345D02*
X24174Y12584D01*
X22318Y12400D02*
X22372Y12346D01*
X22528D01*
X22529Y12345D01*
X23935D01*
X25057Y13374D02*
X25057D01*
X25307Y13624D02*
X29174D01*
X25057Y13374D02*
X25307Y13624D01*
X29676Y12584D02*
X32495Y9765D01*
X24174Y12584D02*
X29676D01*
X29174Y13624D02*
X32100Y16550D01*
X32550Y10926D02*
Y10936D01*
X32495Y8739D02*
Y9765D01*
X21659Y12430D02*
X21706D01*
X23363Y14087D02*
X27759D01*
X21706Y12430D02*
X23363Y14087D01*
X21500Y11345D02*
X22200D01*
X21500D02*
Y11845D01*
X22200Y11345D02*
X22900D01*
X21750Y13050D02*
Y14260D01*
X27759Y14087D02*
X28307Y14635D01*
X27313Y17117D02*
X28307Y16123D01*
Y14635D02*
Y16123D01*
X26497Y17117D02*
X27313D01*
X25950Y16570D02*
X26497Y17117D01*
X26652Y16620D02*
X27193D01*
X27810Y15050D02*
Y16003D01*
X27193Y16620D02*
X27810Y16003D01*
X25193Y16917D02*
X25450Y16660D01*
Y16150D02*
Y16660D01*
X21750Y14260D02*
X23435Y15945D01*
X21584Y15207D02*
X21900D01*
X23100Y16408D02*
Y17150D01*
X21900Y15207D02*
X23100Y16408D01*
X21050Y15570D02*
Y16100D01*
X18340Y12860D02*
X21050Y15570D01*
Y16100D02*
X22100Y17150D01*
X18370Y11670D02*
X19526Y12826D01*
Y13149D02*
X21584Y15207D01*
X19526Y12826D02*
Y13149D01*
X18340Y12210D02*
Y12860D01*
X19860Y18560D02*
X20283D01*
X24950Y15580D02*
X25590Y14940D01*
Y14940D02*
Y14940D01*
X24950Y15580D02*
Y15650D01*
X25950Y16150D02*
Y16570D01*
X26453Y16421D02*
X26652Y16620D01*
X26453Y16153D02*
Y16421D01*
X26450Y16150D02*
X26453Y16153D01*
X32100Y16550D02*
X33786D01*
X37700Y20464D02*
Y21830D01*
X33786Y16550D02*
X37700Y20464D01*
X38620Y22750D02*
X39525D01*
X37700Y21830D02*
X38620Y22750D01*
X39525D02*
X41576D01*
D64*
X10903Y6167D02*
X11426Y5644D01*
X14036D02*
X14601Y6209D01*
X11426Y5644D02*
X14036D01*
X14601Y6209D02*
Y6209D01*
X15502Y7109D01*
X22397D01*
X23588Y5355D02*
Y5918D01*
X22397Y7109D02*
X23588Y5918D01*
X20090Y6167D02*
X21005Y5253D01*
X16634Y6167D02*
X20090D01*
X21005Y5253D02*
X22328D01*
X9888Y6197D02*
X10335D01*
Y6167D02*
X10903D01*
X24055Y4776D02*
X24567Y5288D01*
X24339Y5950D02*
X24567Y5722D01*
Y5288D02*
Y5722D01*
X19327Y4776D02*
X24055D01*
X16195Y6197D02*
X16634D01*
X22328Y5253D02*
X22646Y5571D01*
X19001Y3597D02*
Y4036D01*
X19030D02*
Y4479D01*
X19327Y4776D01*
X28786Y6197D02*
X29233D01*
Y6676D01*
Y6167D02*
Y6197D01*
X25134Y6595D02*
X25478Y6938D01*
X28971D01*
X29233Y6676D01*
X25160Y7626D02*
X25178Y7644D01*
X34582D01*
X35085Y6197D02*
Y7141D01*
X34582Y7644D02*
X35085Y7141D01*
X20483Y4036D02*
X23613D01*
X10335Y6167D02*
Y6197D01*
X35085D02*
X35532D01*
Y6167D02*
Y6197D01*
X32550Y10926D02*
X32550D01*
X24404Y11345D02*
X25174Y12116D01*
X22900Y11345D02*
X24404D01*
X24376Y11956D02*
X24500Y12080D01*
X22900Y11956D02*
X24376D01*
X32105Y13063D02*
X32545D01*
X32100Y15400D02*
X32540D01*
X33105Y8739D02*
X33745D01*
X33160Y10926D02*
X33800D01*
X33155Y13063D02*
X33795D01*
X33150Y15400D02*
X33795D01*
X21100Y17150D02*
X21150Y17200D01*
Y18138D01*
X21169Y18157D01*
X21200D01*
X20618Y18550D02*
X21200D01*
X21233Y18569D02*
Y19150D01*
X21214Y18550D02*
X21233Y18569D01*
X21200Y18550D02*
X21214D01*
X19394Y4036D02*
X20483D01*
X23613Y4036D02*
Y4036D01*
Y4036D02*
X24648D01*
X35532Y550D02*
Y1585D01*
Y4715D01*
Y5803D01*
X29233Y550D02*
Y1585D01*
X29233Y550D02*
X29233D01*
Y1585D02*
Y4715D01*
Y5803D01*
X16634Y550D02*
Y1585D01*
X16634Y550D02*
X16634D01*
Y1585D02*
Y4715D01*
Y5803D01*
X10335Y550D02*
Y1585D01*
X10335Y550D02*
X10335D01*
Y1585D02*
Y4715D01*
Y5803D01*
D65*
X22351Y9713D02*
X25013D01*
X21413D02*
X22351D01*
X25013D02*
X25930Y10630D01*
X20586Y8885D02*
X21413Y9713D01*
X20581Y8880D02*
X20586Y8885D01*
X20540Y8880D02*
X20581D01*
X28819Y10630D02*
X29251Y11061D01*
X25930Y10630D02*
X28819D01*
X20586Y8885D02*
Y12365D01*
X20485Y12466D02*
X20586Y12365D01*
X2769Y25800D02*
Y26570D01*
Y25031D02*
Y25800D01*
X2000D02*
X2769D01*
X2000Y25800D02*
Y25800D01*
D66*
X7481Y20043D02*
Y22089D01*
X5131Y24439D02*
X7481Y22089D01*
X5131Y24439D02*
Y25800D01*
X19946Y12466D02*
X20485D01*
X18940Y11460D02*
X19946Y12466D01*
D67*
X14874Y12448D02*
D03*
X13325Y6463D02*
D03*
X12615Y2106D02*
D03*
X18109Y2892D02*
D03*
D68*
X14874Y12948D02*
D03*
Y13948D02*
D03*
X13325Y7963D02*
D03*
Y6963D02*
D03*
X12615Y3606D02*
D03*
Y2606D02*
D03*
X18109Y4392D02*
D03*
Y3392D02*
D03*
D69*
X14874Y13448D02*
D03*
Y14448D02*
D03*
X13325Y8463D02*
D03*
Y7463D02*
D03*
X12615Y4106D02*
D03*
Y3106D02*
D03*
X18109Y4892D02*
D03*
Y3892D02*
D03*
D70*
X20327Y1407D02*
D03*
X16534Y16402D02*
D03*
D71*
X20827Y1407D02*
D03*
X21827D02*
D03*
X18034Y16402D02*
D03*
X17034D02*
D03*
D72*
X21327Y1407D02*
D03*
X22327D02*
D03*
X18534Y16402D02*
D03*
X17534D02*
D03*
D73*
X40400Y26144D02*
D03*
X2756Y14567D02*
D03*
Y10630D02*
D03*
Y22441D02*
D03*
Y18504D02*
D03*
D74*
X40400Y25357D02*
D03*
X2756Y15355D02*
D03*
Y11418D02*
D03*
Y23229D02*
D03*
Y19292D02*
D03*
D75*
X23100Y17150D02*
D03*
X22100D02*
D03*
X21100D02*
D03*
D76*
X20100D02*
D03*
D77*
X12205Y20043D02*
D03*
Y24846D02*
D03*
X7481Y20043D02*
D03*
Y24846D02*
D03*
X20079Y20043D02*
D03*
Y24846D02*
D03*
X15355Y20043D02*
D03*
Y24846D02*
D03*
X23229D02*
D03*
Y20043D02*
D03*
X27953Y24846D02*
D03*
Y20043D02*
D03*
X35827D02*
D03*
Y24846D02*
D03*
X31103Y20043D02*
D03*
Y24846D02*
D03*
D78*
X9843Y19255D02*
D03*
X17717D02*
D03*
X25591D02*
D03*
X33465D02*
D03*
D79*
X24950Y16150D02*
D03*
D80*
X25450D02*
D03*
X25950D02*
D03*
X26450D02*
D03*
X26950D02*
D03*
X24950Y15650D02*
D03*
X25450D02*
D03*
X25950D02*
D03*
X26450D02*
D03*
X26950D02*
D03*
D81*
X7874Y30303D02*
D03*
X9843D02*
D03*
X17717D02*
D03*
X15748D02*
D03*
X23622D02*
D03*
X25591D02*
D03*
X31496D02*
D03*
X33465D02*
D03*
D82*
X11811D02*
D03*
X19685D02*
D03*
X27559D02*
D03*
X35433D02*
D03*
D83*
X3150Y30709D02*
D03*
X40158D02*
D03*
Y3150D02*
D03*
X3150D02*
D03*
D84*
X12059Y4963D02*
D03*
X18266Y767D02*
D03*
Y1675D02*
D03*
X25573Y1790D02*
D03*
Y2810D02*
D03*
X32524Y1475D02*
D03*
X32523Y3790D02*
D03*
X31377Y885D02*
D03*
Y4381D02*
D03*
X26224Y3790D02*
D03*
X25668D02*
D03*
X25078Y885D02*
D03*
X26224Y1475D02*
D03*
X13626D02*
D03*
X12479Y885D02*
D03*
X7327Y1475D02*
D03*
X6180Y885D02*
D03*
Y4381D02*
D03*
X7326Y3790D02*
D03*
X23588Y5355D02*
D03*
X22646Y5571D02*
D03*
X24339Y5950D02*
D03*
X25134Y6595D02*
D03*
X25160Y7626D02*
D03*
X22254Y18353D02*
D03*
X22955Y13054D02*
D03*
X23856Y15909D02*
D03*
X21500Y11845D02*
D03*
X25057Y13374D02*
D03*
X25174Y12116D02*
D03*
X22318Y12400D02*
D03*
X21659Y12430D02*
D03*
X28530Y12016D02*
D03*
X22239Y16139D02*
D03*
X22351Y9713D02*
D03*
X24500Y12080D02*
D03*
X22480Y10720D02*
D03*
X20540Y8880D02*
D03*
X2769Y26570D02*
D03*
X2770Y25031D02*
D03*
X2000Y25800D02*
D03*
X8000Y12589D02*
D03*
X27810Y15050D02*
D03*
X25590Y14940D02*
D03*
X29251Y11061D02*
D03*
X20485Y12466D02*
D03*
X18940Y11460D02*
D03*
X18535Y9866D02*
D03*
X18340Y12210D02*
D03*
X18370Y11670D02*
D03*
X17009Y11438D02*
D03*
X21735Y13050D02*
D03*
X32105Y13063D02*
D03*
X32100Y15400D02*
D03*
X33849Y32000D02*
D03*
X33080Y32001D02*
D03*
X33465Y32444D02*
D03*
X25975Y32000D02*
D03*
X25206Y32001D02*
D03*
X25591Y32444D02*
D03*
X18101Y32000D02*
D03*
X17332Y32001D02*
D03*
X17717Y32444D02*
D03*
X10235Y32005D02*
D03*
X9466Y32005D02*
D03*
X9851Y32449D02*
D03*
X41576Y21125D02*
D03*
X41576Y20376D02*
D03*
X39525Y20366D02*
D03*
X39525Y21125D02*
D03*
X5314Y22012D02*
D03*
X5693Y22451D02*
D03*
X5254Y22889D02*
D03*
X19762Y15378D02*
D03*
X25556Y11551D02*
D03*
X26515Y11431D02*
D03*
X26516Y9570D02*
D03*
X26946Y9001D02*
D03*
Y8451D02*
D03*
X28519Y9601D02*
D03*
X28684Y14413D02*
D03*
X29550Y17131D02*
D03*
X29989Y16692D02*
D03*
X29112Y16691D02*
D03*
X37762Y17139D02*
D03*
X38201Y16701D02*
D03*
X38432Y15850D02*
D03*
X39247Y12600D02*
D03*
Y13300D02*
D03*
X39501Y14047D02*
D03*
X39062Y14485D02*
D03*
X40700Y15550D02*
D03*
X21952Y19150D02*
D03*
X19000Y2819D02*
D03*
X15417Y6197D02*
D03*
X28015D02*
D03*
X34315D02*
D03*
X34740Y8739D02*
D03*
X34795Y10926D02*
D03*
X34790Y13063D02*
D03*
Y15400D02*
D03*
X35818Y32015D02*
D03*
X35049Y32016D02*
D03*
X35434Y32385D02*
D03*
X27560Y32385D02*
D03*
X27175Y32001D02*
D03*
X27944Y32000D02*
D03*
X19686Y32385D02*
D03*
X20070Y32000D02*
D03*
X19301Y32001D02*
D03*
X11801Y32444D02*
D03*
X11416Y32001D02*
D03*
X12185Y32000D02*
D03*
X9118Y6197D02*
D03*
X21600Y8500D02*
D03*
X19550Y10250D02*
D03*
Y10950D02*
D03*
M02*
